
<svg xmlns="http://www.w3.org/2000/svg" version="1.1" xmlns:xlink="http://www.w3.org/1999/xlink" preserveAspectRatio="none" x="0px" y="0px" width="300px" height="250px" viewBox="0 0 300 250">
<defs>
<g id="Mask_flash0_ai_1_Layer_1__Clip_Group__0_2_MASK_0_FILL">
<path fill="#FFFFFF" stroke="none" d="
M 792 612
L 792 0 0 0 0 612 792 612 Z"/>
</g>

<g id="flash0_ai_1_Layer_1__Clip_Group__0_Layer2_0_FILL">
<path fill="#3A3838" stroke="none" d="
M 54.1 295.2
L 67.2 295.2 67.2 290 48.2 290 48.2 318.55 54.1 318.55 54.1 307.6 66.25 307.6 66.25 302.45 54.1 302.45 54.1 295.2 Z"/>
</g>

<g id="Mask_flash0_ai_1_Layer_1__Clip_Group__0_0_2_MASK_0_FILL">
<path fill="#FFFFFF" stroke="none" d="
M 792 612
L 792 0 0 0 0 612 792 612 Z"/>
</g>

<g id="flash0_ai_1_Layer_1__Clip_Group__0_0_Layer2_0_FILL">
<path fill="#3A3838" stroke="none" d="
M 112.45 290
L 106.5 290 106.5 306.45
Q 106.5 313.65 100.6 313.65 94.7 313.65 94.7 306.45
L 94.7 290 88.75 290 88.75 307.05
Q 88.75 312.8 92 315.95 95.15 319 100.6 319 106.1 319 109.2 315.95 112.45 312.8 112.45 307.05
L 112.45 290 Z"/>
</g>

<g id="flash0_ai_1_Layer_1__Clip_Group__0_0_Layer2_1_FILL">
<path fill="#3A3838" stroke="none" d="
M 141.15 290
L 135.2 290 135.2 318.55 154.45 318.55 154.45 313.3 141.15 313.3 141.15 290 Z"/>
</g>

<g id="flash0_ai_1_Layer_1__Clip_Group__0_0_Layer2_2_FILL">
<path fill="#3A3838" stroke="none" d="
M 182.4 290
L 176.45 290 176.45 318.55 195.7 318.55 195.7 313.3 182.4 313.3 182.4 290 Z"/>
</g>

<g id="flash0_ai_1_Layer_1__Clip_Group__0_0_Layer2_3_FILL">
<path fill="#3A3838" stroke="none" d="
M 263.2 291.95
Q 260.7 290 256.15 290
L 245.25 290 245.25 318.55 257.1 318.55
Q 261.6 318.55 264.1 316.45 266.65 314.35 266.65 310.45 266.65 308.15 265.35 306.3 264.05 304.5 262 303.8 263.65 303.2 264.7 301.65 265.8 300 265.8 297.75 265.8 294 263.2 291.95
M 250.95 295
L 255.8 295
Q 260.1 295 260.1 298.3 260.1 301.7 255.8 301.7
L 250.95 301.7 250.95 295
M 256.55 306.35
Q 258.65 306.35 259.75 307.3 260.85 308.25 260.85 309.95 260.85 311.6 259.75 312.55 258.6 313.5 256.55 313.5
L 250.95 313.5 250.95 306.35 256.55 306.35 Z"/>
</g>

<g id="flash0_ai_1_Layer_1__Clip_Group__0_0_Layer2_4_FILL">
<path fill="#3A3838" stroke="none" d="
M 310.45 293.7
Q 306.65 289.55 300.7 289.55 294.75 289.55 290.95 293.7 287.2 297.8 287.2 304.25 287.2 310.7 290.95 314.85 294.75 319 300.7 319 306.65 319 310.45 314.85 314.25 310.7 314.25 304.25 314.25 297.85 310.45 293.7
M 308.25 304.25
Q 308.25 308.45 306.2 311.1 304.1 313.7 300.7 313.7 297.35 313.7 295.3 311.1 293.25 308.45 293.25 304.25 293.25 300.05 295.3 297.45 297.35 294.85 300.7 294.85 304.1 294.85 306.2 297.45 308.25 300.05 308.25 304.25 Z"/>
</g>

<g id="flash0_ai_1_Layer_1__Clip_Group__0_0_Layer2_5_FILL">
<path fill="#3A3838" stroke="none" d="
M 356.35 293.85
Q 352.6 290 346.1 290
L 336 290 336 318.55 346.1 318.55
Q 352.55 318.55 356.35 314.65 360.15 310.8 360.15 304.25 360.15 297.7 356.35 293.85
M 341.9 295.2
L 345.85 295.2
Q 349.9 295.2 352.1 297.65 354.25 300.05 354.25 304.25 354.25 308.45 352.1 310.85 349.9 313.3 345.85 313.3
L 341.9 313.3 341.9 295.2 Z"/>
</g>

<g id="flash0_ai_1_Layer_1__Clip_Group__0_0_Layer2_6_FILL">
<path fill="#3A3838" stroke="none" d="
M 384.15 290
L 377.7 290 388 307.7 388 318.55 393.9 318.55 393.9 307.7 404.25 290 398 290 391.1 302.1 384.15 290 Z"/>
</g>

<g id="flash0_ai_1_Layer_1__Clip_Group__0_0_Layer2_7_FILL">
<path fill="#3A3838" stroke="none" d="
M 458.6 295.2
L 471.7 295.2 471.7 290 452.7 290 452.7 318.55 458.6 318.55 458.6 307.6 470.75 307.6 470.75 302.45 458.6 302.45 458.6 295.2 Z"/>
</g>

<g id="flash0_ai_1_Layer_1__Clip_Group__0_0_Layer2_8_FILL">
<path fill="#3A3838" stroke="none" d="
M 512.7 292.35
Q 510.05 290 505.45 290
L 493.65 290 493.65 318.55 499.6 318.55 499.6 307.9 502.7 307.9 509.75 318.55 516.45 318.55 508.9 307.5
Q 511.95 306.75 513.7 304.6 515.45 302.4 515.45 299.05 515.45 294.75 512.7 292.35
M 499.6 295.05
L 505.05 295.05
Q 507.25 295.05 508.45 296.15 509.55 297.2 509.55 299.05 509.55 300.9 508.45 301.95 507.25 303 505.05 303
L 499.6 303 499.6 295.05 Z"/>
</g>

<g id="flash0_ai_1_Layer_1__Clip_Group__0_0_Layer2_9_FILL">
<path fill="#3A3838" stroke="none" d="
M 556.9 290
L 537.5 290 537.5 318.55 556.9 318.55 556.9 313.3 543.4 313.3 543.4 306.5 555.65 306.5 555.65 301.45 543.4 301.45 543.4 295.2 556.9 295.2 556.9 290 Z"/>
</g>

<g id="flash0_ai_1_Layer_1__Clip_Group__0_0_Layer2_10_FILL">
<path fill="#3A3838" stroke="none" d="
M 598.55 290
L 579.2 290 579.2 318.55 598.55 318.55 598.55 313.3 585.05 313.3 585.05 306.5 597.3 306.5 597.3 301.45 585.05 301.45 585.05 295.2 598.55 295.2 598.55 290 Z"/>
</g>

<g id="flash0_ai_1_Layer_1__Clip_Group__0_0_Layer2_11_FILL">
<path fill="#3A3838" stroke="none" d="
M 641.25 293.85
Q 637.45 290 630.95 290
L 620.85 290 620.85 318.55 630.95 318.55
Q 637.45 318.55 641.25 314.65 645.05 310.8 645.05 304.25 645.05 297.7 641.25 293.85
M 626.75 295.2
L 630.7 295.2
Q 634.75 295.2 636.95 297.65 639.1 300.05 639.1 304.25 639.1 308.45 636.95 310.85 634.75 313.3 630.7 313.3
L 626.75 313.3 626.75 295.2 Z"/>
</g>

<g id="flash0_ai_1_Layer_1__Clip_Group__0_0_Layer2_12_FILL">
<path fill="#3A3838" stroke="none" d="
M 679.15 289.55
Q 673.2 289.55 669.45 293.7 665.7 297.8 665.7 304.25 665.7 310.7 669.45 314.85 673.2 319 679.15 319 685.1 319 688.9 314.85 692.7 310.7 692.7 304.25 692.7 297.85 688.9 293.7 685.1 289.55 679.15 289.55
M 684.65 297.45
Q 686.7 300.05 686.7 304.25 686.7 308.45 684.65 311.1 682.55 313.7 679.15 313.7 675.8 313.7 673.75 311.1 671.7 308.45 671.7 304.25 671.7 300.05 673.75 297.45 675.8 294.85 679.15 294.85 682.55 294.85 684.65 297.45 Z"/>
</g>

<g id="flash0_ai_1_Layer_1__Clip_Group__0_0_Layer2_13_FILL">
<path fill="#3A3838" stroke="none" d="
M 743.75 290
L 736.75 290 729.2 310.15 721.55 290 714.5 290 714.5 318.55 720.1 318.55 720.1 299.9 727.15 318.55 731.2 318.55 738.1 299.9 738.1 318.55 743.75 318.55 743.75 290 Z"/>
</g>
</defs>

<g transform="matrix( 0.385223388671875, 0, 0, 0.385223388671875, -2.85,-51.9) ">
<mask id="Mask_Mask_1">
<g transform="matrix( 1, 0, 0, 1, 0,0) ">
<use xlink:href="#Mask_flash0_ai_1_Layer_1__Clip_Group__0_2_MASK_0_FILL"/>
</g>
</mask>

<g mask="url(#Mask_Mask_1)">
<g transform="matrix( 1, 0, 0, 1, 0,0) ">
<use xlink:href="#flash0_ai_1_Layer_1__Clip_Group__0_Layer2_0_FILL"/>
</g>

<g transform="matrix( 1, 0, 0, 1, 0,0) ">
<mask id="Mask_Mask_2">
<g transform="matrix( 1, 0, 0, 1, 0,0) ">
<use xlink:href="#Mask_flash0_ai_1_Layer_1__Clip_Group__0_0_2_MASK_0_FILL"/>
</g>
</mask>

<g mask="url(#Mask_Mask_2)">
<g transform="matrix( 1, 0, 0, 1, 0,0) ">
<use xlink:href="#flash0_ai_1_Layer_1__Clip_Group__0_0_Layer2_0_FILL"/>
</g>

<g transform="matrix( 1, 0, 0, 1, 0,0) ">
<use xlink:href="#flash0_ai_1_Layer_1__Clip_Group__0_0_Layer2_1_FILL"/>
</g>

<g transform="matrix( 1, 0, 0, 1, 0,0) ">
<use xlink:href="#flash0_ai_1_Layer_1__Clip_Group__0_0_Layer2_2_FILL"/>
</g>

<g transform="matrix( 1, 0, 0, 1, 0,0) ">
<use xlink:href="#flash0_ai_1_Layer_1__Clip_Group__0_0_Layer2_3_FILL"/>
</g>

<g transform="matrix( 1, 0, 0, 1, 0,0) ">
<use xlink:href="#flash0_ai_1_Layer_1__Clip_Group__0_0_Layer2_4_FILL"/>
</g>

<g transform="matrix( 1, 0, 0, 1, 0,0) ">
<use xlink:href="#flash0_ai_1_Layer_1__Clip_Group__0_0_Layer2_5_FILL"/>
</g>

<g transform="matrix( 1, 0, 0, 1, 0,0) ">
<use xlink:href="#flash0_ai_1_Layer_1__Clip_Group__0_0_Layer2_6_FILL"/>
</g>

<g transform="matrix( 1, 0, 0, 1, 0,0) ">
<use xlink:href="#flash0_ai_1_Layer_1__Clip_Group__0_0_Layer2_7_FILL"/>
</g>

<g transform="matrix( 1, 0, 0, 1, 0,0) ">
<use xlink:href="#flash0_ai_1_Layer_1__Clip_Group__0_0_Layer2_8_FILL"/>
</g>

<g transform="matrix( 1, 0, 0, 1, 0,0) ">
<use xlink:href="#flash0_ai_1_Layer_1__Clip_Group__0_0_Layer2_9_FILL"/>
</g>

<g transform="matrix( 1, 0, 0, 1, 0,0) ">
<use xlink:href="#flash0_ai_1_Layer_1__Clip_Group__0_0_Layer2_10_FILL"/>
</g>

<g transform="matrix( 1, 0, 0, 1, 0,0) ">
<use xlink:href="#flash0_ai_1_Layer_1__Clip_Group__0_0_Layer2_11_FILL"/>
</g>

<g transform="matrix( 1, 0, 0, 1, 0,0) ">
<use xlink:href="#flash0_ai_1_Layer_1__Clip_Group__0_0_Layer2_12_FILL"/>
</g>

<g transform="matrix( 1, 0, 0, 1, 0,0) ">
<use xlink:href="#flash0_ai_1_Layer_1__Clip_Group__0_0_Layer2_13_FILL"/>
</g>
</g>
</g>
</g>
</g>
</svg>
