
<svg xmlns="http://www.w3.org/2000/svg" version="1.1" xmlns:xlink="http://www.w3.org/1999/xlink" preserveAspectRatio="none" x="0px" y="0px" width="160px" height="600px" viewBox="0 0 160 600">
<defs>
<g id="TECHNICAL_160x600_FINAL_psd_Asset_Layer_2_The_feeling_of__being_naked_0_Layer0_0_MEMBER_0_FILL">
<path fill="#221E1F" stroke="none" d="
M -178.95 -40.05
L -178.95 -35.45 -165 -35.45 -165 0 -159.85 0 -159.85 -35.45 -145.9 -35.45 -145.9 -40.05 -178.95 -40.05 Z"/>
</g>

<g id="TECHNICAL_160x600_FINAL_psd_Asset_Layer_2_The_feeling_of__being_naked_0_Layer0_0_MEMBER_1_FILL">
<path fill="#221E1F" stroke="none" d="
M -134.7 -42.4
L -139.55 -42.4 -139.55 0 -134.7 0 -134.7 -19.65
Q -133.9 -22 -131.9 -23.5 -129.8 -25.05 -127.3 -25.05 -124.15 -25.05 -122.5 -23.15 -120.95 -21.35 -120.95 -18.2
L -120.95 0 -115.95 0 -115.95 -18.95
Q -115.95 -23.8 -118.55 -26.65 -121.3 -29.55 -126.15 -29.55 -128.8 -29.55 -131.15 -28.3 -133.35 -27.15 -134.7 -25.3
L -134.7 -42.4 Z"/>
</g>

<g id="TECHNICAL_160x600_FINAL_psd_Asset_Layer_2_The_feeling_of__being_naked_0_Layer0_0_MEMBER_2_FILL">
<path fill="#221E1F" stroke="none" d="
M -87.5 -25.6
Q -90.75 -29.55 -96.6 -29.55 -102.45 -29.55 -106.15 -25.25 -109.75 -21 -109.75 -14.4 -109.75 -7.7 -106.05 -3.55 -102.35 0.6 -96.45 0.6 -91.7 0.6 -88.6 -2 -85.6 -4.45 -84.8 -8.65
L -89.45 -8.65
Q -90 -6.25 -91.9 -4.9 -93.75 -3.6 -96.45 -3.6 -100.15 -3.6 -102.45 -6.25 -104.8 -8.95 -104.9 -13.55
L -84.4 -13.55 -84.4 -15.3
Q -84.4 -21.8 -87.5 -25.6
M -104.75 -17.3
Q -104.25 -21.05 -102 -23.2 -99.85 -25.35 -96.55 -25.35 -93.1 -25.35 -91.15 -22.95 -89.45 -20.75 -89.35 -17.3
L -104.75 -17.3 Z"/>
</g>

<g id="TECHNICAL_160x600_FINAL_psd_Asset_Layer_2_The_feeling_of__being_naked_0_Layer0_0_MEMBER_3_FILL">
<path fill="#221E1F" stroke="none" d="
M -49 -37.9
L -49 -42.3
Q -50.6 -42.95 -52.8 -42.95 -56.7 -42.95 -59.1 -40.55 -61.65 -38.05 -61.65 -33.75
L -61.65 -28.95 -66.55 -28.95 -66.55 -24.8 -61.65 -24.8 -61.65 0 -56.85 0 -56.85 -24.8 -50.3 -24.8 -50.3 -28.95 -56.85 -28.95 -56.85 -33.4
Q -56.85 -35.95 -55.55 -37.3 -54.25 -38.65 -52.05 -38.65 -50.25 -38.65 -49 -37.9 Z"/>
</g>

<g id="TECHNICAL_160x600_FINAL_psd_Asset_Layer_2_The_feeling_of__being_naked_0_Layer0_0_MEMBER_4_FILL">
<path fill="#221E1F" stroke="none" d="
M -47.2 -14.4
Q -47.2 -7.75 -43.5 -3.55 -39.8 0.6 -33.9 0.6 -29.1 0.6 -26 -2 -23 -4.45 -22.2 -8.65
L -26.85 -8.65
Q -27.4 -6.25 -29.3 -4.9 -31.15 -3.6 -33.9 -3.6 -37.6 -3.6 -39.9 -6.25 -42.2 -8.95 -42.3 -13.55
L -21.8 -13.55 -21.8 -15.3
Q -21.8 -21.8 -24.9 -25.6 -28.15 -29.55 -34 -29.55 -39.85 -29.55 -43.55 -25.25 -47.2 -21 -47.2 -14.4
M -28.55 -22.95
Q -26.85 -20.75 -26.75 -17.3
L -42.15 -17.3
Q -41.65 -21.05 -39.4 -23.2 -37.25 -25.35 -33.95 -25.35 -30.5 -25.35 -28.55 -22.95 Z"/>
</g>

<g id="TECHNICAL_160x600_FINAL_psd_Asset_Layer_2_The_feeling_of__being_naked_0_Layer0_0_MEMBER_5_FILL">
<path fill="#221E1F" stroke="none" d="
M 7.7 -8.65
L 3.1 -8.65
Q 2.5 -6.25 0.65 -4.9 -1.2 -3.6 -3.95 -3.6 -7.65 -3.6 -9.95 -6.25 -12.3 -8.95 -12.35 -13.55
L 8.1 -13.55 8.1 -15.3
Q 8.1 -21.8 5 -25.6 1.75 -29.55 -4.1 -29.55 -9.95 -29.55 -13.6 -25.25 -17.25 -21 -17.25 -14.4 -17.25 -7.7 -13.55 -3.55 -9.85 0.6 -3.95 0.6 0.8 0.6 3.95 -2 6.95 -4.45 7.7 -8.65
M 1.35 -22.95
Q 3.1 -20.75 3.15 -17.3
L -12.25 -17.3
Q -11.7 -21.1 -9.5 -23.2 -7.3 -25.35 -4 -25.35 -0.55 -25.35 1.35 -22.95 Z"/>
</g>

<g id="TECHNICAL_160x600_FINAL_psd_Asset_Layer_2_The_feeling_of__being_naked_0_Layer0_0_MEMBER_6_FILL">
<path fill="#221E1F" stroke="none" d="
M 19.55 -42.4
L 14.65 -42.4 14.65 0 19.55 0 19.55 -42.4 Z"/>
</g>

<g id="TECHNICAL_160x600_FINAL_psd_Asset_Layer_2_The_feeling_of__being_naked_0_Layer0_0_MEMBER_7_FILL">
<path fill="#221E1F" stroke="none" d="
M 33.15 -28.95
L 28.25 -28.95 28.25 0 33.15 0 33.15 -28.95
M 32.95 -39.9
Q 32 -40.8 30.7 -40.8 29.4 -40.8 28.5 -39.9 27.55 -39 27.55 -37.7 27.55 -36.4 28.5 -35.5 29.45 -34.55 30.7 -34.55 32 -34.55 32.95 -35.5 33.85 -36.4 33.85 -37.7 33.85 -39 32.95 -39.9 Z"/>
</g>

<g id="TECHNICAL_160x600_FINAL_psd_Asset_Layer_2_The_feeling_of__being_naked_0_Layer0_0_MEMBER_8_FILL">
<path fill="#221E1F" stroke="none" d="
M 46.8 -28.95
L 41.9 -28.95 41.9 0 46.8 0 46.8 -19.65
Q 47.6 -22 49.6 -23.5 51.65 -25.05 54.15 -25.05 57.3 -25.05 59 -23.15 60.55 -21.35 60.55 -18.2
L 60.55 0 65.5 0 65.5 -18.95
Q 65.5 -23.8 62.9 -26.65 60.2 -29.55 55.35 -29.55 52.7 -29.55 50.3 -28.3 48.15 -27.15 46.8 -25.3
L 46.8 -28.95 Z"/>
</g>

<g id="TECHNICAL_160x600_FINAL_psd_Asset_Layer_2_The_feeling_of__being_naked_0_Layer0_0_MEMBER_9_FILL">
<path fill="#221E1F" stroke="none" d="
M 71.7 -14.85
Q 71.7 -8.8 75 -4.65 78.6 -0.2 84.65 -0.2 87.2 -0.2 89.5 -1.4 91.55 -2.45 92.75 -4.1
L 92.75 -1.95
Q 92.75 2.75 90.75 5.15 88.7 7.55 84.8 7.55 78.5 7.55 77.25 2.15
L 72.4 2.15
Q 73.1 6.65 76.3 9.2 79.55 11.75 84.8 11.75 90.65 11.75 94.05 8.3 97.7 4.6 97.7 -2.3
L 97.7 -28.95 92.75 -28.95 92.75 -25.7
Q 91.6 -27.3 89.5 -28.35 87.2 -29.55 84.65 -29.55 78.6 -29.55 75 -25.1 71.7 -20.95 71.7 -14.85
M 76.7 -14.85
Q 76.7 -19.45 79 -22.25 81.35 -25.15 85.4 -25.15 87.7 -25.15 89.7 -23.95 91.6 -22.75 92.75 -20.65
L 92.75 -9.15
Q 91.6 -7.05 89.7 -5.85 87.7 -4.65 85.4 -4.65 81.35 -4.65 79 -7.55 76.7 -10.3 76.7 -14.85 Z"/>
</g>

<g id="TECHNICAL_160x600_FINAL_psd_Asset_Layer_2_The_feeling_of__being_naked_0_Layer0_0_MEMBER_10_FILL">
<path fill="#221E1F" stroke="none" d="
M 141.7 -25.35
Q 137.95 -29.55 132.05 -29.55 126.1 -29.55 122.4 -25.35 118.75 -21.15 118.75 -14.45 118.75 -7.8 122.4 -3.6 126.1 0.6 132.05 0.6 137.95 0.6 141.7 -3.6 145.4 -7.8 145.4 -14.45 145.4 -21.15 141.7 -25.35
M 138.2 -22.25
Q 140.4 -19.3 140.4 -14.45 140.4 -9.65 138.2 -6.7 135.95 -3.7 132.05 -3.7 128.2 -3.7 125.95 -6.7 123.75 -9.65 123.75 -14.45 123.75 -19.3 125.95 -22.25 128.2 -25.25 132.05 -25.25 135.95 -25.25 138.2 -22.25 Z"/>
</g>

<g id="TECHNICAL_160x600_FINAL_psd_Asset_Layer_2_The_feeling_of__being_naked_0_Layer0_0_MEMBER_11_FILL">
<path fill="#221E1F" stroke="none" d="
M 158.7 -33.4
Q 158.7 -35.95 160 -37.3 161.25 -38.65 163.45 -38.65 165.25 -38.65 166.5 -37.9
L 166.5 -42.3
Q 164.9 -42.95 162.7 -42.95 158.8 -42.95 156.4 -40.55 153.85 -38.05 153.85 -33.75
L 153.85 -28.95 148.95 -28.95 148.95 -24.8 153.85 -24.8 153.85 0 158.7 0 158.7 -24.8 165.2 -24.8 165.2 -28.95 158.7 -28.95 158.7 -33.4 Z"/>
</g>

<g id="TECHNICAL_160x600_FINAL_psd_Asset_Layer_2_The_feeling_of__being_naked_0_Layer0_0_MEMBER_12_FILL">
<path fill="#221E1F" stroke="none" d="
M -145 27.6
L -150 27.6 -150 69.95 -145 69.95 -145 66.55
Q -143.9 68.2 -141.75 69.35 -139.45 70.55 -136.85 70.55 -130.75 70.55 -127.2 66.1 -123.85 61.95 -123.85 55.5 -123.85 49.1 -127.2 44.9 -130.75 40.4 -136.85 40.4 -139.45 40.4 -141.75 41.6 -143.9 42.75 -145 44.4
L -145 27.6
M -137.6 44.85
Q -133.5 44.85 -131.1 47.85 -128.8 50.8 -128.8 55.5 -128.8 60.2 -131.1 63.1 -133.5 66.1 -137.6 66.1 -139.9 66.1 -141.9 64.85 -143.9 63.6 -145 61.35
L -145 49.6
Q -143.9 47.35 -141.9 46.1 -139.9 44.85 -137.6 44.85 Z"/>
</g>

<g id="TECHNICAL_160x600_FINAL_psd_Asset_Layer_2_The_feeling_of__being_naked_0_Layer0_0_MEMBER_13_FILL">
<path fill="#221E1F" stroke="none" d="
M -105.95 40.4
Q -111.8 40.4 -115.5 44.75 -119.15 49 -119.15 55.55 -119.15 62.25 -115.45 66.4 -111.75 70.55 -105.85 70.55 -101.05 70.55 -97.95 67.95 -94.95 65.5 -94.15 61.3
L -98.8 61.3
Q -99.35 63.7 -101.25 65.05 -103.1 66.35 -105.85 66.35 -109.55 66.35 -111.85 63.7 -114.2 61 -114.25 56.4
L -93.75 56.4 -93.75 54.65
Q -93.75 48.15 -96.85 44.35 -100.1 40.4 -105.95 40.4
M -111.35 46.75
Q -109.2 44.6 -105.9 44.6 -102.45 44.6 -100.5 47.05 -98.8 49.25 -98.7 52.7
L -114.1 52.7
Q -113.6 48.9 -111.35 46.75 Z"/>
</g>

<g id="TECHNICAL_160x600_FINAL_psd_Asset_Layer_2_The_feeling_of__being_naked_0_Layer0_0_MEMBER_14_FILL">
<path fill="#221E1F" stroke="none" d="
M -82.35 41
L -87.25 41 -87.25 69.95 -82.35 69.95 -82.35 41
M -82.55 34.45
Q -81.65 33.55 -81.65 32.25 -81.65 30.95 -82.55 30.05 -83.5 29.15 -84.85 29.15 -86.15 29.15 -87.05 30.05 -87.95 30.95 -87.95 32.25 -87.95 33.55 -87.05 34.45 -86.1 35.4 -84.85 35.4 -83.5 35.4 -82.55 34.45 Z"/>
</g>

<g id="TECHNICAL_160x600_FINAL_psd_Asset_Layer_2_The_feeling_of__being_naked_0_Layer0_0_MEMBER_15_FILL">
<path fill="#221E1F" stroke="none" d="
M -68.75 41
L -73.6 41 -73.6 69.95 -68.75 69.95 -68.75 50.35
Q -67.95 47.95 -65.95 46.45 -63.85 44.9 -61.35 44.9 -58.2 44.9 -56.5 46.8 -54.95 48.6 -54.95 51.75
L -54.95 69.95 -50 69.95 -50 51
Q -50 46.15 -52.6 43.3 -55.35 40.4 -60.2 40.4 -62.8 40.4 -65.2 41.7 -67.35 42.85 -68.75 44.65
L -68.75 41 Z"/>
</g>

<g id="TECHNICAL_160x600_FINAL_psd_Asset_Layer_2_The_feeling_of__being_naked_0_Layer0_0_MEMBER_16_FILL">
<path fill="#221E1F" stroke="none" d="
M -30.85 40.4
Q -36.9 40.4 -40.5 44.85 -43.8 49 -43.8 55.1 -43.8 61.15 -40.5 65.3 -36.9 69.75 -30.85 69.75 -28.3 69.75 -26 68.55 -23.95 67.5 -22.75 65.85
L -22.75 68
Q -22.75 77.5 -30.7 77.5 -37.05 77.5 -38.3 72.1
L -43.1 72.1
Q -42.4 76.6 -39.2 79.15 -35.95 81.7 -30.7 81.7 -24.9 81.7 -21.45 78.25 -17.8 74.55 -17.8 67.7
L -17.8 41 -22.75 41 -22.75 44.25
Q -23.9 42.65 -26 41.6 -28.3 40.4 -30.85 40.4
M -25.85 46
Q -23.9 47.2 -22.75 49.3
L -22.75 60.85
Q -23.9 62.9 -25.85 64.1 -27.8 65.35 -30.15 65.35 -34.15 65.35 -36.5 62.45 -38.8 59.65 -38.8 55.1 -38.8 50.5 -36.5 47.7 -34.15 44.8 -30.15 44.8 -27.8 44.8 -25.85 46 Z"/>
</g>

<g id="TECHNICAL_160x600_FINAL_psd_Asset_Layer_2_The_feeling_of__being_naked_0_Layer0_0_MEMBER_17_FILL">
<path fill="#221E1F" stroke="none" d="
M 10.25 41
L 5.35 41 5.35 69.95 10.25 69.95 10.25 50.35
Q 11.05 47.95 13.05 46.45 15.1 44.9 17.6 44.9 20.75 44.9 22.45 46.8 24 48.6 24 51.75
L 24 69.95 28.95 69.95 28.95 51
Q 28.95 46.15 26.35 43.3 23.65 40.4 18.8 40.4 16.15 40.4 13.75 41.7 11.65 42.8 10.25 44.65
L 10.25 41 Z"/>
</g>

<g id="TECHNICAL_160x600_FINAL_psd_Asset_Layer_2_The_feeling_of__being_naked_0_Layer0_0_MEMBER_18_FILL">
<path fill="#221E1F" stroke="none" d="
M 47.15 44.65
Q 50.2 44.65 51.9 46.4 53.55 48.05 53.55 50.85
L 53.55 54.5
Q 52.55 53.6 50.55 52.9 48.35 52.15 46.25 52.15 41.55 52.15 38.4 54.65 35.15 57.2 35.15 61.2 35.15 65.4 38.35 68 41.35 70.5 45.9 70.5 48.3 70.5 50.6 69.6 52.55 68.8 53.55 67.8
L 53.55 69.95 58.25 69.95 58.25 50.65
Q 58.25 45.9 55.3 43.15 52.35 40.4 47.2 40.4 43.05 40.4 40.1 42.7 37.1 44.95 36.4 48.65
L 41.2 48.65
Q 42.55 44.65 47.15 44.65
M 50.95 57.2
Q 52.9 58.2 53.55 59.8
L 53.55 62.8
Q 52.95 64.4 50.95 65.4 49.05 66.35 46.75 66.35 43.9 66.35 42 65.1 39.85 63.7 39.85 61.2 39.85 58.75 42 57.4 43.9 56.2 46.75 56.2 49.05 56.2 50.95 57.2 Z"/>
</g>

<g id="TECHNICAL_160x600_FINAL_psd_Asset_Layer_2_The_feeling_of__being_naked_0_Layer0_0_MEMBER_19_FILL">
<path fill="#221E1F" stroke="none" d="
M 91.15 41
L 84.7 41 71.45 53.85 71.45 27.6 66.6 27.6 66.6 69.95 71.45 69.95 71.45 59.6 74.6 56.6 85.6 69.95 91.6 69.95 78.1 53.55 91.15 41 Z"/>
</g>

<g id="TECHNICAL_160x600_FINAL_psd_Asset_Layer_2_The_feeling_of__being_naked_0_Layer0_0_MEMBER_20_FILL">
<path fill="#221E1F" stroke="none" d="
M 107.05 40.4
Q 101.2 40.4 97.55 44.75 93.9 49 93.9 55.55 93.9 62.25 97.6 66.4 101.25 70.55 107.2 70.55 111.95 70.55 115.1 67.95 118.1 65.5 118.85 61.3
L 114.25 61.3
Q 113.65 63.7 111.8 65.05 109.95 66.35 107.2 66.35 103.45 66.35 101.2 63.7 98.85 61 98.8 56.4
L 119.25 56.4 119.25 54.65
Q 119.25 48.15 116.15 44.35 112.9 40.4 107.05 40.4
M 101.65 46.75
Q 103.85 44.6 107.15 44.6 110.55 44.6 112.5 47.05 114.25 49.25 114.3 52.7
L 98.9 52.7
Q 99.45 48.9 101.65 46.75 Z"/>
</g>

<g id="TECHNICAL_160x600_FINAL_psd_Asset_Layer_2_The_feeling_of__being_naked_0_Layer0_0_MEMBER_21_FILL">
<path fill="#221E1F" stroke="none" d="
M 136.85 40.4
Q 130.75 40.4 127.2 44.9 123.85 49.1 123.85 55.5 123.85 61.95 127.2 66.1 130.75 70.55 136.85 70.55 139.45 70.55 141.75 69.35 143.9 68.2 145 66.55
L 145 69.95 149.95 69.95 149.95 27.6 145 27.6 145 44.4
Q 143.9 42.75 141.75 41.6 139.45 40.4 136.85 40.4
M 137.6 44.85
Q 139.9 44.85 141.9 46.1 143.9 47.35 145 49.6
L 145 61.35
Q 143.9 63.6 141.9 64.85 139.9 66.1 137.6 66.1 133.5 66.1 131.1 63.1 128.8 60.2 128.8 55.5 128.8 50.8 131.1 47.85 133.5 44.85 137.6 44.85 Z"/>
</g>
</defs>

<g transform="matrix( 1, 0, 0, 1, -203,42) ">
<g transform="matrix( 1, 0, 0, 1, 216,7) ">
<g transform="matrix( 0.369964599609375, 0, 0, 0.3073272705078125, 66.5,13.65) ">
<use xlink:href="#TECHNICAL_160x600_FINAL_psd_Asset_Layer_2_The_feeling_of__being_naked_0_Layer0_0_MEMBER_0_FILL"/>
</g>

<g transform="matrix( 0.369964599609375, 0, 0, 0.3073272705078125, 66.5,13.65) ">
<use xlink:href="#TECHNICAL_160x600_FINAL_psd_Asset_Layer_2_The_feeling_of__being_naked_0_Layer0_0_MEMBER_1_FILL"/>
</g>

<g transform="matrix( 0.369964599609375, 0, 0, 0.3073272705078125, 66.5,13.65) ">
<use xlink:href="#TECHNICAL_160x600_FINAL_psd_Asset_Layer_2_The_feeling_of__being_naked_0_Layer0_0_MEMBER_2_FILL"/>
</g>

<g transform="matrix( 0.369964599609375, 0, 0, 0.3073272705078125, 66.5,13.65) ">
<use xlink:href="#TECHNICAL_160x600_FINAL_psd_Asset_Layer_2_The_feeling_of__being_naked_0_Layer0_0_MEMBER_3_FILL"/>
</g>

<g transform="matrix( 0.369964599609375, 0, 0, 0.3073272705078125, 66.5,13.65) ">
<use xlink:href="#TECHNICAL_160x600_FINAL_psd_Asset_Layer_2_The_feeling_of__being_naked_0_Layer0_0_MEMBER_4_FILL"/>
</g>

<g transform="matrix( 0.369964599609375, 0, 0, 0.3073272705078125, 66.5,13.65) ">
<use xlink:href="#TECHNICAL_160x600_FINAL_psd_Asset_Layer_2_The_feeling_of__being_naked_0_Layer0_0_MEMBER_5_FILL"/>
</g>

<g transform="matrix( 0.369964599609375, 0, 0, 0.3073272705078125, 66.5,13.65) ">
<use xlink:href="#TECHNICAL_160x600_FINAL_psd_Asset_Layer_2_The_feeling_of__being_naked_0_Layer0_0_MEMBER_6_FILL"/>
</g>

<g transform="matrix( 0.369964599609375, 0, 0, 0.3073272705078125, 66.5,13.65) ">
<use xlink:href="#TECHNICAL_160x600_FINAL_psd_Asset_Layer_2_The_feeling_of__being_naked_0_Layer0_0_MEMBER_7_FILL"/>
</g>

<g transform="matrix( 0.369964599609375, 0, 0, 0.3073272705078125, 66.5,13.65) ">
<use xlink:href="#TECHNICAL_160x600_FINAL_psd_Asset_Layer_2_The_feeling_of__being_naked_0_Layer0_0_MEMBER_8_FILL"/>
</g>

<g transform="matrix( 0.369964599609375, 0, 0, 0.3073272705078125, 66.5,13.65) ">
<use xlink:href="#TECHNICAL_160x600_FINAL_psd_Asset_Layer_2_The_feeling_of__being_naked_0_Layer0_0_MEMBER_9_FILL"/>
</g>

<g transform="matrix( 0.369964599609375, 0, 0, 0.3073272705078125, 66.5,13.65) ">
<use xlink:href="#TECHNICAL_160x600_FINAL_psd_Asset_Layer_2_The_feeling_of__being_naked_0_Layer0_0_MEMBER_10_FILL"/>
</g>

<g transform="matrix( 0.369964599609375, 0, 0, 0.3073272705078125, 66.5,13.65) ">
<use xlink:href="#TECHNICAL_160x600_FINAL_psd_Asset_Layer_2_The_feeling_of__being_naked_0_Layer0_0_MEMBER_11_FILL"/>
</g>

<g transform="matrix( 0.369964599609375, 0, 0, 0.3073272705078125, 66.5,13.65) ">
<use xlink:href="#TECHNICAL_160x600_FINAL_psd_Asset_Layer_2_The_feeling_of__being_naked_0_Layer0_0_MEMBER_12_FILL"/>
</g>

<g transform="matrix( 0.369964599609375, 0, 0, 0.3073272705078125, 66.5,13.65) ">
<use xlink:href="#TECHNICAL_160x600_FINAL_psd_Asset_Layer_2_The_feeling_of__being_naked_0_Layer0_0_MEMBER_13_FILL"/>
</g>

<g transform="matrix( 0.369964599609375, 0, 0, 0.3073272705078125, 66.5,13.65) ">
<use xlink:href="#TECHNICAL_160x600_FINAL_psd_Asset_Layer_2_The_feeling_of__being_naked_0_Layer0_0_MEMBER_14_FILL"/>
</g>

<g transform="matrix( 0.369964599609375, 0, 0, 0.3073272705078125, 66.5,13.65) ">
<use xlink:href="#TECHNICAL_160x600_FINAL_psd_Asset_Layer_2_The_feeling_of__being_naked_0_Layer0_0_MEMBER_15_FILL"/>
</g>

<g transform="matrix( 0.369964599609375, 0, 0, 0.3073272705078125, 66.5,13.65) ">
<use xlink:href="#TECHNICAL_160x600_FINAL_psd_Asset_Layer_2_The_feeling_of__being_naked_0_Layer0_0_MEMBER_16_FILL"/>
</g>

<g transform="matrix( 0.369964599609375, 0, 0, 0.3073272705078125, 66.5,13.65) ">
<use xlink:href="#TECHNICAL_160x600_FINAL_psd_Asset_Layer_2_The_feeling_of__being_naked_0_Layer0_0_MEMBER_17_FILL"/>
</g>

<g transform="matrix( 0.369964599609375, 0, 0, 0.3073272705078125, 66.5,13.65) ">
<use xlink:href="#TECHNICAL_160x600_FINAL_psd_Asset_Layer_2_The_feeling_of__being_naked_0_Layer0_0_MEMBER_18_FILL"/>
</g>

<g transform="matrix( 0.369964599609375, 0, 0, 0.3073272705078125, 66.5,13.65) ">
<use xlink:href="#TECHNICAL_160x600_FINAL_psd_Asset_Layer_2_The_feeling_of__being_naked_0_Layer0_0_MEMBER_19_FILL"/>
</g>

<g transform="matrix( 0.369964599609375, 0, 0, 0.3073272705078125, 66.5,13.65) ">
<use xlink:href="#TECHNICAL_160x600_FINAL_psd_Asset_Layer_2_The_feeling_of__being_naked_0_Layer0_0_MEMBER_20_FILL"/>
</g>

<g transform="matrix( 0.369964599609375, 0, 0, 0.3073272705078125, 66.5,13.65) ">
<use xlink:href="#TECHNICAL_160x600_FINAL_psd_Asset_Layer_2_The_feeling_of__being_naked_0_Layer0_0_MEMBER_21_FILL"/>
</g>
</g>
</g>
</svg>
