
<svg xmlns="http://www.w3.org/2000/svg" version="1.1" xmlns:xlink="http://www.w3.org/1999/xlink" preserveAspectRatio="none" x="0px" y="0px" width="300px" height="250px" viewBox="0 0 300 250">
<defs>
<filter id="Filter_1" x="-20%" y="-20%" width="140%" height="140%" color-interpolation-filters="sRGB">
<feColorMatrix in="SourceGraphic" type="matrix" values="1 0 0 0 0 0 1 0 0 0 0 0 1 0 0 0 0 0 0.35 0" result="result1"/>
</filter>

<g id="Mask_flash0_ai_0_Isolation_Mode__Clip_Group__0_2_MASK_0_FILL">
<path fill="#FFFFFF" stroke="none" d="
M 833.35 202.6
L 833.35 0.05 0 0.05 0 202.6 833.35 202.6 Z"/>
</g>

<g id="flash0_ai_0_Isolation_Mode__Clip_Group__0_Layer2_0_FILL">
<path fill="#FBBEBD" stroke="none" d="
M 138.7 3.2
L 74.15 3.2 0 199.4 60.7 199.4 70.95 170.95 139.95 170.95 150.2 199.4 212.8 199.4 138.7 3.2
M 121.75 120.8
L 89.15 120.8 105.45 75.75 121.75 120.8 Z"/>
</g>

<g id="flash0_ai_0_Isolation_Mode__Clip_Group__0_Layer2_1_FILL">
<path fill="#FBBEBD" stroke="none" d="
M 366.8 199.4
L 366.8 146.35 282.45 146.35 282.45 3.2 220.45 3.2 220.45 199.4 366.8 199.4 Z"/>
</g>

<g id="flash0_ai_0_Isolation_Mode__Clip_Group__0_Layer2_2_FILL">
<path fill="#FBBEBD" stroke="none" d="
M 439.5 3.2
L 377.5 3.2 377.5 199.4 439.5 199.4 439.5 3.2 Z"/>
</g>

<g id="flash0_ai_0_Isolation_Mode__Clip_Group__0_Layer2_3_FILL">
<path fill="#FBBEBD" stroke="none" d="
M 576.5 71.6
L 640.05 71.6
Q 634.55 39.55 612.25 20.6 588.1 0 549.65 0 527.65 0 508.95 7.5 490.75 14.75 477.35 28.4 464 41.95 456.9 60.4 449.65 79.3 449.65 101.3 449.65 123.35 456.9 142.2 464 160.65 477.35 174.25 490.75 187.85 508.95 195.15 527.65 202.6 549.65 202.6 590.85 202.6 615.5 178.9 640.4 154.95 640.4 114.4
L 640.4 92.7 555.1 92.7 555.1 136.45 578.1 136.45
Q 570.3 148.6 549.65 148.6 532.15 148.6 522.05 135.85 511.95 123.15 511.95 101.3 511.95 80.15 521.45 67.45 531.5 54 549.65 54 559.85 54 566.8 58.6 573.6 63.1 576.5 71.6 Z"/>
</g>

<g id="flash0_ai_0_Isolation_Mode__Clip_Group__0_Layer2_4_FILL">
<path fill="#FBBEBD" stroke="none" d="
M 773.6 3.2
L 773.6 94.6 709.05 3.2 651.2 3.2 651.2 199.4 710.95 199.4 710.95 101.3 782.55 199.4 833.35 199.4 833.35 3.2 773.6 3.2 Z"/>
</g>
</defs>

<g transform="matrix( 0.3533782958984375, 0, 0, 0.3533782958984375, 1.75,26.4) ">
<g transform="matrix( 1, 0, 0, 1, 0,0) ">
<mask id="Mask_Mask_1">
<g transform="matrix( 1, 0, 0, 1, 0,0) ">
<use xlink:href="#Mask_flash0_ai_0_Isolation_Mode__Clip_Group__0_2_MASK_0_FILL"/>
</g>
</mask>

<g mask="url(#Mask_Mask_1)">
<g transform="matrix( 1, 0, 0, 1, 0,0) ">
<use filter="url(#Filter_1)" xlink:href="#flash0_ai_0_Isolation_Mode__Clip_Group__0_Layer2_0_FILL"/>
</g>

<g transform="matrix( 1, 0, 0, 1, 0,0) ">
<use filter="url(#Filter_1)" xlink:href="#flash0_ai_0_Isolation_Mode__Clip_Group__0_Layer2_1_FILL"/>
</g>

<g transform="matrix( 1, 0, 0, 1, 0,0) ">
<use filter="url(#Filter_1)" xlink:href="#flash0_ai_0_Isolation_Mode__Clip_Group__0_Layer2_2_FILL"/>
</g>

<g transform="matrix( 1, 0, 0, 1, 0,0) ">
<use filter="url(#Filter_1)" xlink:href="#flash0_ai_0_Isolation_Mode__Clip_Group__0_Layer2_3_FILL"/>
</g>

<g transform="matrix( 1, 0, 0, 1, 0,0) ">
<use filter="url(#Filter_1)" xlink:href="#flash0_ai_0_Isolation_Mode__Clip_Group__0_Layer2_4_FILL"/>
</g>
</g>
</g>
</g>
</svg>
