
<svg xmlns="http://www.w3.org/2000/svg" version="1.1" xmlns:xlink="http://www.w3.org/1999/xlink" preserveAspectRatio="none" x="0px" y="0px" width="300px" height="250px" viewBox="0 0 300 250">
<defs>
<g id="INSPIRATIONAL_BB_300x250_FINAL_psd_Asset_Layer_4_Align_Crop_Free_shipping___returns_0_Layer0_0_MEMBER_0_FILL">
<path fill="#F9C2C1" stroke="none" d="
M -222.65 -40.05
L -230.95 -40.05 -246.25 0 -237.9 0 -234.4 -9.65 -219.4 -9.65 -215.8 0 -207.35 0 -222.65 -40.05
M -231.8 -16.7
L -226.9 -30 -222 -16.7 -231.8 -16.7 Z"/>
</g>

<g id="INSPIRATIONAL_BB_300x250_FINAL_psd_Asset_Layer_4_Align_Crop_Free_shipping___returns_0_Layer0_0_MEMBER_1_FILL">
<path fill="#F9C2C1" stroke="none" d="
M -176.85 -40.05
L -185.2 -40.05 -185.2 0 -158.25 0 -158.25 -7.35 -176.85 -7.35 -176.85 -40.05 Z"/>
</g>

<g id="INSPIRATIONAL_BB_300x250_FINAL_psd_Asset_Layer_4_Align_Crop_Free_shipping___returns_0_Layer0_0_MEMBER_2_FILL">
<path fill="#F9C2C1" stroke="none" d="
M -126.55 -40.05
L -134.9 -40.05 -134.9 0 -126.55 0 -126.55 -40.05 Z"/>
</g>

<g id="INSPIRATIONAL_BB_300x250_FINAL_psd_Asset_Layer_4_Align_Crop_Free_shipping___returns_0_Layer0_0_MEMBER_3_FILL">
<path fill="#F9C2C1" stroke="none" d="
M -82.65 -21
L -82.65 -14.35 -75 -14.35
Q -75.75 -10.85 -78.05 -8.8 -80.55 -6.7 -84.3 -6.7 -89.25 -6.7 -92.2 -10.45 -95.1 -14.1 -95.1 -20 -95.1 -25.85 -92.25 -29.5 -89.35 -33.25 -84.5 -33.25 -78.2 -33.25 -75.95 -27.1
L -67.5 -27.1
Q -68.65 -33.35 -72.95 -36.9 -77.45 -40.7 -84.5 -40.7 -92.7 -40.7 -98.1 -34.95 -103.6 -29.1 -103.6 -20 -103.6 -10.85 -98.15 -5.1 -92.7 0.65 -84.3 0.65 -76.6 0.65 -71.8 -4.25 -66.85 -9.25 -66.85 -17.45
L -66.85 -21 -82.65 -21 Z"/>
</g>

<g id="INSPIRATIONAL_BB_300x250_FINAL_psd_Asset_Layer_4_Align_Crop_Free_shipping___returns_0_Layer0_0_MEMBER_4_FILL">
<path fill="#F9C2C1" stroke="none" d="
M -18.35 -14.75
L -36.05 -40.05 -43.85 -40.05 -43.85 0 -35.85 0 -35.85 -26.65 -16.9 0 -10.35 0 -10.35 -40.05 -18.35 -40.05 -18.35 -14.75 Z"/>
</g>

<g id="INSPIRATIONAL_BB_300x250_FINAL_psd_Asset_Layer_4_Align_Crop_Free_shipping___returns_0_Layer0_0_MEMBER_5_FILL">
<path fill="#F9C2C1" stroke="none" d="
M 73.8 -36.9
Q 69.35 -40.7 62.45 -40.7 54.35 -40.7 49.1 -34.95 43.8 -29.1 43.8 -20 43.8 -10.9 49.1 -5.1 54.35 0.65 62.45 0.65 69.35 0.65 73.8 -3.15 78.05 -6.75 79.2 -12.95
L 70.9 -12.95
Q 68.65 -6.8 62.45 -6.8 57.75 -6.8 54.95 -10.55 52.25 -14.2 52.25 -20 52.25 -25.85 54.95 -29.5 57.75 -33.25 62.45 -33.25 68.65 -33.25 70.9 -27.1
L 79.2 -27.1
Q 78.05 -33.3 73.8 -36.9 Z"/>
</g>

<g id="INSPIRATIONAL_BB_300x250_FINAL_psd_Asset_Layer_4_Align_Crop_Free_shipping___returns_0_Layer0_0_MEMBER_6_FILL">
<path fill="#F9C2C1" stroke="none" d="
M 110.35 -14.95
L 114.75 -14.95 124.65 0 134.05 0 123.45 -15.5
Q 127.75 -16.55 130.15 -19.55 132.6 -22.65 132.6 -27.3 132.6 -33.4 128.75 -36.75 125 -40.05 118.6 -40.05
L 102.1 -40.05 102.1 0 110.35 0 110.35 -14.95
M 110.35 -21.8
L 110.35 -32.95 118.05 -32.95
Q 121.15 -32.95 122.8 -31.4 124.4 -29.9 124.4 -27.3 124.4 -24.75 122.8 -23.3 121.15 -21.8 118.05 -21.8
L 110.35 -21.8 Z"/>
</g>

<g id="INSPIRATIONAL_BB_300x250_FINAL_psd_Asset_Layer_4_Align_Crop_Free_shipping___returns_0_Layer0_0_MEMBER_7_FILL">
<path fill="#F9C2C1" stroke="none" d="
M 154.1 -20
Q 154.1 -11 159.35 -5.2 164.7 0.65 173 0.65 181.35 0.65 186.7 -5.2 192 -11.05 192 -20 192 -29 186.7 -34.85 181.35 -40.7 173 -40.7 164.65 -40.7 159.35 -34.85 154.1 -29.05 154.1 -20
M 173 -33.25
Q 177.8 -33.25 180.7 -29.55 183.6 -25.9 183.6 -20 183.6 -14.1 180.7 -10.45 177.8 -6.8 173 -6.8 168.3 -6.8 165.45 -10.45 162.6 -14.1 162.6 -20 162.6 -25.9 165.45 -29.55 168.3 -33.25 173 -33.25 Z"/>
</g>

<g id="INSPIRATIONAL_BB_300x250_FINAL_psd_Asset_Layer_4_Align_Crop_Free_shipping___returns_0_Layer0_0_MEMBER_8_FILL">
<path fill="#F9C2C1" stroke="none" d="
M 241.6 -36.7
Q 237.85 -40.05 231.4 -40.05
L 215.1 -40.05 215.1 0 223.35 0 223.35 -13.9 231.4 -13.9
Q 237.85 -13.9 241.6 -17.25 245.45 -20.7 245.45 -26.95 245.45 -33.2 241.6 -36.7
M 235.65 -31.3
Q 237.25 -29.7 237.25 -26.95 237.25 -24.25 235.65 -22.65 234 -21 230.85 -21
L 223.35 -21 223.35 -32.95 230.85 -32.95
Q 234 -32.95 235.65 -31.3 Z"/>
</g>

<g id="INSPIRATIONAL_BB_300x250_FINAL_psd_Asset_Layer_4_Align_Crop_Free_shipping___returns_0_Layer0_0_MEMBER_9_FILL">
<path fill="#231F20" stroke="none" d="
M -207.8 20.6
L -227.05 20.6 -227.05 52.05 -223 52.05 -223 38.4 -208.75 38.4 -208.75 34.8 -223 34.8 -223 24.2 -207.8 24.2 -207.8 20.6 Z"/>
</g>

<g id="INSPIRATIONAL_BB_300x250_FINAL_psd_Asset_Layer_4_Align_Crop_Free_shipping___returns_0_Layer0_0_MEMBER_10_FILL">
<path fill="#231F20" stroke="none" d="
M -191.4 33.15
L -191.4 29.2
Q -192.1 28.85 -193.6 28.85 -195.45 28.85 -197 29.85 -198.5 30.8 -199.25 32.3
L -199.25 29.3 -203.1 29.3 -203.1 52.05 -199.25 52.05 -199.25 36.8
Q -198.7 34.8 -197.25 33.65 -195.8 32.55 -193.95 32.55 -192.3 32.55 -191.4 33.15 Z"/>
</g>

<g id="INSPIRATIONAL_BB_300x250_FINAL_psd_Asset_Layer_4_Align_Crop_Free_shipping___returns_0_Layer0_0_MEMBER_11_FILL">
<path fill="#231F20" stroke="none" d="
M -188.95 40.75
Q -188.95 46 -186.05 49.25 -183.15 52.5 -178.5 52.5 -174.75 52.5 -172.3 50.5 -169.95 48.55 -169.3 45.25
L -172.95 45.25
Q -173.4 47.15 -174.9 48.2 -176.35 49.25 -178.5 49.25 -181.4 49.25 -183.2 47.15 -185.05 45 -185.1 41.4
L -169 41.4 -169 40
Q -169 34.95 -171.45 31.95 -174 28.85 -178.6 28.85 -183.2 28.85 -186.1 32.25 -188.95 35.55 -188.95 40.75
M -185 38.5
Q -184.6 35.5 -182.85 33.8 -181.15 32.1 -178.55 32.1 -175.85 32.1 -174.3 34.05 -172.95 35.75 -172.9 38.5
L -185 38.5 Z"/>
</g>

<g id="INSPIRATIONAL_BB_300x250_FINAL_psd_Asset_Layer_4_Align_Crop_Free_shipping___returns_0_Layer0_0_MEMBER_12_FILL">
<path fill="#231F20" stroke="none" d="
M -159.7 47.15
Q -161.55 45 -161.6 41.4
L -145.5 41.4 -145.5 40
Q -145.5 34.9 -147.95 31.95 -150.45 28.85 -155.05 28.85 -159.65 28.85 -162.55 32.25 -165.45 35.55 -165.45 40.75 -165.45 46 -162.5 49.25 -159.6 52.5 -154.95 52.5 -151.2 52.5 -148.75 50.5 -146.4 48.55 -145.8 45.25
L -149.45 45.25
Q -149.9 47.15 -151.35 48.2 -152.85 49.25 -154.95 49.25 -157.85 49.25 -159.7 47.15
M -159.3 33.8
Q -157.6 32.1 -155 32.1 -152.35 32.1 -150.8 34.05 -149.45 35.75 -149.4 38.5
L -161.5 38.5
Q -161.05 35.5 -159.3 33.8 Z"/>
</g>

<g id="INSPIRATIONAL_BB_300x250_FINAL_psd_Asset_Layer_4_Align_Crop_Free_shipping___returns_0_Layer0_0_MEMBER_13_FILL">
<path fill="#231F20" stroke="none" d="
M -116.9 45.9
Q -116.9 47.55 -118.2 48.45 -119.45 49.3 -121.55 49.3 -125.85 49.3 -126.95 45.8
L -130.95 45.8
Q -130.4 48.95 -127.85 50.75 -125.35 52.5 -121.6 52.5 -117.9 52.5 -115.55 50.7 -113.15 48.8 -113.15 45.65 -113.15 40.8 -118.95 39.3
L -123.35 38.2
Q -125.05 37.75 -125.75 37.15 -126.55 36.45 -126.55 35.35 -126.55 33.8 -125.2 32.9 -124 32.05 -122.15 32.05 -118.2 32.05 -117.15 35.3
L -113.3 35.3
Q -113.95 32.25 -116.15 30.6 -118.4 28.85 -122.1 28.85 -125.65 28.85 -127.9 30.7 -130.25 32.55 -130.25 35.55 -130.25 40.2 -124.8 41.55
L -120.3 42.75
Q -116.9 43.6 -116.9 45.9 Z"/>
</g>

<g id="INSPIRATIONAL_BB_300x250_FINAL_psd_Asset_Layer_4_Align_Crop_Free_shipping___returns_0_Layer0_0_MEMBER_14_FILL">
<path fill="#231F20" stroke="none" d="
M -104 18.75
L -107.8 18.75 -107.8 52.05 -104 52.05 -104 36.65
Q -103.35 34.75 -101.75 33.6 -100.15 32.4 -98.2 32.4 -95.7 32.4 -94.4 33.9 -93.15 35.3 -93.15 37.75
L -93.15 52.05 -89.25 52.05 -89.25 37.15
Q -89.25 33.35 -91.3 31.15 -93.45 28.85 -97.25 28.85 -99.35 28.85 -101.2 29.85 -102.9 30.75 -104 32.15
L -104 18.75 Z"/>
</g>

<g id="INSPIRATIONAL_BB_300x250_FINAL_psd_Asset_Layer_4_Align_Crop_Free_shipping___returns_0_Layer0_0_MEMBER_15_FILL">
<path fill="#231F20" stroke="none" d="
M -78.9 52.05
L -78.9 29.3 -82.75 29.3 -82.75 52.05 -78.9 52.05
M -79.1 24.15
Q -78.35 23.45 -78.35 22.45 -78.35 21.4 -79.1 20.7 -79.8 20 -80.85 20 -81.85 20 -82.6 20.7 -83.35 21.4 -83.35 22.45 -83.35 23.45 -82.6 24.15 -81.85 24.9 -80.85 24.9 -79.85 24.9 -79.1 24.15 Z"/>
</g>

<g id="INSPIRATIONAL_BB_300x250_FINAL_psd_Asset_Layer_4_Align_Crop_Free_shipping___returns_0_Layer0_0_MEMBER_16_FILL">
<path fill="#231F20" stroke="none" d="
M -68.2 31.95
L -68.2 29.3 -72.05 29.3 -72.05 60.75 -68.2 60.75 -68.2 49.4
Q -67.3 50.7 -65.6 51.55 -63.8 52.5 -61.8 52.5 -57 52.5 -54.15 48.95 -51.55 45.7 -51.55 40.7 -51.55 35.7 -54.15 32.4 -57 28.85 -61.8 28.85 -63.8 28.85 -65.6 29.8 -67.25 30.65 -68.2 31.95
M -65.75 33.3
Q -64.2 32.35 -62.35 32.35 -59.15 32.35 -57.25 34.7 -55.45 37 -55.45 40.7 -55.45 44.4 -57.25 46.7 -59.15 49.05 -62.35 49.05 -64.2 49.05 -65.75 48.05 -67.35 47.05 -68.2 45.3
L -68.2 36.05
Q -67.35 34.3 -65.75 33.3 Z"/>
</g>

<g id="INSPIRATIONAL_BB_300x250_FINAL_psd_Asset_Layer_4_Align_Crop_Free_shipping___returns_0_Layer0_0_MEMBER_17_FILL">
<path fill="#231F20" stroke="none" d="
M -36.1 28.85
Q -38.1 28.85 -39.9 29.8 -41.5 30.65 -42.5 31.95
L -42.5 29.3 -46.35 29.3 -46.35 60.75 -42.5 60.75 -42.5 49.4
Q -41.55 50.7 -39.9 51.55 -38.1 52.5 -36.1 52.5 -31.25 52.5 -28.45 48.95 -25.85 45.7 -25.85 40.7 -25.85 35.7 -28.45 32.4 -31.25 28.85 -36.1 28.85
M -36.65 32.35
Q -33.45 32.35 -31.55 34.7 -29.7 37 -29.7 40.7 -29.7 44.4 -31.55 46.7 -33.45 49.05 -36.65 49.05 -38.45 49.05 -40 48.05 -41.6 47.05 -42.5 45.3
L -42.5 36.05
Q -41.6 34.3 -40 33.3 -38.45 32.35 -36.65 32.35 Z"/>
</g>

<g id="INSPIRATIONAL_BB_300x250_FINAL_psd_Asset_Layer_4_Align_Crop_Free_shipping___returns_0_Layer0_0_MEMBER_18_FILL">
<path fill="#231F20" stroke="none" d="
M -16.75 29.3
L -20.6 29.3 -20.6 52.05 -16.75 52.05 -16.75 29.3
M -16.2 22.45
Q -16.2 21.4 -16.9 20.7 -17.65 20 -18.7 20 -19.7 20 -20.45 20.7 -21.15 21.4 -21.15 22.45 -21.15 23.45 -20.45 24.15 -19.7 24.9 -18.7 24.9 -17.65 24.9 -16.9 24.15 -16.2 23.45 -16.2 22.45 Z"/>
</g>

<g id="INSPIRATIONAL_BB_300x250_FINAL_psd_Asset_Layer_4_Align_Crop_Free_shipping___returns_0_Layer0_0_MEMBER_19_FILL">
<path fill="#231F20" stroke="none" d="
M 6.6 31.15
Q 4.5 28.85 0.65 28.85 -1.4 28.85 -3.3 29.85 -4.95 30.75 -6.05 32.15
L -6.05 29.3 -9.9 29.3 -9.9 52.05 -6.05 52.05 -6.05 36.65
Q -5.45 34.75 -3.85 33.6 -2.25 32.4 -0.25 32.4 2.25 32.4 3.55 33.9 4.75 35.3 4.75 37.75
L 4.75 52.05 8.65 52.05 8.65 37.15
Q 8.65 33.35 6.6 31.15 Z"/>
</g>

<g id="INSPIRATIONAL_BB_300x250_FINAL_psd_Asset_Layer_4_Align_Crop_Free_shipping___returns_0_Layer0_0_MEMBER_20_FILL">
<path fill="#231F20" stroke="none" d="
M 16.15 32.35
Q 13.55 35.6 13.55 40.4 13.55 45.15 16.15 48.4 18.95 51.9 23.75 51.9 25.75 51.9 27.55 50.95 29.15 50.1 30.1 48.85
L 30.1 50.5
Q 30.1 58 23.85 58 18.85 58 17.9 53.75
L 14.1 53.75
Q 14.65 57.3 17.15 59.25 19.75 61.3 23.85 61.3 28.45 61.3 31.1 58.6 34 55.7 34 50.25
L 34 29.3 30.1 29.3 30.1 31.85
Q 29.15 30.6 27.55 29.75 25.75 28.85 23.75 28.85 18.95 28.85 16.15 32.35
M 17.5 40.4
Q 17.5 36.75 19.3 34.55 21.15 32.3 24.3 32.3 26.1 32.3 27.65 33.25 29.2 34.15 30.1 35.8
L 30.1 44.9
Q 29.2 46.55 27.65 47.45 26.1 48.4 24.3 48.4 21.15 48.4 19.3 46.15 17.5 43.95 17.5 40.4 Z"/>
</g>

<g id="INSPIRATIONAL_BB_300x250_FINAL_psd_Asset_Layer_4_Align_Crop_Free_shipping___returns_0_Layer0_0_MEMBER_21_FILL">
<path fill="#231F20" stroke="none" d="
M 52.5 35.25
L 52.5 38.45 61 38.45 61 46.95 64.15 46.95 64.15 38.45 72.65 38.45 72.65 35.25 64.15 35.25 64.15 26.75 61 26.75 61 35.25 52.5 35.25 Z"/>
</g>

<g id="INSPIRATIONAL_BB_300x250_FINAL_psd_Asset_Layer_4_Align_Crop_Free_shipping___returns_0_Layer0_0_MEMBER_22_FILL">
<path fill="#231F20" stroke="none" d="
M 100.65 28.85
Q 98.85 28.85 97.25 29.85 95.8 30.8 95 32.3
L 95 29.3 91.15 29.3 91.15 52.05 95 52.05 95 36.8
Q 95.6 34.8 97.05 33.65 98.45 32.55 100.3 32.55 101.95 32.55 102.85 33.15
L 102.85 29.2
Q 102.15 28.85 100.65 28.85 Z"/>
</g>

<g id="INSPIRATIONAL_BB_300x250_FINAL_psd_Asset_Layer_4_Align_Crop_Free_shipping___returns_0_Layer0_0_MEMBER_23_FILL">
<path fill="#231F20" stroke="none" d="
M 125.25 40
Q 125.25 34.95 122.8 31.95 120.25 28.85 115.65 28.85 111.05 28.85 108.15 32.25 105.3 35.55 105.3 40.75 105.3 46 108.2 49.25 111.1 52.5 115.75 52.5 119.5 52.5 121.95 50.5 124.3 48.55 124.95 45.25
L 121.3 45.25
Q 120.85 47.15 119.35 48.2 117.9 49.25 115.75 49.25 112.85 49.25 111.05 47.15 109.2 45 109.15 41.4
L 125.25 41.4 125.25 40
M 111.4 33.8
Q 113.15 32.1 115.7 32.1 118.4 32.1 119.95 34.05 121.3 35.75 121.35 38.5
L 109.25 38.5
Q 109.65 35.5 111.4 33.8 Z"/>
</g>

<g id="INSPIRATIONAL_BB_300x250_FINAL_psd_Asset_Layer_4_Align_Crop_Free_shipping___returns_0_Layer0_0_MEMBER_24_FILL">
<path fill="#231F20" stroke="none" d="
M 135.3 23.3
L 131.45 23.3 131.45 29.3 127.75 29.3 127.75 32.6 131.45 32.6 131.45 46.3
Q 131.45 49.35 133.2 51 134.85 52.5 137.7 52.5 139.8 52.5 141.3 51.75
L 141.3 48.15
Q 139.9 49.1 138.3 49.1 135.3 49.1 135.3 45.9
L 135.3 32.6 140.8 32.6 140.8 29.3 135.3 29.3 135.3 23.3 Z"/>
</g>

<g id="INSPIRATIONAL_BB_300x250_FINAL_psd_Asset_Layer_4_Align_Crop_Free_shipping___returns_0_Layer0_0_MEMBER_25_FILL">
<path fill="#231F20" stroke="none" d="
M 164.65 52.05
L 164.65 29.3 160.75 29.3 160.75 44.75
Q 160.15 46.6 158.6 47.8 157.05 49 155.1 49 152.6 49 151.3 47.5 150.1 46.1 150.1 43.6
L 150.1 29.3 146.2 29.3 146.2 44.2
Q 146.2 48 148.25 50.25 150.35 52.5 154.15 52.5 156.25 52.5 158.1 51.55 159.75 50.65 160.75 49.2
L 160.75 52.05 164.65 52.05 Z"/>
</g>

<g id="INSPIRATIONAL_BB_300x250_FINAL_psd_Asset_Layer_4_Align_Crop_Free_shipping___returns_0_Layer0_0_MEMBER_26_FILL">
<path fill="#231F20" stroke="none" d="
M 180.95 28.85
Q 179.15 28.85 177.55 29.85 176.1 30.8 175.3 32.3
L 175.3 29.3 171.45 29.3 171.45 52.05 175.3 52.05 175.3 36.8
Q 175.9 34.8 177.35 33.65 178.75 32.55 180.6 32.55 182.25 32.55 183.15 33.15
L 183.15 29.2
Q 182.45 28.85 180.95 28.85 Z"/>
</g>

<g id="INSPIRATIONAL_BB_300x250_FINAL_psd_Asset_Layer_4_Align_Crop_Free_shipping___returns_0_Layer0_0_MEMBER_27_FILL">
<path fill="#231F20" stroke="none" d="
M 206.5 37.15
Q 206.5 33.35 204.45 31.15 202.3 28.85 198.5 28.85 196.4 28.85 194.55 29.85 192.85 30.75 191.75 32.15
L 191.75 29.3 187.95 29.3 187.95 52.05 191.75 52.05 191.75 36.65
Q 192.4 34.75 194 33.6 195.6 32.4 197.55 32.4 200.05 32.4 201.35 33.9 202.6 35.3 202.6 37.75
L 202.6 52.05 206.5 52.05 206.5 37.15 Z"/>
</g>

<g id="INSPIRATIONAL_BB_300x250_FINAL_psd_Asset_Layer_4_Align_Crop_Free_shipping___returns_0_Layer0_0_MEMBER_28_FILL">
<path fill="#231F20" stroke="none" d="
M 216.85 32.9
Q 218.05 32.05 219.85 32.05 223.8 32.05 224.9 35.3
L 228.7 35.3
Q 228.1 32.25 225.9 30.6 223.6 28.85 219.9 28.85 216.4 28.85 214.1 30.7 211.75 32.55 211.75 35.55 211.75 40.2 217.25 41.55
L 221.75 42.75
Q 225.15 43.6 225.15 45.9 225.15 47.55 223.85 48.45 222.6 49.3 220.45 49.3 216.15 49.3 215.1 45.8
L 211.1 45.8
Q 211.6 48.95 214.15 50.75 216.65 52.5 220.4 52.5 224.15 52.5 226.45 50.7 228.85 48.8 228.85 45.65 228.85 40.8 223.1 39.3
L 218.65 38.2
Q 216.95 37.75 216.25 37.15 215.5 36.5 215.5 35.35 215.5 33.8 216.85 32.9 Z"/>
</g>

<g id="Layer0_0_FILL">
<path fill="#000000" stroke="none" d="
M 93.75 93.75
Q 109.8 77.7 109.8 54.95 109.8 32.2 93.75 16.1 77.65 0 54.9 0 32.15 0 16.05 16.1 0 32.2 0 54.95 0 77.7 16.05 93.75 32.15 109.85 54.9 109.85 77.65 109.85 93.75 93.75
M 85.3 42.1
Q 84.55 45.4 82.65 49.4 81.55 51.75 78.95 56.5 73.7 66 73.2 70.4 72.6 76.45 78.7 80.5 81.05 82.1 83.7 82.1 87.65 82.1 93.25 79.3
L 92.75 80.2
Q 86 90.3 76.4 90.3 72.25 90.3 67.8 88.35 62.85 86.15 60 81.15 57.05 76.1 57.9 71.25 58.6 68.4 61.7 60.4 66.5 48 67.85 41.8 70.25 31 66.85 26.05 63.7 21.35 54.9 21.25 46.15 21.35 42.9 26.05 39.5 31 41.95 41.8 43.35 48 48.1 60.4 51.25 68.4 51.9 71.3 52.7 76.1 49.8 81.15 46.85 86.2 42 88.35 37.6 90.3 33.35 90.3 28.65 90.3 24.5 87.75 20.35 85.15 17.05 80.2
L 16.55 79.3
Q 22.15 82.1 26.1 82.1 28.7 82.1 31.05 80.5 37.2 76.45 36.55 70.4 36.1 66.05 30.85 56.5 28.25 51.75 27.15 49.4 25.25 45.4 24.45 42.1 21.5 29.7 26.65 23.15 30 18.95 36.5 16.8 43.5 14.55 53.75 14.4
L 56 14.4
Q 66.3 14.55 73.3 16.8 79.85 19 83.1 23.15 88.35 29.75 85.3 42.1 Z"/>
</g>
</defs>

<g transform="matrix( 1, 0, 0, 1, 56,71) ">
<g transform="matrix( 1, 0, 0, 1, 0,0) ">
<g transform="matrix( 0.3702850341796875, 0, 0, 0.306976318359375, 92.15,12.5) ">
<use xlink:href="#INSPIRATIONAL_BB_300x250_FINAL_psd_Asset_Layer_4_Align_Crop_Free_shipping___returns_0_Layer0_0_MEMBER_0_FILL"/>
</g>

<g transform="matrix( 0.3702850341796875, 0, 0, 0.306976318359375, 92.15,12.5) ">
<use xlink:href="#INSPIRATIONAL_BB_300x250_FINAL_psd_Asset_Layer_4_Align_Crop_Free_shipping___returns_0_Layer0_0_MEMBER_1_FILL"/>
</g>

<g transform="matrix( 0.3702850341796875, 0, 0, 0.306976318359375, 92.15,12.5) ">
<use xlink:href="#INSPIRATIONAL_BB_300x250_FINAL_psd_Asset_Layer_4_Align_Crop_Free_shipping___returns_0_Layer0_0_MEMBER_2_FILL"/>
</g>

<g transform="matrix( 0.3702850341796875, 0, 0, 0.306976318359375, 92.15,12.5) ">
<use xlink:href="#INSPIRATIONAL_BB_300x250_FINAL_psd_Asset_Layer_4_Align_Crop_Free_shipping___returns_0_Layer0_0_MEMBER_3_FILL"/>
</g>

<g transform="matrix( 0.3702850341796875, 0, 0, 0.306976318359375, 92.15,12.5) ">
<use xlink:href="#INSPIRATIONAL_BB_300x250_FINAL_psd_Asset_Layer_4_Align_Crop_Free_shipping___returns_0_Layer0_0_MEMBER_4_FILL"/>
</g>

<g transform="matrix( 0.3702850341796875, 0, 0, 0.306976318359375, 92.15,12.5) ">
<use xlink:href="#INSPIRATIONAL_BB_300x250_FINAL_psd_Asset_Layer_4_Align_Crop_Free_shipping___returns_0_Layer0_0_MEMBER_5_FILL"/>
</g>

<g transform="matrix( 0.3702850341796875, 0, 0, 0.306976318359375, 92.15,12.5) ">
<use xlink:href="#INSPIRATIONAL_BB_300x250_FINAL_psd_Asset_Layer_4_Align_Crop_Free_shipping___returns_0_Layer0_0_MEMBER_6_FILL"/>
</g>

<g transform="matrix( 0.3702850341796875, 0, 0, 0.306976318359375, 92.15,12.5) ">
<use xlink:href="#INSPIRATIONAL_BB_300x250_FINAL_psd_Asset_Layer_4_Align_Crop_Free_shipping___returns_0_Layer0_0_MEMBER_7_FILL"/>
</g>

<g transform="matrix( 0.3702850341796875, 0, 0, 0.306976318359375, 92.15,12.5) ">
<use xlink:href="#INSPIRATIONAL_BB_300x250_FINAL_psd_Asset_Layer_4_Align_Crop_Free_shipping___returns_0_Layer0_0_MEMBER_8_FILL"/>
</g>

<g transform="matrix( 0.3702850341796875, 0, 0, 0.306976318359375, 92.15,12.5) ">
<use xlink:href="#INSPIRATIONAL_BB_300x250_FINAL_psd_Asset_Layer_4_Align_Crop_Free_shipping___returns_0_Layer0_0_MEMBER_9_FILL"/>
</g>

<g transform="matrix( 0.3702850341796875, 0, 0, 0.306976318359375, 92.15,12.5) ">
<use xlink:href="#INSPIRATIONAL_BB_300x250_FINAL_psd_Asset_Layer_4_Align_Crop_Free_shipping___returns_0_Layer0_0_MEMBER_10_FILL"/>
</g>

<g transform="matrix( 0.3702850341796875, 0, 0, 0.306976318359375, 92.15,12.5) ">
<use xlink:href="#INSPIRATIONAL_BB_300x250_FINAL_psd_Asset_Layer_4_Align_Crop_Free_shipping___returns_0_Layer0_0_MEMBER_11_FILL"/>
</g>

<g transform="matrix( 0.3702850341796875, 0, 0, 0.306976318359375, 92.15,12.5) ">
<use xlink:href="#INSPIRATIONAL_BB_300x250_FINAL_psd_Asset_Layer_4_Align_Crop_Free_shipping___returns_0_Layer0_0_MEMBER_12_FILL"/>
</g>

<g transform="matrix( 0.3702850341796875, 0, 0, 0.306976318359375, 92.15,12.5) ">
<use xlink:href="#INSPIRATIONAL_BB_300x250_FINAL_psd_Asset_Layer_4_Align_Crop_Free_shipping___returns_0_Layer0_0_MEMBER_13_FILL"/>
</g>

<g transform="matrix( 0.3702850341796875, 0, 0, 0.306976318359375, 92.15,12.5) ">
<use xlink:href="#INSPIRATIONAL_BB_300x250_FINAL_psd_Asset_Layer_4_Align_Crop_Free_shipping___returns_0_Layer0_0_MEMBER_14_FILL"/>
</g>

<g transform="matrix( 0.3702850341796875, 0, 0, 0.306976318359375, 92.15,12.5) ">
<use xlink:href="#INSPIRATIONAL_BB_300x250_FINAL_psd_Asset_Layer_4_Align_Crop_Free_shipping___returns_0_Layer0_0_MEMBER_15_FILL"/>
</g>

<g transform="matrix( 0.3702850341796875, 0, 0, 0.306976318359375, 92.15,12.5) ">
<use xlink:href="#INSPIRATIONAL_BB_300x250_FINAL_psd_Asset_Layer_4_Align_Crop_Free_shipping___returns_0_Layer0_0_MEMBER_16_FILL"/>
</g>

<g transform="matrix( 0.3702850341796875, 0, 0, 0.306976318359375, 92.15,12.5) ">
<use xlink:href="#INSPIRATIONAL_BB_300x250_FINAL_psd_Asset_Layer_4_Align_Crop_Free_shipping___returns_0_Layer0_0_MEMBER_17_FILL"/>
</g>

<g transform="matrix( 0.3702850341796875, 0, 0, 0.306976318359375, 92.15,12.5) ">
<use xlink:href="#INSPIRATIONAL_BB_300x250_FINAL_psd_Asset_Layer_4_Align_Crop_Free_shipping___returns_0_Layer0_0_MEMBER_18_FILL"/>
</g>

<g transform="matrix( 0.3702850341796875, 0, 0, 0.306976318359375, 92.15,12.5) ">
<use xlink:href="#INSPIRATIONAL_BB_300x250_FINAL_psd_Asset_Layer_4_Align_Crop_Free_shipping___returns_0_Layer0_0_MEMBER_19_FILL"/>
</g>

<g transform="matrix( 0.3702850341796875, 0, 0, 0.306976318359375, 92.15,12.5) ">
<use xlink:href="#INSPIRATIONAL_BB_300x250_FINAL_psd_Asset_Layer_4_Align_Crop_Free_shipping___returns_0_Layer0_0_MEMBER_20_FILL"/>
</g>

<g transform="matrix( 0.3702850341796875, 0, 0, 0.306976318359375, 92.15,12.5) ">
<use xlink:href="#INSPIRATIONAL_BB_300x250_FINAL_psd_Asset_Layer_4_Align_Crop_Free_shipping___returns_0_Layer0_0_MEMBER_21_FILL"/>
</g>

<g transform="matrix( 0.3702850341796875, 0, 0, 0.306976318359375, 92.15,12.5) ">
<use xlink:href="#INSPIRATIONAL_BB_300x250_FINAL_psd_Asset_Layer_4_Align_Crop_Free_shipping___returns_0_Layer0_0_MEMBER_22_FILL"/>
</g>

<g transform="matrix( 0.3702850341796875, 0, 0, 0.306976318359375, 92.15,12.5) ">
<use xlink:href="#INSPIRATIONAL_BB_300x250_FINAL_psd_Asset_Layer_4_Align_Crop_Free_shipping___returns_0_Layer0_0_MEMBER_23_FILL"/>
</g>

<g transform="matrix( 0.3702850341796875, 0, 0, 0.306976318359375, 92.15,12.5) ">
<use xlink:href="#INSPIRATIONAL_BB_300x250_FINAL_psd_Asset_Layer_4_Align_Crop_Free_shipping___returns_0_Layer0_0_MEMBER_24_FILL"/>
</g>

<g transform="matrix( 0.3702850341796875, 0, 0, 0.306976318359375, 92.15,12.5) ">
<use xlink:href="#INSPIRATIONAL_BB_300x250_FINAL_psd_Asset_Layer_4_Align_Crop_Free_shipping___returns_0_Layer0_0_MEMBER_25_FILL"/>
</g>

<g transform="matrix( 0.3702850341796875, 0, 0, 0.306976318359375, 92.15,12.5) ">
<use xlink:href="#INSPIRATIONAL_BB_300x250_FINAL_psd_Asset_Layer_4_Align_Crop_Free_shipping___returns_0_Layer0_0_MEMBER_26_FILL"/>
</g>

<g transform="matrix( 0.3702850341796875, 0, 0, 0.306976318359375, 92.15,12.5) ">
<use xlink:href="#INSPIRATIONAL_BB_300x250_FINAL_psd_Asset_Layer_4_Align_Crop_Free_shipping___returns_0_Layer0_0_MEMBER_27_FILL"/>
</g>

<g transform="matrix( 0.3702850341796875, 0, 0, 0.306976318359375, 92.15,12.5) ">
<use xlink:href="#INSPIRATIONAL_BB_300x250_FINAL_psd_Asset_Layer_4_Align_Crop_Free_shipping___returns_0_Layer0_0_MEMBER_28_FILL"/>
</g>
</g>

<g transform="matrix( 0.5473175048828125, 0, 0, 0.5473175048828125, 63.45,84.65) ">
<use xlink:href="#Layer0_0_FILL"/>
</g>
</g>
</svg>
