
<svg xmlns="http://www.w3.org/2000/svg" version="1.1" xmlns:xlink="http://www.w3.org/1999/xlink" preserveAspectRatio="none" x="0px" y="0px" width="300px" height="600px" viewBox="0 0 300 600">
<defs>
<g id="TECHNICAL_300x600_FINAL_psd_Asset_Layer_2_The_feeling_of_being_naked_0_Layer0_0_MEMBER_0_FILL">
<path fill="#221F1F" stroke="none" d="
M -333.25 -40.05
L -333.25 -35.45 -319.3 -35.45 -319.3 0 -314.15 0 -314.15 -35.45 -300.2 -35.45 -300.2 -40.05 -333.25 -40.05 Z"/>
</g>

<g id="TECHNICAL_300x600_FINAL_psd_Asset_Layer_2_The_feeling_of_being_naked_0_Layer0_0_MEMBER_1_FILL">
<path fill="#221F1F" stroke="none" d="
M -288.95 -42.4
L -293.85 -42.4 -293.85 0 -288.95 0 -288.95 -19.65
Q -288.15 -22 -286.15 -23.5 -284.1 -25.05 -281.6 -25.05 -278.45 -25.05 -276.75 -23.15 -275.2 -21.35 -275.2 -18.2
L -275.2 0 -270.25 0 -270.25 -18.95
Q -270.25 -23.8 -272.85 -26.65 -275.55 -29.55 -280.4 -29.55 -283.05 -29.55 -285.45 -28.3 -287.6 -27.15 -288.95 -25.3
L -288.95 -42.4 Z"/>
</g>

<g id="TECHNICAL_300x600_FINAL_psd_Asset_Layer_2_The_feeling_of_being_naked_0_Layer0_0_MEMBER_2_FILL">
<path fill="#221F1F" stroke="none" d="
M -250.9 -29.55
Q -256.75 -29.55 -260.4 -25.25 -264.05 -21 -264.05 -14.4 -264.05 -7.7 -260.35 -3.55 -256.65 0.6 -250.75 0.6 -246 0.6 -242.85 -2 -239.85 -4.45 -239.1 -8.65
L -243.7 -8.65
Q -244.3 -6.25 -246.15 -4.9 -248 -3.6 -250.75 -3.6 -254.45 -3.6 -256.75 -6.25 -259.1 -8.95 -259.15 -13.55
L -238.7 -13.55 -238.7 -15.3
Q -238.7 -21.8 -241.8 -25.6 -245.05 -29.55 -250.9 -29.55
M -259.05 -17.3
Q -258.5 -21.1 -256.3 -23.2 -254.1 -25.35 -250.8 -25.35 -247.35 -25.35 -245.45 -22.95 -243.7 -20.75 -243.65 -17.3
L -259.05 -17.3 Z"/>
</g>

<g id="TECHNICAL_300x600_FINAL_psd_Asset_Layer_2_The_feeling_of_being_naked_0_Layer0_0_MEMBER_3_FILL">
<path fill="#221F1F" stroke="none" d="
M -203.3 -37.9
L -203.3 -42.3
Q -204.9 -42.95 -207.05 -42.95 -211 -42.95 -213.4 -40.55 -215.95 -38.05 -215.95 -33.75
L -215.95 -28.95 -220.8 -28.95 -220.8 -24.8 -215.95 -24.8 -215.95 0 -211.1 0 -211.1 -24.8 -204.6 -24.8 -204.6 -28.95 -211.1 -28.95 -211.1 -33.4
Q -211.1 -35.95 -209.8 -37.3 -208.55 -38.65 -206.35 -38.65 -204.55 -38.65 -203.3 -37.9 Z"/>
</g>

<g id="TECHNICAL_300x600_FINAL_psd_Asset_Layer_2_The_feeling_of_being_naked_0_Layer0_0_MEMBER_4_FILL">
<path fill="#221F1F" stroke="none" d="
M -188.3 -29.55
Q -194.15 -29.55 -197.8 -25.25 -201.45 -21 -201.45 -14.4 -201.45 -7.7 -197.75 -3.55 -194.05 0.6 -188.15 0.6 -183.4 0.6 -180.3 -2 -177.3 -4.45 -176.5 -8.65
L -181.1 -8.65
Q -181.7 -6.25 -183.55 -4.9 -185.4 -3.6 -188.15 -3.6 -191.85 -3.6 -194.15 -6.25 -196.5 -8.95 -196.55 -13.55
L -176.1 -13.55 -176.1 -15.3
Q -176.1 -21.8 -179.2 -25.6 -182.45 -29.55 -188.3 -29.55
M -196.45 -17.3
Q -195.9 -21.1 -193.7 -23.2 -191.5 -25.35 -188.2 -25.35 -184.75 -25.35 -182.85 -22.95 -181.1 -20.75 -181.05 -17.3
L -196.45 -17.3 Z"/>
</g>

<g id="TECHNICAL_300x600_FINAL_psd_Asset_Layer_2_The_feeling_of_being_naked_0_Layer0_0_MEMBER_5_FILL">
<path fill="#221F1F" stroke="none" d="
M -171.55 -14.4
Q -171.55 -7.75 -167.85 -3.55 -164.15 0.6 -158.25 0.6 -153.45 0.6 -150.35 -2 -147.35 -4.45 -146.55 -8.65
L -151.2 -8.65
Q -151.75 -6.25 -153.65 -4.9 -155.5 -3.6 -158.25 -3.6 -161.95 -3.6 -164.25 -6.25 -166.55 -8.95 -166.65 -13.55
L -146.15 -13.55 -146.15 -15.3
Q -146.15 -21.8 -149.25 -25.6 -152.5 -29.55 -158.35 -29.55 -164.2 -29.55 -167.9 -25.25 -171.55 -21 -171.55 -14.4
M -166.5 -17.3
Q -166 -21.05 -163.75 -23.2 -161.6 -25.35 -158.3 -25.35 -154.85 -25.35 -152.9 -22.95 -151.2 -20.75 -151.1 -17.3
L -166.5 -17.3 Z"/>
</g>

<g id="TECHNICAL_300x600_FINAL_psd_Asset_Layer_2_The_feeling_of_being_naked_0_Layer0_0_MEMBER_6_FILL">
<path fill="#221F1F" stroke="none" d="
M -134.75 -42.4
L -139.65 -42.4 -139.65 0 -134.75 0 -134.75 -42.4 Z"/>
</g>

<g id="TECHNICAL_300x600_FINAL_psd_Asset_Layer_2_The_feeling_of_being_naked_0_Layer0_0_MEMBER_7_FILL">
<path fill="#221F1F" stroke="none" d="
M -121.1 -28.95
L -126 -28.95 -126 0 -121.1 0 -121.1 -28.95
M -125.8 -35.5
Q -124.85 -34.55 -123.6 -34.55 -122.3 -34.55 -121.35 -35.5 -120.4 -36.4 -120.4 -37.7 -120.4 -39 -121.35 -39.9 -122.3 -40.8 -123.6 -40.8 -124.9 -40.8 -125.8 -39.9 -126.75 -39 -126.75 -37.7 -126.75 -36.4 -125.8 -35.5 Z"/>
</g>

<g id="TECHNICAL_300x600_FINAL_psd_Asset_Layer_2_The_feeling_of_being_naked_0_Layer0_0_MEMBER_8_FILL">
<path fill="#221F1F" stroke="none" d="
M -91.4 -26.65
Q -94.1 -29.55 -98.95 -29.55 -101.6 -29.55 -103.95 -28.3 -106.15 -27.15 -107.5 -25.3
L -107.5 -28.95 -112.4 -28.95 -112.4 0 -107.5 0 -107.5 -19.65
Q -106.7 -22 -104.7 -23.5 -102.65 -25.05 -100.15 -25.05 -96.95 -25.05 -95.3 -23.15 -93.75 -21.35 -93.75 -18.2
L -93.75 0 -88.8 0 -88.8 -18.95
Q -88.8 -23.8 -91.4 -26.65 Z"/>
</g>

<g id="TECHNICAL_300x600_FINAL_psd_Asset_Layer_2_The_feeling_of_being_naked_0_Layer0_0_MEMBER_9_FILL">
<path fill="#221F1F" stroke="none" d="
M -61.5 -28.95
L -61.5 -25.7
Q -62.65 -27.3 -64.75 -28.35 -67.05 -29.55 -69.6 -29.55 -75.7 -29.55 -79.3 -25.1 -82.6 -21 -82.6 -14.85 -82.6 -8.8 -79.3 -4.65 -75.7 -0.2 -69.6 -0.2 -67.05 -0.2 -64.75 -1.4 -62.7 -2.45 -61.5 -4.1
L -61.5 -1.95
Q -61.5 7.55 -69.5 7.55 -75.8 7.55 -77.05 2.15
L -81.85 2.15
Q -81.15 6.65 -77.95 9.2 -74.7 11.75 -69.5 11.75 -63.65 11.75 -60.25 8.3 -56.55 4.6 -56.55 -2.3
L -56.55 -28.95 -61.5 -28.95
M -64.6 -23.95
Q -62.65 -22.75 -61.5 -20.65
L -61.5 -9.15
Q -62.65 -7.05 -64.6 -5.85 -66.55 -4.65 -68.9 -4.65 -72.9 -4.65 -75.25 -7.55 -77.55 -10.35 -77.55 -14.85 -77.55 -19.45 -75.25 -22.25 -72.9 -25.15 -68.9 -25.15 -66.55 -25.15 -64.6 -23.95 Z"/>
</g>

<g id="TECHNICAL_300x600_FINAL_psd_Asset_Layer_2_The_feeling_of_being_naked_0_Layer0_0_MEMBER_10_FILL">
<path fill="#221F1F" stroke="none" d="
M -22.2 -29.55
Q -28.15 -29.55 -31.85 -25.35 -35.5 -21.15 -35.5 -14.45 -35.5 -7.8 -31.85 -3.6 -28.15 0.6 -22.2 0.6 -16.3 0.6 -12.6 -3.6 -8.9 -7.8 -8.9 -14.45 -8.9 -21.15 -12.6 -25.35 -16.3 -29.55 -22.2 -29.55
M -30.55 -14.45
Q -30.55 -19.3 -28.3 -22.25 -26.05 -25.25 -22.2 -25.25 -18.35 -25.25 -16.05 -22.25 -13.85 -19.3 -13.85 -14.45 -13.85 -9.65 -16.05 -6.7 -18.35 -3.7 -22.2 -3.7 -26.05 -3.7 -28.3 -6.7 -30.55 -9.65 -30.55 -14.45 Z"/>
</g>

<g id="TECHNICAL_300x600_FINAL_psd_Asset_Layer_2_The_feeling_of_being_naked_0_Layer0_0_MEMBER_11_FILL">
<path fill="#221F1F" stroke="none" d="
M 12.2 -37.9
L 12.2 -42.3
Q 10.6 -42.95 8.45 -42.95 4.55 -42.95 2.1 -40.55 -0.4 -38.05 -0.4 -33.75
L -0.4 -28.95 -5.3 -28.95 -5.3 -24.8 -0.4 -24.8 -0.4 0 4.4 0 4.4 -24.8 10.9 -24.8 10.9 -28.95 4.4 -28.95 4.4 -33.4
Q 4.4 -35.95 5.7 -37.3 6.95 -38.65 9.15 -38.65 10.95 -38.65 12.2 -37.9 Z"/>
</g>

<g id="TECHNICAL_300x600_FINAL_psd_Asset_Layer_2_The_feeling_of_being_naked_0_Layer0_0_MEMBER_12_FILL">
<path fill="#221F1F" stroke="none" d="
M 35.9 -42.4
L 30.95 -42.4 30.95 0 35.9 0 35.9 -3.4
Q 37.05 -1.7 39.15 -0.6 41.5 0.6 44.05 0.6 50.15 0.6 53.75 -3.85 57.1 -8 57.1 -14.45 57.1 -20.85 53.75 -25.05 50.15 -29.55 44.05 -29.55 41.5 -29.55 39.15 -28.35 37.05 -27.25 35.9 -25.55
L 35.9 -42.4
M 35.9 -8.6
L 35.9 -20.35
Q 37 -22.6 39.05 -23.85 41 -25.1 43.35 -25.1 47.4 -25.1 49.8 -22.1 52.15 -19.15 52.15 -14.45 52.15 -9.8 49.8 -6.85 47.4 -3.85 43.35 -3.85 41 -3.85 39.05 -5.1 37 -6.35 35.9 -8.6 Z"/>
</g>

<g id="TECHNICAL_300x600_FINAL_psd_Asset_Layer_2_The_feeling_of_being_naked_0_Layer0_0_MEMBER_13_FILL">
<path fill="#221F1F" stroke="none" d="
M 74.95 -29.55
Q 69.1 -29.55 65.4 -25.25 61.8 -21 61.8 -14.4 61.8 -7.7 65.5 -3.55 69.2 0.6 75.1 0.6 79.85 0.6 82.95 -2 85.95 -4.45 86.75 -8.65
L 82.1 -8.65
Q 81.55 -6.25 79.65 -4.9 77.8 -3.6 75.1 -3.6 71.4 -3.6 69.1 -6.25 66.75 -8.95 66.65 -13.55
L 87.15 -13.55 87.15 -15.3
Q 87.15 -21.8 84.05 -25.6 80.8 -29.55 74.95 -29.55
M 66.8 -17.3
Q 67.3 -21.05 69.55 -23.2 71.7 -25.35 75 -25.35 78.45 -25.35 80.4 -22.95 82.1 -20.75 82.2 -17.3
L 66.8 -17.3 Z"/>
</g>

<g id="TECHNICAL_300x600_FINAL_psd_Asset_Layer_2_The_feeling_of_being_naked_0_Layer0_0_MEMBER_14_FILL">
<path fill="#221F1F" stroke="none" d="
M 98.55 -28.95
L 93.65 -28.95 93.65 0 98.55 0 98.55 -28.95
M 93.9 -39.9
Q 92.95 -39 92.95 -37.7 92.95 -36.4 93.9 -35.5 94.85 -34.55 96.1 -34.55 97.4 -34.55 98.35 -35.5 99.25 -36.4 99.25 -37.7 99.25 -39 98.35 -39.9 97.4 -40.8 96.1 -40.8 94.8 -40.8 93.9 -39.9 Z"/>
</g>

<g id="TECHNICAL_300x600_FINAL_psd_Asset_Layer_2_The_feeling_of_being_naked_0_Layer0_0_MEMBER_15_FILL">
<path fill="#221F1F" stroke="none" d="
M 112.2 -28.95
L 107.3 -28.95 107.3 0 112.2 0 112.2 -19.65
Q 113 -22 115 -23.5 117.05 -25.05 119.55 -25.05 122.7 -25.05 124.4 -23.15 125.95 -21.35 125.95 -18.2
L 125.95 0 130.9 0 130.9 -18.95
Q 130.9 -23.8 128.3 -26.65 125.6 -29.55 120.75 -29.55 118.1 -29.55 115.7 -28.3 113.55 -27.15 112.2 -25.3
L 112.2 -28.95 Z"/>
</g>

<g id="TECHNICAL_300x600_FINAL_psd_Asset_Layer_2_The_feeling_of_being_naked_0_Layer0_0_MEMBER_16_FILL">
<path fill="#221F1F" stroke="none" d="
M 158.15 -28.95
L 158.15 -25.7
Q 157 -27.3 154.9 -28.35 152.6 -29.55 150.05 -29.55 144 -29.55 140.4 -25.1 137.1 -20.95 137.1 -14.85 137.1 -8.8 140.4 -4.65 144 -0.2 150.05 -0.2 152.6 -0.2 154.9 -1.4 156.95 -2.45 158.15 -4.1
L 158.15 -1.95
Q 158.15 2.75 156.15 5.15 154.1 7.55 150.2 7.55 143.9 7.55 142.65 2.15
L 137.8 2.15
Q 138.5 6.65 141.7 9.2 144.95 11.75 150.2 11.75 156.05 11.75 159.45 8.3 163.1 4.6 163.1 -2.3
L 163.1 -28.95 158.15 -28.95
M 155.1 -23.95
Q 157 -22.75 158.15 -20.65
L 158.15 -9.15
Q 157 -7.05 155.1 -5.85 153.1 -4.65 150.8 -4.65 146.75 -4.65 144.4 -7.55 142.1 -10.3 142.1 -14.85 142.1 -19.45 144.4 -22.25 146.75 -25.15 150.8 -25.15 153.1 -25.15 155.1 -23.95 Z"/>
</g>

<g id="TECHNICAL_300x600_FINAL_psd_Asset_Layer_2_The_feeling_of_being_naked_0_Layer0_0_MEMBER_17_FILL">
<path fill="#221F1F" stroke="none" d="
M 191.15 -28.95
L 186.25 -28.95 186.25 0 191.15 0 191.15 -19.65
Q 191.95 -22 193.95 -23.5 196 -25.05 198.5 -25.05 201.7 -25.05 203.35 -23.15 204.9 -21.35 204.9 -18.2
L 204.9 0 209.85 0 209.85 -18.95
Q 209.85 -23.8 207.25 -26.65 204.55 -29.55 199.7 -29.55 197.05 -29.55 194.7 -28.3 192.5 -27.15 191.15 -25.3
L 191.15 -28.95 Z"/>
</g>

<g id="TECHNICAL_300x600_FINAL_psd_Asset_Layer_2_The_feeling_of_being_naked_0_Layer0_0_MEMBER_18_FILL">
<path fill="#221F1F" stroke="none" d="
M 236.25 -26.8
Q 233.3 -29.55 228.1 -29.55 224 -29.55 221 -27.25 218.05 -25 217.3 -21.3
L 222.1 -21.3
Q 223.5 -25.3 228.05 -25.3 231.1 -25.3 232.85 -23.55 234.45 -21.9 234.45 -19.1
L 234.45 -15.45
Q 233.45 -16.35 231.45 -17.05 229.25 -17.8 227.15 -17.8 222.45 -17.8 219.3 -15.3 216.05 -12.75 216.05 -8.75 216.05 -4.55 219.25 -1.95 222.25 0.5 226.8 0.5 229.2 0.5 231.5 -0.4 233.5 -1.15 234.45 -2.15
L 234.45 0 239.15 0 239.15 -19.3
Q 239.15 -24.05 236.25 -26.8
M 227.65 -13.75
Q 229.95 -13.75 231.85 -12.75 233.8 -11.75 234.45 -10.15
L 234.45 -7.15
Q 233.85 -5.55 231.85 -4.55 229.95 -3.6 227.65 -3.6 224.8 -3.6 222.9 -4.85 220.75 -6.25 220.75 -8.75 220.75 -11.2 222.9 -12.55 224.8 -13.75 227.65 -13.75 Z"/>
</g>

<g id="TECHNICAL_300x600_FINAL_psd_Asset_Layer_2_The_feeling_of_being_naked_0_Layer0_0_MEMBER_19_FILL">
<path fill="#221F1F" stroke="none" d="
M 252.4 -10.35
L 255.5 -13.35 266.55 0 272.55 0 259.05 -16.45 272.05 -28.95 265.6 -28.95 252.4 -16.1 252.4 -42.4 247.5 -42.4 247.5 0 252.4 0 252.4 -10.35 Z"/>
</g>

<g id="TECHNICAL_300x600_FINAL_psd_Asset_Layer_2_The_feeling_of_being_naked_0_Layer0_0_MEMBER_20_FILL">
<path fill="#221F1F" stroke="none" d="
M 274.8 -14.4
Q 274.8 -7.7 278.5 -3.55 282.2 0.6 288.1 0.6 292.9 0.6 296 -2 299 -4.45 299.8 -8.65
L 295.15 -8.65
Q 294.55 -6.25 292.7 -4.9 290.85 -3.6 288.1 -3.6 284.35 -3.6 282.1 -6.25 279.75 -8.95 279.7 -13.55
L 300.2 -13.55 300.2 -15.3
Q 300.2 -21.8 297.1 -25.6 293.85 -29.55 288 -29.55 282.15 -29.55 278.45 -25.25 274.8 -21 274.8 -14.4
M 279.85 -17.3
Q 280.35 -21.05 282.6 -23.2 284.75 -25.35 288.05 -25.35 291.5 -25.35 293.4 -22.95 295.15 -20.75 295.2 -17.3
L 279.85 -17.3 Z"/>
</g>

<g id="TECHNICAL_300x600_FINAL_psd_Asset_Layer_2_The_feeling_of_being_naked_0_Layer0_0_MEMBER_21_FILL">
<path fill="#221F1F" stroke="none" d="
M 322.65 -28.35
Q 320.35 -29.55 317.8 -29.55 311.7 -29.55 308.1 -25.05 304.75 -20.85 304.75 -14.45 304.75 -8 308.1 -3.85 311.65 0.6 317.8 0.6 320.35 0.6 322.65 -0.6 324.8 -1.7 325.95 -3.4
L 325.95 0 330.9 0 330.9 -42.4 325.95 -42.4 325.95 -25.55
Q 324.8 -27.2 322.65 -28.35
M 322.8 -5.1
Q 320.8 -3.85 318.5 -3.85 314.4 -3.85 312 -6.85 309.7 -9.75 309.7 -14.45 309.7 -19.15 312 -22.1 314.4 -25.1 318.5 -25.1 320.8 -25.1 322.8 -23.85 324.85 -22.55 325.95 -20.35
L 325.95 -8.6
Q 324.85 -6.35 322.8 -5.1 Z"/>
</g>
</defs>

<g transform="matrix( 1, 0, 0, 1, -146,44) ">
<g transform="matrix( 1, 0, 0, 1, 173,21) ">
<g transform="matrix( 0.369964599609375, 0, 0, 0.3073272705078125, 123.5,13.65) ">
<use xlink:href="#TECHNICAL_300x600_FINAL_psd_Asset_Layer_2_The_feeling_of_being_naked_0_Layer0_0_MEMBER_0_FILL"/>
</g>

<g transform="matrix( 0.369964599609375, 0, 0, 0.3073272705078125, 123.5,13.65) ">
<use xlink:href="#TECHNICAL_300x600_FINAL_psd_Asset_Layer_2_The_feeling_of_being_naked_0_Layer0_0_MEMBER_1_FILL"/>
</g>

<g transform="matrix( 0.369964599609375, 0, 0, 0.3073272705078125, 123.5,13.65) ">
<use xlink:href="#TECHNICAL_300x600_FINAL_psd_Asset_Layer_2_The_feeling_of_being_naked_0_Layer0_0_MEMBER_2_FILL"/>
</g>

<g transform="matrix( 0.369964599609375, 0, 0, 0.3073272705078125, 123.5,13.65) ">
<use xlink:href="#TECHNICAL_300x600_FINAL_psd_Asset_Layer_2_The_feeling_of_being_naked_0_Layer0_0_MEMBER_3_FILL"/>
</g>

<g transform="matrix( 0.369964599609375, 0, 0, 0.3073272705078125, 123.5,13.65) ">
<use xlink:href="#TECHNICAL_300x600_FINAL_psd_Asset_Layer_2_The_feeling_of_being_naked_0_Layer0_0_MEMBER_4_FILL"/>
</g>

<g transform="matrix( 0.369964599609375, 0, 0, 0.3073272705078125, 123.5,13.65) ">
<use xlink:href="#TECHNICAL_300x600_FINAL_psd_Asset_Layer_2_The_feeling_of_being_naked_0_Layer0_0_MEMBER_5_FILL"/>
</g>

<g transform="matrix( 0.369964599609375, 0, 0, 0.3073272705078125, 123.5,13.65) ">
<use xlink:href="#TECHNICAL_300x600_FINAL_psd_Asset_Layer_2_The_feeling_of_being_naked_0_Layer0_0_MEMBER_6_FILL"/>
</g>

<g transform="matrix( 0.369964599609375, 0, 0, 0.3073272705078125, 123.5,13.65) ">
<use xlink:href="#TECHNICAL_300x600_FINAL_psd_Asset_Layer_2_The_feeling_of_being_naked_0_Layer0_0_MEMBER_7_FILL"/>
</g>

<g transform="matrix( 0.369964599609375, 0, 0, 0.3073272705078125, 123.5,13.65) ">
<use xlink:href="#TECHNICAL_300x600_FINAL_psd_Asset_Layer_2_The_feeling_of_being_naked_0_Layer0_0_MEMBER_8_FILL"/>
</g>

<g transform="matrix( 0.369964599609375, 0, 0, 0.3073272705078125, 123.5,13.65) ">
<use xlink:href="#TECHNICAL_300x600_FINAL_psd_Asset_Layer_2_The_feeling_of_being_naked_0_Layer0_0_MEMBER_9_FILL"/>
</g>

<g transform="matrix( 0.369964599609375, 0, 0, 0.3073272705078125, 123.5,13.65) ">
<use xlink:href="#TECHNICAL_300x600_FINAL_psd_Asset_Layer_2_The_feeling_of_being_naked_0_Layer0_0_MEMBER_10_FILL"/>
</g>

<g transform="matrix( 0.369964599609375, 0, 0, 0.3073272705078125, 123.5,13.65) ">
<use xlink:href="#TECHNICAL_300x600_FINAL_psd_Asset_Layer_2_The_feeling_of_being_naked_0_Layer0_0_MEMBER_11_FILL"/>
</g>

<g transform="matrix( 0.369964599609375, 0, 0, 0.3073272705078125, 123.5,13.65) ">
<use xlink:href="#TECHNICAL_300x600_FINAL_psd_Asset_Layer_2_The_feeling_of_being_naked_0_Layer0_0_MEMBER_12_FILL"/>
</g>

<g transform="matrix( 0.369964599609375, 0, 0, 0.3073272705078125, 123.5,13.65) ">
<use xlink:href="#TECHNICAL_300x600_FINAL_psd_Asset_Layer_2_The_feeling_of_being_naked_0_Layer0_0_MEMBER_13_FILL"/>
</g>

<g transform="matrix( 0.369964599609375, 0, 0, 0.3073272705078125, 123.5,13.65) ">
<use xlink:href="#TECHNICAL_300x600_FINAL_psd_Asset_Layer_2_The_feeling_of_being_naked_0_Layer0_0_MEMBER_14_FILL"/>
</g>

<g transform="matrix( 0.369964599609375, 0, 0, 0.3073272705078125, 123.5,13.65) ">
<use xlink:href="#TECHNICAL_300x600_FINAL_psd_Asset_Layer_2_The_feeling_of_being_naked_0_Layer0_0_MEMBER_15_FILL"/>
</g>

<g transform="matrix( 0.369964599609375, 0, 0, 0.3073272705078125, 123.5,13.65) ">
<use xlink:href="#TECHNICAL_300x600_FINAL_psd_Asset_Layer_2_The_feeling_of_being_naked_0_Layer0_0_MEMBER_16_FILL"/>
</g>

<g transform="matrix( 0.369964599609375, 0, 0, 0.3073272705078125, 123.5,13.65) ">
<use xlink:href="#TECHNICAL_300x600_FINAL_psd_Asset_Layer_2_The_feeling_of_being_naked_0_Layer0_0_MEMBER_17_FILL"/>
</g>

<g transform="matrix( 0.369964599609375, 0, 0, 0.3073272705078125, 123.5,13.65) ">
<use xlink:href="#TECHNICAL_300x600_FINAL_psd_Asset_Layer_2_The_feeling_of_being_naked_0_Layer0_0_MEMBER_18_FILL"/>
</g>

<g transform="matrix( 0.369964599609375, 0, 0, 0.3073272705078125, 123.5,13.65) ">
<use xlink:href="#TECHNICAL_300x600_FINAL_psd_Asset_Layer_2_The_feeling_of_being_naked_0_Layer0_0_MEMBER_19_FILL"/>
</g>

<g transform="matrix( 0.369964599609375, 0, 0, 0.3073272705078125, 123.5,13.65) ">
<use xlink:href="#TECHNICAL_300x600_FINAL_psd_Asset_Layer_2_The_feeling_of_being_naked_0_Layer0_0_MEMBER_20_FILL"/>
</g>

<g transform="matrix( 0.369964599609375, 0, 0, 0.3073272705078125, 123.5,13.65) ">
<use xlink:href="#TECHNICAL_300x600_FINAL_psd_Asset_Layer_2_The_feeling_of_being_naked_0_Layer0_0_MEMBER_21_FILL"/>
</g>
</g>
</g>
</svg>
