
<svg xmlns="http://www.w3.org/2000/svg" version="1.1" xmlns:xlink="http://www.w3.org/1999/xlink" preserveAspectRatio="none" x="0px" y="0px" width="300px" height="600px" viewBox="0 0 300 600">
<defs>
<g id="INSPIRATIONAL_300x600_FINAL_psd_Asset_Layer_4_Align_Crop_Try_it_on_0_Layer0_0_MEMBER_0_FILL">
<path fill="#F9C2C1" stroke="none" d="
M -222.65 -40.05
L -230.95 -40.05 -246.25 0 -237.9 0 -234.4 -9.65 -219.4 -9.65 -215.8 0 -207.35 0 -222.65 -40.05
M -231.8 -16.7
L -226.9 -30 -222 -16.7 -231.8 -16.7 Z"/>
</g>

<g id="INSPIRATIONAL_300x600_FINAL_psd_Asset_Layer_4_Align_Crop_Try_it_on_0_Layer0_0_MEMBER_1_FILL">
<path fill="#F9C2C1" stroke="none" d="
M -176.85 -40.05
L -185.2 -40.05 -185.2 0 -158.25 0 -158.25 -7.35 -176.85 -7.35 -176.85 -40.05 Z"/>
</g>

<g id="INSPIRATIONAL_300x600_FINAL_psd_Asset_Layer_4_Align_Crop_Try_it_on_0_Layer0_0_MEMBER_2_FILL">
<path fill="#F9C2C1" stroke="none" d="
M -126.55 -40.05
L -134.9 -40.05 -134.9 0 -126.55 0 -126.55 -40.05 Z"/>
</g>

<g id="INSPIRATIONAL_300x600_FINAL_psd_Asset_Layer_4_Align_Crop_Try_it_on_0_Layer0_0_MEMBER_3_FILL">
<path fill="#F9C2C1" stroke="none" d="
M -82.65 -21
L -82.65 -14.35 -75 -14.35
Q -75.75 -10.85 -78.05 -8.8 -80.55 -6.7 -84.3 -6.7 -89.25 -6.7 -92.2 -10.45 -95.1 -14.1 -95.1 -20 -95.1 -25.85 -92.25 -29.5 -89.35 -33.25 -84.5 -33.25 -78.2 -33.25 -75.95 -27.1
L -67.5 -27.1
Q -68.65 -33.35 -72.95 -36.9 -77.45 -40.7 -84.5 -40.7 -92.7 -40.7 -98.1 -34.95 -103.6 -29.1 -103.6 -20 -103.6 -10.85 -98.15 -5.1 -92.7 0.65 -84.3 0.65 -76.6 0.65 -71.8 -4.25 -66.85 -9.25 -66.85 -17.45
L -66.85 -21 -82.65 -21 Z"/>
</g>

<g id="INSPIRATIONAL_300x600_FINAL_psd_Asset_Layer_4_Align_Crop_Try_it_on_0_Layer0_0_MEMBER_4_FILL">
<path fill="#F9C2C1" stroke="none" d="
M -18.35 -14.75
L -36.05 -40.05 -43.85 -40.05 -43.85 0 -35.85 0 -35.85 -26.65 -16.9 0 -10.35 0 -10.35 -40.05 -18.35 -40.05 -18.35 -14.75 Z"/>
</g>

<g id="INSPIRATIONAL_300x600_FINAL_psd_Asset_Layer_4_Align_Crop_Try_it_on_0_Layer0_0_MEMBER_5_FILL">
<path fill="#F9C2C1" stroke="none" d="
M 73.8 -36.9
Q 69.35 -40.7 62.45 -40.7 54.35 -40.7 49.1 -34.95 43.8 -29.1 43.8 -20 43.8 -10.9 49.1 -5.1 54.35 0.65 62.45 0.65 69.35 0.65 73.8 -3.15 78.05 -6.75 79.2 -12.95
L 70.9 -12.95
Q 68.65 -6.8 62.45 -6.8 57.75 -6.8 54.95 -10.55 52.25 -14.2 52.25 -20 52.25 -25.85 54.95 -29.5 57.75 -33.25 62.45 -33.25 68.65 -33.25 70.9 -27.1
L 79.2 -27.1
Q 78.05 -33.3 73.8 -36.9 Z"/>
</g>

<g id="INSPIRATIONAL_300x600_FINAL_psd_Asset_Layer_4_Align_Crop_Try_it_on_0_Layer0_0_MEMBER_6_FILL">
<path fill="#F9C2C1" stroke="none" d="
M 110.35 -14.95
L 114.75 -14.95 124.65 0 134.05 0 123.45 -15.5
Q 127.75 -16.55 130.15 -19.55 132.6 -22.65 132.6 -27.3 132.6 -33.4 128.75 -36.75 125 -40.05 118.6 -40.05
L 102.1 -40.05 102.1 0 110.35 0 110.35 -14.95
M 110.35 -21.8
L 110.35 -32.95 118.05 -32.95
Q 121.15 -32.95 122.8 -31.4 124.4 -29.9 124.4 -27.3 124.4 -24.75 122.8 -23.3 121.15 -21.8 118.05 -21.8
L 110.35 -21.8 Z"/>
</g>

<g id="INSPIRATIONAL_300x600_FINAL_psd_Asset_Layer_4_Align_Crop_Try_it_on_0_Layer0_0_MEMBER_7_FILL">
<path fill="#F9C2C1" stroke="none" d="
M 154.1 -20
Q 154.1 -11 159.35 -5.2 164.7 0.65 173 0.65 181.35 0.65 186.7 -5.2 192 -11.05 192 -20 192 -29 186.7 -34.85 181.35 -40.7 173 -40.7 164.65 -40.7 159.35 -34.85 154.1 -29.05 154.1 -20
M 173 -33.25
Q 177.8 -33.25 180.7 -29.55 183.6 -25.9 183.6 -20 183.6 -14.1 180.7 -10.45 177.8 -6.8 173 -6.8 168.3 -6.8 165.45 -10.45 162.6 -14.1 162.6 -20 162.6 -25.9 165.45 -29.55 168.3 -33.25 173 -33.25 Z"/>
</g>

<g id="INSPIRATIONAL_300x600_FINAL_psd_Asset_Layer_4_Align_Crop_Try_it_on_0_Layer0_0_MEMBER_8_FILL">
<path fill="#F9C2C1" stroke="none" d="
M 241.6 -36.7
Q 237.85 -40.05 231.4 -40.05
L 215.1 -40.05 215.1 0 223.35 0 223.35 -13.9 231.4 -13.9
Q 237.85 -13.9 241.6 -17.25 245.45 -20.7 245.45 -26.95 245.45 -33.2 241.6 -36.7
M 235.65 -31.3
Q 237.25 -29.7 237.25 -26.95 237.25 -24.25 235.65 -22.65 234 -21 230.85 -21
L 223.35 -21 223.35 -32.95 230.85 -32.95
Q 234 -32.95 235.65 -31.3 Z"/>
</g>

<g id="INSPIRATIONAL_300x600_FINAL_psd_Asset_Layer_4_Align_Crop_Try_it_on_0_Layer0_0_MEMBER_9_FILL">
<path fill="#231F20" stroke="none" d="
M -80.9 20.6
L -80.9 24.2 -69.95 24.2 -69.95 52.05 -65.9 52.05 -65.9 24.2 -54.95 24.2 -54.95 20.6 -80.9 20.6 Z"/>
</g>

<g id="INSPIRATIONAL_300x600_FINAL_psd_Asset_Layer_4_Align_Crop_Try_it_on_0_Layer0_0_MEMBER_10_FILL">
<path fill="#231F20" stroke="none" d="
M -41.35 33.15
L -41.35 29.2
Q -42.05 28.85 -43.55 28.85 -45.35 28.85 -46.95 29.85 -48.4 30.8 -49.2 32.3
L -49.2 29.3 -53.05 29.3 -53.05 52.05 -49.2 52.05 -49.2 36.8
Q -48.65 34.8 -47.2 33.65 -45.75 32.55 -43.9 32.55 -42.25 32.55 -41.35 33.15 Z"/>
</g>

<g id="INSPIRATIONAL_300x600_FINAL_psd_Asset_Layer_4_Align_Crop_Try_it_on_0_Layer0_0_MEMBER_11_FILL">
<path fill="#231F20" stroke="none" d="
M -34.95 29.3
L -39.1 29.3 -30.25 52.2 -33.65 60.75 -29.9 60.75 -17.65 29.3 -21.6 29.3 -28.25 47.25 -34.95 29.3 Z"/>
</g>

<g id="INSPIRATIONAL_300x600_FINAL_psd_Asset_Layer_4_Align_Crop_Try_it_on_0_Layer0_0_MEMBER_12_FILL">
<path fill="#231F20" stroke="none" d="
M 1.9 52.05
L 1.9 29.3 -1.95 29.3 -1.95 52.05 1.9 52.05
M 1.75 24.15
Q 2.45 23.45 2.45 22.45 2.45 21.4 1.75 20.7 1 20 -0.05 20 -1.05 20 -1.8 20.7 -2.5 21.4 -2.5 22.45 -2.5 23.45 -1.8 24.15 -1.05 24.9 -0.05 24.9 1 24.9 1.75 24.15 Z"/>
</g>

<g id="INSPIRATIONAL_300x600_FINAL_psd_Asset_Layer_4_Align_Crop_Try_it_on_0_Layer0_0_MEMBER_13_FILL">
<path fill="#231F20" stroke="none" d="
M 13.7 23.3
L 9.85 23.3 9.85 29.3 6.15 29.3 6.15 32.6 9.85 32.6 9.85 46.3
Q 9.85 49.35 11.6 51 13.25 52.5 16.1 52.5 18.2 52.5 19.7 51.75
L 19.7 48.15
Q 18.3 49.1 16.7 49.1 13.7 49.1 13.7 45.9
L 13.7 32.6 19.15 32.6 19.15 29.3 13.7 29.3 13.7 23.3 Z"/>
</g>

<g id="INSPIRATIONAL_300x600_FINAL_psd_Asset_Layer_4_Align_Crop_Try_it_on_0_Layer0_0_MEMBER_14_FILL">
<path fill="#231F20" stroke="none" d="
M 52.7 49.2
Q 55.6 45.9 55.6 40.7 55.6 35.45 52.7 32.15 49.8 28.85 45.15 28.85 40.5 28.85 37.6 32.15 34.7 35.45 34.7 40.7 34.7 45.95 37.6 49.2 40.5 52.5 45.15 52.5 49.8 52.5 52.7 49.2
M 49.95 34.6
Q 51.7 36.9 51.7 40.7 51.7 44.5 49.95 46.8 48.2 49.15 45.15 49.15 42.1 49.15 40.35 46.8 38.6 44.5 38.6 40.7 38.6 36.9 40.35 34.6 42.1 32.25 45.15 32.25 48.2 32.25 49.95 34.6 Z"/>
</g>

<g id="INSPIRATIONAL_300x600_FINAL_psd_Asset_Layer_4_Align_Crop_Try_it_on_0_Layer0_0_MEMBER_15_FILL">
<path fill="#231F20" stroke="none" d="
M 77.35 31.15
Q 75.2 28.85 71.4 28.85 69.3 28.85 67.45 29.85 65.75 30.75 64.65 32.15
L 64.65 29.3 60.85 29.3 60.85 52.05 64.65 52.05 64.65 36.65
Q 65.3 34.75 66.9 33.6 68.5 32.4 70.45 32.4 72.95 32.4 74.25 33.9 75.5 35.3 75.5 37.75
L 75.5 52.05 79.4 52.05 79.4 37.15
Q 79.4 33.35 77.35 31.15 Z"/>
</g>

<g id="Layer0_0_FILL">
<path fill="#000000" stroke="none" d="
M 93.75 93.75
Q 109.8 77.7 109.8 54.95 109.8 32.2 93.75 16.1 77.65 0 54.9 0 32.15 0 16.05 16.1 0 32.2 0 54.95 0 77.7 16.05 93.75 32.15 109.85 54.9 109.85 77.65 109.85 93.75 93.75
M 85.3 42.1
Q 84.55 45.4 82.65 49.4 81.55 51.75 78.95 56.5 73.7 66 73.2 70.4 72.6 76.45 78.7 80.5 81.05 82.1 83.7 82.1 87.65 82.1 93.25 79.3
L 92.75 80.2
Q 86 90.3 76.4 90.3 72.25 90.3 67.8 88.35 62.85 86.15 60 81.15 57.05 76.1 57.9 71.25 58.6 68.4 61.7 60.4 66.5 48 67.85 41.8 70.25 31 66.85 26.05 63.7 21.35 54.9 21.25 46.15 21.35 42.9 26.05 39.5 31 41.95 41.8 43.35 48 48.1 60.4 51.25 68.4 51.9 71.3 52.7 76.1 49.8 81.15 46.85 86.2 42 88.35 37.6 90.3 33.35 90.3 28.65 90.3 24.5 87.75 20.35 85.15 17.05 80.2
L 16.55 79.3
Q 22.15 82.1 26.1 82.1 28.7 82.1 31.05 80.5 37.2 76.45 36.55 70.4 36.1 66.05 30.85 56.5 28.25 51.75 27.15 49.4 25.25 45.4 24.45 42.1 21.5 29.7 26.65 23.15 30 18.95 36.5 16.8 43.5 14.55 53.75 14.4
L 56 14.4
Q 66.3 14.55 73.3 16.8 79.85 19 83.1 23.15 88.35 29.75 85.3 42.1 Z"/>
</g>
</defs>

<g transform="matrix( 1, 0, 0, 1, 39,64) ">
<g transform="matrix( 1, 0, 0, 1, 0,0) ">
<g transform="matrix( 0.4443359375, 0, 0, 0.3683624267578125, 109.5,15.2) ">
<use xlink:href="#INSPIRATIONAL_300x600_FINAL_psd_Asset_Layer_4_Align_Crop_Try_it_on_0_Layer0_0_MEMBER_0_FILL"/>
</g>

<g transform="matrix( 0.4443359375, 0, 0, 0.3683624267578125, 109.5,15.2) ">
<use xlink:href="#INSPIRATIONAL_300x600_FINAL_psd_Asset_Layer_4_Align_Crop_Try_it_on_0_Layer0_0_MEMBER_1_FILL"/>
</g>

<g transform="matrix( 0.4443359375, 0, 0, 0.3683624267578125, 109.5,15.2) ">
<use xlink:href="#INSPIRATIONAL_300x600_FINAL_psd_Asset_Layer_4_Align_Crop_Try_it_on_0_Layer0_0_MEMBER_2_FILL"/>
</g>

<g transform="matrix( 0.4443359375, 0, 0, 0.3683624267578125, 109.5,15.2) ">
<use xlink:href="#INSPIRATIONAL_300x600_FINAL_psd_Asset_Layer_4_Align_Crop_Try_it_on_0_Layer0_0_MEMBER_3_FILL"/>
</g>

<g transform="matrix( 0.4443359375, 0, 0, 0.3683624267578125, 109.5,15.2) ">
<use xlink:href="#INSPIRATIONAL_300x600_FINAL_psd_Asset_Layer_4_Align_Crop_Try_it_on_0_Layer0_0_MEMBER_4_FILL"/>
</g>

<g transform="matrix( 0.4443359375, 0, 0, 0.3683624267578125, 109.5,15.2) ">
<use xlink:href="#INSPIRATIONAL_300x600_FINAL_psd_Asset_Layer_4_Align_Crop_Try_it_on_0_Layer0_0_MEMBER_5_FILL"/>
</g>

<g transform="matrix( 0.4443359375, 0, 0, 0.3683624267578125, 109.5,15.2) ">
<use xlink:href="#INSPIRATIONAL_300x600_FINAL_psd_Asset_Layer_4_Align_Crop_Try_it_on_0_Layer0_0_MEMBER_6_FILL"/>
</g>

<g transform="matrix( 0.4443359375, 0, 0, 0.3683624267578125, 109.5,15.2) ">
<use xlink:href="#INSPIRATIONAL_300x600_FINAL_psd_Asset_Layer_4_Align_Crop_Try_it_on_0_Layer0_0_MEMBER_7_FILL"/>
</g>

<g transform="matrix( 0.4443359375, 0, 0, 0.3683624267578125, 109.5,15.2) ">
<use xlink:href="#INSPIRATIONAL_300x600_FINAL_psd_Asset_Layer_4_Align_Crop_Try_it_on_0_Layer0_0_MEMBER_8_FILL"/>
</g>

<g transform="matrix( 0.4443359375, 0, 0, 0.3683624267578125, 109.5,15.2) ">
<use xlink:href="#INSPIRATIONAL_300x600_FINAL_psd_Asset_Layer_4_Align_Crop_Try_it_on_0_Layer0_0_MEMBER_9_FILL"/>
</g>

<g transform="matrix( 0.4443359375, 0, 0, 0.3683624267578125, 109.5,15.2) ">
<use xlink:href="#INSPIRATIONAL_300x600_FINAL_psd_Asset_Layer_4_Align_Crop_Try_it_on_0_Layer0_0_MEMBER_10_FILL"/>
</g>

<g transform="matrix( 0.4443359375, 0, 0, 0.3683624267578125, 109.5,15.2) ">
<use xlink:href="#INSPIRATIONAL_300x600_FINAL_psd_Asset_Layer_4_Align_Crop_Try_it_on_0_Layer0_0_MEMBER_11_FILL"/>
</g>

<g transform="matrix( 0.4443359375, 0, 0, 0.3683624267578125, 109.5,15.2) ">
<use xlink:href="#INSPIRATIONAL_300x600_FINAL_psd_Asset_Layer_4_Align_Crop_Try_it_on_0_Layer0_0_MEMBER_12_FILL"/>
</g>

<g transform="matrix( 0.4443359375, 0, 0, 0.3683624267578125, 109.5,15.2) ">
<use xlink:href="#INSPIRATIONAL_300x600_FINAL_psd_Asset_Layer_4_Align_Crop_Try_it_on_0_Layer0_0_MEMBER_13_FILL"/>
</g>

<g transform="matrix( 0.4443359375, 0, 0, 0.3683624267578125, 109.5,15.2) ">
<use xlink:href="#INSPIRATIONAL_300x600_FINAL_psd_Asset_Layer_4_Align_Crop_Try_it_on_0_Layer0_0_MEMBER_14_FILL"/>
</g>

<g transform="matrix( 0.4443359375, 0, 0, 0.3683624267578125, 109.5,15.2) ">
<use xlink:href="#INSPIRATIONAL_300x600_FINAL_psd_Asset_Layer_4_Align_Crop_Try_it_on_0_Layer0_0_MEMBER_15_FILL"/>
</g>
</g>

<g transform="matrix( 0.774139404296875, 0, 0, 0.774139404296875, 68,192.95) ">
<use xlink:href="#Layer0_0_FILL"/>
</g>
</g>
</svg>
