
<svg xmlns="http://www.w3.org/2000/svg" version="1.1" xmlns:xlink="http://www.w3.org/1999/xlink" preserveAspectRatio="none" x="0px" y="0px" width="160px" height="600px" viewBox="0 0 160 600">
<defs>
<g id="INSPIRATIONAL_160x600_FINAL_psd_Asset_Layer_4_Align_Crop_Experience_it_for_yourself_0_Layer0_0_MEMBER_0_FILL">
<path fill="#F9C2C1" stroke="none" d="
M -103.15 -43.1
L -112.05 -43.1 -128.55 0 -119.55 0 -115.75 -10.4 -99.6 -10.4 -95.75 0 -86.65 0 -103.15 -43.1
M -112.95 -17.95
L -107.7 -32.3 -102.45 -17.95 -112.95 -17.95 Z"/>
</g>

<g id="INSPIRATIONAL_160x600_FINAL_psd_Asset_Layer_4_Align_Crop_Experience_it_for_yourself_0_Layer0_0_MEMBER_1_FILL">
<path fill="#F9C2C1" stroke="none" d="
M -53.85 -43.1
L -62.85 -43.1 -62.85 0 -33.75 0 -33.75 -7.95 -53.85 -7.95 -53.85 -43.1 Z"/>
</g>

<g id="INSPIRATIONAL_160x600_FINAL_psd_Asset_Layer_4_Align_Crop_Experience_it_for_yourself_0_Layer0_0_MEMBER_2_FILL">
<path fill="#F9C2C1" stroke="none" d="
M 0.35 0
L 0.35 -43.1 -8.65 -43.1 -8.65 0 0.35 0 Z"/>
</g>

<g id="INSPIRATIONAL_160x600_FINAL_psd_Asset_Layer_4_Align_Crop_Experience_it_for_yourself_0_Layer0_0_MEMBER_3_FILL">
<path fill="#F9C2C1" stroke="none" d="
M 25.05 -21.55
Q 25.05 -11.7 30.95 -5.45 36.8 0.7 45.85 0.7 54.1 0.7 59.3 -4.6 64.6 -9.95 64.6 -18.8
L 64.6 -22.6 47.6 -22.6 47.6 -15.45 55.8 -15.45
Q 55.05 -11.65 52.55 -9.5 49.9 -7.25 45.85 -7.25 40.5 -7.25 37.3 -11.25 34.2 -15.2 34.2 -21.55 34.2 -27.85 37.25 -31.8 40.4 -35.8 45.65 -35.8 52.35 -35.8 54.85 -29.2
L 63.9 -29.2
Q 62.6 -35.9 58.05 -39.75 53.25 -43.8 45.65 -43.8 36.75 -43.8 30.95 -37.6 25.05 -31.35 25.05 -21.55 Z"/>
</g>

<g id="INSPIRATIONAL_160x600_FINAL_psd_Asset_Layer_4_Align_Crop_Experience_it_for_yourself_0_Layer0_0_MEMBER_4_FILL">
<path fill="#F9C2C1" stroke="none" d="
M 97.8 -43.1
L 89.35 -43.1 89.35 0 98 0 98 -28.7 118.35 0 125.45 0 125.45 -43.1 116.8 -43.1 116.8 -15.85 97.8 -43.1 Z"/>
</g>

<g id="INSPIRATIONAL_160x600_FINAL_psd_Asset_Layer_4_Align_Crop_Experience_it_for_yourself_0_Layer0_0_MEMBER_5_FILL">
<path fill="#F9C2C1" stroke="none" d="
M -70.4 35.95
Q -71.65 29.25 -76.2 25.4 -81 21.35 -88.45 21.35 -97.15 21.35 -102.8 27.55 -108.5 33.8 -108.5 43.6 -108.5 53.4 -102.8 59.7 -97.15 65.85 -88.45 65.85 -81 65.85 -76.2 61.8 -71.65 57.9 -70.4 51.2
L -79.3 51.2
Q -81.7 57.85 -88.45 57.85 -93.5 57.85 -96.5 53.8 -99.4 49.85 -99.4 43.6 -99.4 37.3 -96.5 33.4 -93.5 29.35 -88.45 29.35 -81.7 29.35 -79.3 35.95
L -70.4 35.95 Z"/>
</g>

<g id="INSPIRATIONAL_160x600_FINAL_psd_Asset_Layer_4_Align_Crop_Experience_it_for_yourself_0_Layer0_0_MEMBER_6_FILL">
<path fill="#F9C2C1" stroke="none" d="
M -36.8 49.05
L -32.1 49.05 -21.45 65.15 -11.35 65.15 -22.7 48.45
Q -18.05 47.3 -15.55 44.1 -12.9 40.8 -12.9 35.75 -12.9 29.2 -17.05 25.6 -21.05 22.05 -28 22.05
L -45.75 22.05 -45.75 65.15 -36.8 65.15 -36.8 49.05
M -36.8 41.7
L -36.8 29.7 -28.55 29.7
Q -25.25 29.7 -23.45 31.35 -21.75 32.95 -21.75 35.75 -21.75 38.5 -23.45 40.05 -25.25 41.7 -28.55 41.7
L -36.8 41.7 Z"/>
</g>

<g id="INSPIRATIONAL_160x600_FINAL_psd_Asset_Layer_4_Align_Crop_Experience_it_for_yourself_0_Layer0_0_MEMBER_7_FILL">
<path fill="#F9C2C1" stroke="none" d="
M 51.05 43.6
Q 51.05 33.9 45.35 27.65 39.6 21.35 30.65 21.35 21.7 21.35 16 27.65 10.3 33.9 10.3 43.6 10.3 53.3 16 59.55 21.7 65.85 30.65 65.85 39.6 65.85 45.35 59.55 51.05 53.3 51.05 43.6
M 30.65 29.35
Q 35.8 29.35 38.9 33.3 42 37.25 42 43.6 42 49.95 38.9 53.9 35.8 57.85 30.65 57.85 25.6 57.85 22.5 53.9 19.4 49.95 19.4 43.6 19.4 37.25 22.5 33.3 25.55 29.35 30.65 29.35 Z"/>
</g>

<g id="INSPIRATIONAL_160x600_FINAL_psd_Asset_Layer_4_Align_Crop_Experience_it_for_yourself_0_Layer0_0_MEMBER_8_FILL">
<path fill="#F9C2C1" stroke="none" d="
M 104.5 46.6
Q 108.65 42.9 108.65 36.15 108.65 29.4 104.5 25.65 100.45 22.05 93.5 22.05
L 75.95 22.05 75.95 65.15 84.85 65.15 84.85 50.2 93.5 50.2
Q 100.45 50.2 104.5 46.6
M 98.1 31.5
Q 99.8 33.15 99.8 36.15 99.8 39.05 98.1 40.75 96.3 42.55 92.9 42.55
L 84.85 42.55 84.85 29.7 92.9 29.7
Q 96.3 29.7 98.1 31.5 Z"/>
</g>

<g id="INSPIRATIONAL_160x600_FINAL_psd_Asset_Layer_4_Align_Crop_Experience_it_for_yourself_0_Layer0_0_MEMBER_9_FILL">
<path fill="#231F20" stroke="none" d="
M -105.6 98.85
L -125.65 98.85 -125.65 130.3 -105.6 130.3 -105.6 126.65 -121.65 126.65 -121.65 115.95 -107.1 115.95 -107.1 112.35 -121.65 112.35 -121.65 102.4 -105.6 102.4 -105.6 98.85 Z"/>
</g>

<g id="INSPIRATIONAL_160x600_FINAL_psd_Asset_Layer_4_Align_Crop_Experience_it_for_yourself_0_Layer0_0_MEMBER_10_FILL">
<path fill="#231F20" stroke="none" d="
M -89.35 118.5
L -81.35 107.55 -85.55 107.55 -91.45 115.7 -97.2 107.55 -101.6 107.55 -93.65 118.65 -102.05 130.3 -97.9 130.3 -91.55 121.45 -85.25 130.3 -80.9 130.3 -89.35 118.5 Z"/>
</g>

<g id="INSPIRATIONAL_160x600_FINAL_psd_Asset_Layer_4_Align_Crop_Experience_it_for_yourself_0_Layer0_0_MEMBER_11_FILL">
<path fill="#231F20" stroke="none" d="
M -56.05 118.9
Q -56.05 113.9 -58.65 110.65 -61.45 107.1 -66.3 107.1 -68.3 107.1 -70.1 108.05 -71.75 108.9 -72.7 110.2
L -72.7 107.55 -76.55 107.55 -76.55 139 -72.7 139 -72.7 127.65
Q -71.75 128.95 -70.1 129.8 -68.3 130.75 -66.3 130.75 -61.45 130.75 -58.65 127.2 -56.05 123.95 -56.05 118.9
M -72.7 123.55
L -72.7 114.3
Q -71.8 112.55 -70.2 111.55 -68.65 110.55 -66.85 110.55 -63.65 110.55 -61.75 112.95 -59.95 115.2 -59.95 118.9 -59.95 122.6 -61.75 124.9 -63.65 127.3 -66.85 127.3 -68.65 127.3 -70.2 126.3 -71.8 125.3 -72.7 123.55 Z"/>
</g>

<g id="INSPIRATIONAL_160x600_FINAL_psd_Asset_Layer_4_Align_Crop_Experience_it_for_yourself_0_Layer0_0_MEMBER_12_FILL">
<path fill="#231F20" stroke="none" d="
M -32.7 123.5
L -36.35 123.5
Q -36.8 125.4 -38.3 126.45 -39.75 127.5 -41.9 127.5 -44.8 127.5 -46.6 125.4 -48.45 123.25 -48.5 119.65
L -32.4 119.65 -32.4 118.25
Q -32.4 113.2 -34.85 110.2 -37.4 107.1 -42 107.1 -46.6 107.1 -49.5 110.5 -52.35 113.8 -52.35 119 -52.35 124.25 -49.45 127.5 -46.55 130.75 -41.9 130.75 -38.15 130.75 -35.7 128.75 -33.35 126.8 -32.7 123.5
M -37.7 112.25
Q -36.35 114 -36.3 116.7
L -48.4 116.7
Q -48 113.7 -46.25 112.05 -44.55 110.35 -41.95 110.35 -39.25 110.35 -37.7 112.25 Z"/>
</g>

<g id="INSPIRATIONAL_160x600_FINAL_psd_Asset_Layer_4_Align_Crop_Experience_it_for_yourself_0_Layer0_0_MEMBER_13_FILL">
<path fill="#231F20" stroke="none" d="
M -15.6 111.4
L -15.6 107.45
Q -16.3 107.1 -17.8 107.1 -19.65 107.1 -21.2 108.05 -22.7 109 -23.45 110.5
L -23.45 107.55 -27.3 107.55 -27.3 130.3 -23.45 130.3 -23.45 115.05
Q -22.9 113.05 -21.4 111.9 -20 110.75 -18.15 110.75 -16.55 110.75 -15.6 111.4 Z"/>
</g>

<g id="INSPIRATIONAL_160x600_FINAL_psd_Asset_Layer_4_Align_Crop_Experience_it_for_yourself_0_Layer0_0_MEMBER_14_FILL">
<path fill="#231F20" stroke="none" d="
M -7 130.3
L -7 107.55 -10.85 107.55 -10.85 130.3 -7 130.3
M -8.95 98.2
Q -9.95 98.2 -10.65 98.95 -11.4 99.65 -11.4 100.7 -11.4 101.7 -10.65 102.4 -9.9 103.15 -8.95 103.15 -7.9 103.15 -7.15 102.4 -6.45 101.7 -6.45 100.7 -6.45 99.65 -7.15 98.95 -7.9 98.2 -8.95 98.2 Z"/>
</g>

<g id="INSPIRATIONAL_160x600_FINAL_psd_Asset_Layer_4_Align_Crop_Experience_it_for_yourself_0_Layer0_0_MEMBER_15_FILL">
<path fill="#231F20" stroke="none" d="
M 8.6 107.1
Q 4 107.1 1.1 110.5 -1.75 113.8 -1.75 119 -1.75 124.25 1.15 127.5 4.05 130.75 8.7 130.75 12.45 130.75 14.9 128.75 17.25 126.8 17.85 123.5
L 14.2 123.5
Q 13.75 125.4 12.3 126.45 10.8 127.5 8.7 127.5 5.8 127.5 4 125.4 2.15 123.25 2.1 119.65
L 18.15 119.65 18.15 118.25
Q 18.15 113.15 15.7 110.2 13.2 107.1 8.6 107.1
M 2.2 116.7
Q 2.6 113.7 4.35 112.05 6.05 110.35 8.65 110.35 11.35 110.35 12.85 112.25 14.2 114 14.3 116.7
L 2.2 116.7 Z"/>
</g>

<g id="INSPIRATIONAL_160x600_FINAL_psd_Asset_Layer_4_Align_Crop_Experience_it_for_yourself_0_Layer0_0_MEMBER_16_FILL">
<path fill="#231F20" stroke="none" d="
M 41.85 130.3
L 41.85 115.4
Q 41.85 111.6 39.8 109.4 37.7 107.1 33.85 107.1 31.75 107.1 29.9 108.1 28.2 108.95 27.15 110.4
L 27.15 107.55 23.3 107.55 23.3 130.3 27.15 130.3 27.15 114.9
Q 27.75 113 29.35 111.8 30.95 110.6 32.95 110.6 35.4 110.6 36.75 112.1 37.95 113.55 37.95 116
L 37.95 130.3 41.85 130.3 Z"/>
</g>

<g id="INSPIRATIONAL_160x600_FINAL_psd_Asset_Layer_4_Align_Crop_Experience_it_for_yourself_0_Layer0_0_MEMBER_17_FILL">
<path fill="#231F20" stroke="none" d="
M 66.2 114.4
Q 65.6 111.05 63.25 109.1 60.85 107.1 57.05 107.1 52.45 107.1 49.6 110.35 46.7 113.65 46.7 118.9 46.7 124.2 49.6 127.5 52.45 130.75 57.05 130.75 60.85 130.75 63.25 128.75 65.6 126.8 66.2 123.45
L 62.25 123.45
Q 61.9 125.3 60.5 126.35 59.1 127.4 57.05 127.4 54.15 127.4 52.35 125.05 50.6 122.7 50.6 118.9 50.6 115.15 52.35 112.8 54.15 110.45 57.05 110.45 59.1 110.45 60.5 111.5 61.9 112.55 62.25 114.4
L 66.2 114.4 Z"/>
</g>

<g id="INSPIRATIONAL_160x600_FINAL_psd_Asset_Layer_4_Align_Crop_Experience_it_for_yourself_0_Layer0_0_MEMBER_18_FILL">
<path fill="#231F20" stroke="none" d="
M 72.35 127.5
Q 75.25 130.75 79.9 130.75 83.7 130.75 86.15 128.75 88.5 126.8 89.1 123.5
L 85.45 123.5
Q 85 125.4 83.5 126.45 82.05 127.5 79.9 127.5 77 127.5 75.2 125.4 73.35 123.25 73.3 119.65
L 89.4 119.65 89.4 118.25
Q 89.4 113.2 86.95 110.2 84.4 107.1 79.8 107.1 75.2 107.1 72.3 110.5 69.45 113.8 69.45 119 69.45 124.25 72.35 127.5
M 75.6 112.05
Q 77.3 110.35 79.85 110.35 82.55 110.35 84.1 112.25 85.45 114 85.5 116.7
L 73.4 116.7
Q 73.85 113.7 75.6 112.05 Z"/>
</g>

<g id="INSPIRATIONAL_160x600_FINAL_psd_Asset_Layer_4_Align_Crop_Experience_it_for_yourself_0_Layer0_0_MEMBER_19_FILL">
<path fill="#231F20" stroke="none" d="
M 109.7 130.3
L 109.7 107.55 105.85 107.55 105.85 130.3 109.7 130.3
M 107.75 98.2
Q 106.75 98.2 106 98.95 105.3 99.65 105.3 100.7 105.3 101.7 106 102.4 106.75 103.15 107.75 103.15 108.8 103.15 109.55 102.4 110.25 101.7 110.25 100.7 110.25 99.65 109.55 98.95 108.8 98.2 107.75 98.2 Z"/>
</g>

<g id="INSPIRATIONAL_160x600_FINAL_psd_Asset_Layer_4_Align_Crop_Experience_it_for_yourself_0_Layer0_0_MEMBER_20_FILL">
<path fill="#231F20" stroke="none" d="
M 121.5 110.85
L 126.95 110.85 126.95 107.55 121.5 107.55 121.5 101.55 117.65 101.55 117.65 107.55 113.95 107.55 113.95 110.85 117.65 110.85 117.65 124.55
Q 117.65 127.6 119.4 129.25 121.05 130.75 123.9 130.75 126 130.75 127.5 130
L 127.5 126.4
Q 126 127.35 124.5 127.35 121.5 127.35 121.5 124.15
L 121.5 110.85 Z"/>
</g>

<g id="INSPIRATIONAL_160x600_FINAL_psd_Asset_Layer_4_Align_Crop_Experience_it_for_yourself_0_Layer0_0_MEMBER_21_FILL">
<path fill="#231F20" stroke="none" d="
M -97.95 152.6
L -97.95 149.1
Q -99.25 148.6 -100.95 148.6 -104 148.6 -105.9 150.5 -107.9 152.45 -107.9 155.8
L -107.9 159.6 -111.75 159.6 -111.75 162.9 -107.9 162.9 -107.9 182.35 -104.1 182.35 -104.1 162.9 -99 162.9 -99 159.6 -104.1 159.6 -104.1 156.1
Q -104.1 154.1 -103.05 153 -102.05 151.95 -100.35 151.95 -98.85 151.95 -97.95 152.6 Z"/>
</g>

<g id="INSPIRATIONAL_160x600_FINAL_psd_Asset_Layer_4_Align_Crop_Experience_it_for_yourself_0_Layer0_0_MEMBER_22_FILL">
<path fill="#231F20" stroke="none" d="
M -86.05 159.15
Q -90.7 159.15 -93.6 162.45 -96.5 165.75 -96.5 171 -96.5 176.25 -93.6 179.55 -90.7 182.85 -86.05 182.85 -81.4 182.85 -78.5 179.55 -75.6 176.25 -75.6 171 -75.6 165.75 -78.5 162.45 -81.4 159.15 -86.05 159.15
M -86.05 162.55
Q -83 162.55 -81.25 164.9 -79.5 167.2 -79.5 171 -79.5 174.8 -81.25 177.1 -83 179.45 -86.05 179.45 -89.1 179.45 -90.9 177.1 -92.65 174.75 -92.65 171 -92.65 167.2 -90.9 164.9 -89.1 162.55 -86.05 162.55 Z"/>
</g>

<g id="INSPIRATIONAL_160x600_FINAL_psd_Asset_Layer_4_Align_Crop_Experience_it_for_yourself_0_Layer0_0_MEMBER_23_FILL">
<path fill="#231F20" stroke="none" d="
M -58.7 163.45
L -58.7 159.5
Q -59.4 159.15 -60.9 159.15 -62.7 159.15 -64.3 160.15 -65.75 161.1 -66.55 162.6
L -66.55 159.6 -70.4 159.6 -70.4 182.35 -66.55 182.35 -66.55 167.1
Q -65.95 165.15 -64.5 164 -63.05 162.85 -61.25 162.85 -59.6 162.85 -58.7 163.45 Z"/>
</g>

<g id="INSPIRATIONAL_160x600_FINAL_psd_Asset_Layer_4_Align_Crop_Experience_it_for_yourself_0_Layer0_0_MEMBER_24_FILL">
<path fill="#231F20" stroke="none" d="
M -40.95 159.6
L -45.1 159.6 -36.25 182.5 -39.7 191.1 -35.9 191.1 -23.65 159.6 -27.65 159.6 -34.25 177.55 -40.95 159.6 Z"/>
</g>

<g id="INSPIRATIONAL_160x600_FINAL_psd_Asset_Layer_4_Align_Crop_Experience_it_for_yourself_0_Layer0_0_MEMBER_25_FILL">
<path fill="#231F20" stroke="none" d="
M -0.45 171
Q -0.45 165.75 -3.35 162.45 -6.25 159.15 -10.9 159.15 -15.55 159.15 -18.45 162.45 -21.35 165.75 -21.35 171 -21.35 176.25 -18.45 179.55 -15.55 182.85 -10.9 182.85 -6.25 182.85 -3.35 179.55 -0.45 176.25 -0.45 171
M -6.1 164.9
Q -4.35 167.2 -4.35 171 -4.35 174.8 -6.1 177.1 -7.85 179.45 -10.9 179.45 -13.95 179.45 -15.7 177.1 -17.45 174.8 -17.45 171 -17.45 167.2 -15.7 164.9 -13.95 162.55 -10.9 162.55 -7.85 162.55 -6.1 164.9 Z"/>
</g>

<g id="INSPIRATIONAL_160x600_FINAL_psd_Asset_Layer_4_Align_Crop_Experience_it_for_yourself_0_Layer0_0_MEMBER_26_FILL">
<path fill="#231F20" stroke="none" d="
M 8.4 159.6
L 4.5 159.6 4.5 174.5
Q 4.5 178.35 6.55 180.55 8.65 182.85 12.45 182.85 14.5 182.85 16.35 181.85 18 180.95 19.05 179.5
L 19.05 182.35 22.95 182.35 22.95 159.6 19.05 159.6 19.05 175.05
Q 18.4 176.95 16.9 178.1 15.3 179.3 13.35 179.3 10.85 179.3 9.6 177.8 8.4 176.4 8.4 173.9
L 8.4 159.6 Z"/>
</g>

<g id="INSPIRATIONAL_160x600_FINAL_psd_Asset_Layer_4_Align_Crop_Experience_it_for_yourself_0_Layer0_0_MEMBER_27_FILL">
<path fill="#231F20" stroke="none" d="
M 39.25 159.15
Q 37.4 159.15 35.85 160.15 34.35 161.1 33.6 162.6
L 33.6 159.6 29.75 159.6 29.75 182.35 33.6 182.35 33.6 167.1
Q 34.15 165.15 35.6 164 37.05 162.85 38.85 162.85 40.5 162.85 41.45 163.45
L 41.45 159.5
Q 40.75 159.15 39.25 159.15 Z"/>
</g>

<g id="INSPIRATIONAL_160x600_FINAL_psd_Asset_Layer_4_Align_Crop_Experience_it_for_yourself_0_Layer0_0_MEMBER_28_FILL">
<path fill="#231F20" stroke="none" d="
M 44.8 165.85
Q 44.8 170.5 50.3 171.85
L 54.8 173.05
Q 58.2 173.9 58.2 176.2 58.2 177.85 56.9 178.75 55.65 179.6 53.55 179.6 49.2 179.6 48.15 176.1
L 44.15 176.1
Q 44.65 179.25 47.2 181.05 49.75 182.85 53.5 182.85 57.2 182.85 59.55 181 61.95 179.1 61.95 175.95 61.95 171.15 56.15 169.6
L 51.75 168.55
Q 50.05 168.05 49.35 167.45 48.55 166.75 48.55 165.65 48.55 164.1 49.9 163.2 51.1 162.4 52.9 162.4 56.85 162.4 57.95 165.6
L 61.8 165.6
Q 61.15 162.55 58.95 160.9 56.65 159.15 52.95 159.15 49.45 159.15 47.15 161 44.8 162.85 44.8 165.85 Z"/>
</g>

<g id="INSPIRATIONAL_160x600_FINAL_psd_Asset_Layer_4_Align_Crop_Experience_it_for_yourself_0_Layer0_0_MEMBER_29_FILL">
<path fill="#231F20" stroke="none" d="
M 76 159.15
Q 71.4 159.15 68.5 162.55 65.6 165.85 65.6 171.05 65.6 176.3 68.55 179.6 71.45 182.85 76.1 182.85 79.85 182.85 82.3 180.8 84.65 178.85 85.25 175.55
L 81.6 175.55
Q 81.15 177.45 79.7 178.5 78.2 179.55 76.1 179.55 73.2 179.55 71.35 177.45 69.5 175.3 69.45 171.7
L 85.55 171.7 85.55 170.3
Q 85.55 165.2 83.1 162.25 80.6 159.15 76 159.15
M 71.75 164.15
Q 73.45 162.45 76.05 162.45 78.75 162.45 80.25 164.35 81.6 166.1 81.65 168.8
L 69.55 168.8
Q 70 165.8 71.75 164.15 Z"/>
</g>

<g id="INSPIRATIONAL_160x600_FINAL_psd_Asset_Layer_4_Align_Crop_Experience_it_for_yourself_0_Layer0_0_MEMBER_30_FILL">
<path fill="#231F20" stroke="none" d="
M 94.55 182.35
L 94.55 149.05 90.7 149.05 90.7 182.35 94.55 182.35 Z"/>
</g>

<g id="INSPIRATIONAL_160x600_FINAL_psd_Asset_Layer_4_Align_Crop_Experience_it_for_yourself_0_Layer0_0_MEMBER_31_FILL">
<path fill="#231F20" stroke="none" d="
M 112.75 152.6
L 112.75 149.1
Q 111.55 148.6 109.8 148.6 106.75 148.6 104.85 150.5 102.85 152.45 102.85 155.8
L 102.85 159.6 99 159.6 99 162.9 102.85 162.9 102.85 182.35 106.6 182.35 106.6 162.9 111.75 162.9 111.75 159.6 106.6 159.6 106.6 156.1
Q 106.6 154.1 107.65 153 108.65 151.95 110.35 151.95 111.85 151.95 112.75 152.6 Z"/>
</g>

<g id="Layer0_0_FILL">
<path fill="#000000" stroke="none" d="
M 93.75 93.75
Q 109.8 77.7 109.8 54.95 109.8 32.2 93.75 16.1 77.65 0 54.9 0 32.15 0 16.05 16.1 0 32.2 0 54.95 0 77.7 16.05 93.75 32.15 109.85 54.9 109.85 77.65 109.85 93.75 93.75
M 85.3 42.1
Q 84.55 45.4 82.65 49.4 81.55 51.75 78.95 56.5 73.7 66 73.2 70.4 72.6 76.45 78.7 80.5 81.05 82.1 83.7 82.1 87.65 82.1 93.25 79.3
L 92.75 80.2
Q 86 90.3 76.4 90.3 72.25 90.3 67.8 88.35 62.85 86.15 60 81.15 57.05 76.1 57.9 71.25 58.6 68.4 61.7 60.4 66.5 48 67.85 41.8 70.25 31 66.85 26.05 63.7 21.35 54.9 21.25 46.15 21.35 42.9 26.05 39.5 31 41.95 41.8 43.35 48 48.1 60.4 51.25 68.4 51.9 71.3 52.7 76.1 49.8 81.15 46.85 86.2 42 88.35 37.6 90.3 33.35 90.3 28.65 90.3 24.5 87.75 20.35 85.15 17.05 80.2
L 16.55 79.3
Q 22.15 82.1 26.1 82.1 28.7 82.1 31.05 80.5 37.2 76.45 36.55 70.4 36.1 66.05 30.85 56.5 28.25 51.75 27.15 49.4 25.25 45.4 24.45 42.1 21.5 29.7 26.65 23.15 30 18.95 36.5 16.8 43.5 14.55 53.75 14.4
L 56 14.4
Q 66.3 14.55 73.3 16.8 79.85 19 83.1 23.15 88.35 29.75 85.3 42.1 Z"/>
</g>
</defs>

<g transform="matrix( 1, 0, 0, 1, 22,68) ">
<g transform="matrix( 1, 0, 0, 1, 1,0) ">
<g transform="matrix( 0.4443359375, 0, 0, 0.3683624267578125, 57.15,16.15) ">
<use xlink:href="#INSPIRATIONAL_160x600_FINAL_psd_Asset_Layer_4_Align_Crop_Experience_it_for_yourself_0_Layer0_0_MEMBER_0_FILL"/>
</g>

<g transform="matrix( 0.4443359375, 0, 0, 0.3683624267578125, 57.15,16.15) ">
<use xlink:href="#INSPIRATIONAL_160x600_FINAL_psd_Asset_Layer_4_Align_Crop_Experience_it_for_yourself_0_Layer0_0_MEMBER_1_FILL"/>
</g>

<g transform="matrix( 0.4443359375, 0, 0, 0.3683624267578125, 57.15,16.15) ">
<use xlink:href="#INSPIRATIONAL_160x600_FINAL_psd_Asset_Layer_4_Align_Crop_Experience_it_for_yourself_0_Layer0_0_MEMBER_2_FILL"/>
</g>

<g transform="matrix( 0.4443359375, 0, 0, 0.3683624267578125, 57.15,16.15) ">
<use xlink:href="#INSPIRATIONAL_160x600_FINAL_psd_Asset_Layer_4_Align_Crop_Experience_it_for_yourself_0_Layer0_0_MEMBER_3_FILL"/>
</g>

<g transform="matrix( 0.4443359375, 0, 0, 0.3683624267578125, 57.15,16.15) ">
<use xlink:href="#INSPIRATIONAL_160x600_FINAL_psd_Asset_Layer_4_Align_Crop_Experience_it_for_yourself_0_Layer0_0_MEMBER_4_FILL"/>
</g>

<g transform="matrix( 0.4443359375, 0, 0, 0.3683624267578125, 57.15,16.15) ">
<use xlink:href="#INSPIRATIONAL_160x600_FINAL_psd_Asset_Layer_4_Align_Crop_Experience_it_for_yourself_0_Layer0_0_MEMBER_5_FILL"/>
</g>

<g transform="matrix( 0.4443359375, 0, 0, 0.3683624267578125, 57.15,16.15) ">
<use xlink:href="#INSPIRATIONAL_160x600_FINAL_psd_Asset_Layer_4_Align_Crop_Experience_it_for_yourself_0_Layer0_0_MEMBER_6_FILL"/>
</g>

<g transform="matrix( 0.4443359375, 0, 0, 0.3683624267578125, 57.15,16.15) ">
<use xlink:href="#INSPIRATIONAL_160x600_FINAL_psd_Asset_Layer_4_Align_Crop_Experience_it_for_yourself_0_Layer0_0_MEMBER_7_FILL"/>
</g>

<g transform="matrix( 0.4443359375, 0, 0, 0.3683624267578125, 57.15,16.15) ">
<use xlink:href="#INSPIRATIONAL_160x600_FINAL_psd_Asset_Layer_4_Align_Crop_Experience_it_for_yourself_0_Layer0_0_MEMBER_8_FILL"/>
</g>

<g transform="matrix( 0.4443359375, 0, 0, 0.3683624267578125, 57.15,16.15) ">
<use xlink:href="#INSPIRATIONAL_160x600_FINAL_psd_Asset_Layer_4_Align_Crop_Experience_it_for_yourself_0_Layer0_0_MEMBER_9_FILL"/>
</g>

<g transform="matrix( 0.4443359375, 0, 0, 0.3683624267578125, 57.15,16.15) ">
<use xlink:href="#INSPIRATIONAL_160x600_FINAL_psd_Asset_Layer_4_Align_Crop_Experience_it_for_yourself_0_Layer0_0_MEMBER_10_FILL"/>
</g>

<g transform="matrix( 0.4443359375, 0, 0, 0.3683624267578125, 57.15,16.15) ">
<use xlink:href="#INSPIRATIONAL_160x600_FINAL_psd_Asset_Layer_4_Align_Crop_Experience_it_for_yourself_0_Layer0_0_MEMBER_11_FILL"/>
</g>

<g transform="matrix( 0.4443359375, 0, 0, 0.3683624267578125, 57.15,16.15) ">
<use xlink:href="#INSPIRATIONAL_160x600_FINAL_psd_Asset_Layer_4_Align_Crop_Experience_it_for_yourself_0_Layer0_0_MEMBER_12_FILL"/>
</g>

<g transform="matrix( 0.4443359375, 0, 0, 0.3683624267578125, 57.15,16.15) ">
<use xlink:href="#INSPIRATIONAL_160x600_FINAL_psd_Asset_Layer_4_Align_Crop_Experience_it_for_yourself_0_Layer0_0_MEMBER_13_FILL"/>
</g>

<g transform="matrix( 0.4443359375, 0, 0, 0.3683624267578125, 57.15,16.15) ">
<use xlink:href="#INSPIRATIONAL_160x600_FINAL_psd_Asset_Layer_4_Align_Crop_Experience_it_for_yourself_0_Layer0_0_MEMBER_14_FILL"/>
</g>

<g transform="matrix( 0.4443359375, 0, 0, 0.3683624267578125, 57.15,16.15) ">
<use xlink:href="#INSPIRATIONAL_160x600_FINAL_psd_Asset_Layer_4_Align_Crop_Experience_it_for_yourself_0_Layer0_0_MEMBER_15_FILL"/>
</g>

<g transform="matrix( 0.4443359375, 0, 0, 0.3683624267578125, 57.15,16.15) ">
<use xlink:href="#INSPIRATIONAL_160x600_FINAL_psd_Asset_Layer_4_Align_Crop_Experience_it_for_yourself_0_Layer0_0_MEMBER_16_FILL"/>
</g>

<g transform="matrix( 0.4443359375, 0, 0, 0.3683624267578125, 57.15,16.15) ">
<use xlink:href="#INSPIRATIONAL_160x600_FINAL_psd_Asset_Layer_4_Align_Crop_Experience_it_for_yourself_0_Layer0_0_MEMBER_17_FILL"/>
</g>

<g transform="matrix( 0.4443359375, 0, 0, 0.3683624267578125, 57.15,16.15) ">
<use xlink:href="#INSPIRATIONAL_160x600_FINAL_psd_Asset_Layer_4_Align_Crop_Experience_it_for_yourself_0_Layer0_0_MEMBER_18_FILL"/>
</g>

<g transform="matrix( 0.4443359375, 0, 0, 0.3683624267578125, 57.15,16.15) ">
<use xlink:href="#INSPIRATIONAL_160x600_FINAL_psd_Asset_Layer_4_Align_Crop_Experience_it_for_yourself_0_Layer0_0_MEMBER_19_FILL"/>
</g>

<g transform="matrix( 0.4443359375, 0, 0, 0.3683624267578125, 57.15,16.15) ">
<use xlink:href="#INSPIRATIONAL_160x600_FINAL_psd_Asset_Layer_4_Align_Crop_Experience_it_for_yourself_0_Layer0_0_MEMBER_20_FILL"/>
</g>

<g transform="matrix( 0.4443359375, 0, 0, 0.3683624267578125, 57.15,16.15) ">
<use xlink:href="#INSPIRATIONAL_160x600_FINAL_psd_Asset_Layer_4_Align_Crop_Experience_it_for_yourself_0_Layer0_0_MEMBER_21_FILL"/>
</g>

<g transform="matrix( 0.4443359375, 0, 0, 0.3683624267578125, 57.15,16.15) ">
<use xlink:href="#INSPIRATIONAL_160x600_FINAL_psd_Asset_Layer_4_Align_Crop_Experience_it_for_yourself_0_Layer0_0_MEMBER_22_FILL"/>
</g>

<g transform="matrix( 0.4443359375, 0, 0, 0.3683624267578125, 57.15,16.15) ">
<use xlink:href="#INSPIRATIONAL_160x600_FINAL_psd_Asset_Layer_4_Align_Crop_Experience_it_for_yourself_0_Layer0_0_MEMBER_23_FILL"/>
</g>

<g transform="matrix( 0.4443359375, 0, 0, 0.3683624267578125, 57.15,16.15) ">
<use xlink:href="#INSPIRATIONAL_160x600_FINAL_psd_Asset_Layer_4_Align_Crop_Experience_it_for_yourself_0_Layer0_0_MEMBER_24_FILL"/>
</g>

<g transform="matrix( 0.4443359375, 0, 0, 0.3683624267578125, 57.15,16.15) ">
<use xlink:href="#INSPIRATIONAL_160x600_FINAL_psd_Asset_Layer_4_Align_Crop_Experience_it_for_yourself_0_Layer0_0_MEMBER_25_FILL"/>
</g>

<g transform="matrix( 0.4443359375, 0, 0, 0.3683624267578125, 57.15,16.15) ">
<use xlink:href="#INSPIRATIONAL_160x600_FINAL_psd_Asset_Layer_4_Align_Crop_Experience_it_for_yourself_0_Layer0_0_MEMBER_26_FILL"/>
</g>

<g transform="matrix( 0.4443359375, 0, 0, 0.3683624267578125, 57.15,16.15) ">
<use xlink:href="#INSPIRATIONAL_160x600_FINAL_psd_Asset_Layer_4_Align_Crop_Experience_it_for_yourself_0_Layer0_0_MEMBER_27_FILL"/>
</g>

<g transform="matrix( 0.4443359375, 0, 0, 0.3683624267578125, 57.15,16.15) ">
<use xlink:href="#INSPIRATIONAL_160x600_FINAL_psd_Asset_Layer_4_Align_Crop_Experience_it_for_yourself_0_Layer0_0_MEMBER_28_FILL"/>
</g>

<g transform="matrix( 0.4443359375, 0, 0, 0.3683624267578125, 57.15,16.15) ">
<use xlink:href="#INSPIRATIONAL_160x600_FINAL_psd_Asset_Layer_4_Align_Crop_Experience_it_for_yourself_0_Layer0_0_MEMBER_29_FILL"/>
</g>

<g transform="matrix( 0.4443359375, 0, 0, 0.3683624267578125, 57.15,16.15) ">
<use xlink:href="#INSPIRATIONAL_160x600_FINAL_psd_Asset_Layer_4_Align_Crop_Experience_it_for_yourself_0_Layer0_0_MEMBER_30_FILL"/>
</g>

<g transform="matrix( 0.4443359375, 0, 0, 0.3683624267578125, 57.15,16.15) ">
<use xlink:href="#INSPIRATIONAL_160x600_FINAL_psd_Asset_Layer_4_Align_Crop_Experience_it_for_yourself_0_Layer0_0_MEMBER_31_FILL"/>
</g>
</g>

<g transform="matrix( 0.5965423583984375, 0, 0, 0.5965423583984375, 25.9,198.7) ">
<use xlink:href="#Layer0_0_FILL"/>
</g>
</g>
</svg>
