
<svg xmlns="http://www.w3.org/2000/svg" version="1.1" xmlns:xlink="http://www.w3.org/1999/xlink" preserveAspectRatio="none" x="0px" y="0px" width="300px" height="600px" viewBox="0 0 300 600">
<defs>
<g id="TECHNICAL_300x600_FINAL_psd_Asset_1_Layer_4_Lightweight__ultra_soft___distraction_free_practice_0_Layer0_0_MEMBER_0_FILL">
<path fill="#FFFFFF" stroke="none" d="
M -284.3 -40.05
L -289.45 -40.05 -289.45 0 -263.9 0 -263.9 -4.65 -284.3 -4.65 -284.3 -40.05 Z"/>
</g>

<g id="TECHNICAL_300x600_FINAL_psd_Asset_1_Layer_4_Lightweight__ultra_soft___distraction_free_practice_0_Layer0_0_MEMBER_1_FILL">
<path fill="#FFFFFF" stroke="none" d="
M -252.1 -28.95
L -257 -28.95 -257 0 -252.1 0 -252.1 -28.95
M -251.35 -37.7
Q -251.35 -39 -252.3 -39.9 -253.25 -40.8 -254.55 -40.8 -255.85 -40.8 -256.75 -39.9 -257.7 -39 -257.7 -37.7 -257.7 -36.4 -256.75 -35.5 -255.8 -34.55 -254.55 -34.55 -253.25 -34.55 -252.3 -35.5 -251.35 -36.4 -251.35 -37.7 Z"/>
</g>

<g id="TECHNICAL_300x600_FINAL_psd_Asset_1_Layer_4_Lightweight__ultra_soft___distraction_free_practice_0_Layer0_0_MEMBER_2_FILL">
<path fill="#FFFFFF" stroke="none" d="
M -224.4 -28.95
L -224.4 -25.7
Q -225.55 -27.3 -227.6 -28.35 -229.9 -29.55 -232.45 -29.55 -238.55 -29.55 -242.15 -25.1 -245.45 -21 -245.45 -14.85 -245.45 -8.8 -242.15 -4.65 -238.55 -0.2 -232.45 -0.2 -229.9 -0.2 -227.6 -1.4 -225.55 -2.5 -224.4 -4.1
L -224.4 -1.95
Q -224.4 7.55 -232.35 7.55 -238.65 7.55 -239.9 2.15
L -244.7 2.15
Q -244 6.65 -240.8 9.2 -237.55 11.75 -232.35 11.75 -226.5 11.75 -223.1 8.3 -219.4 4.6 -219.4 -2.3
L -219.4 -28.95 -224.4 -28.95
M -227.45 -23.95
Q -225.5 -22.75 -224.4 -20.65
L -224.4 -9.15
Q -225.5 -7.05 -227.45 -5.85 -229.4 -4.65 -231.75 -4.65 -235.75 -4.65 -238.1 -7.55 -240.4 -10.35 -240.4 -14.85 -240.4 -19.45 -238.1 -22.25 -235.75 -25.15 -231.75 -25.15 -229.4 -25.15 -227.45 -23.95 Z"/>
</g>

<g id="TECHNICAL_300x600_FINAL_psd_Asset_1_Layer_4_Lightweight__ultra_soft___distraction_free_practice_0_Layer0_0_MEMBER_3_FILL">
<path fill="#FFFFFF" stroke="none" d="
M -205.8 -42.4
L -210.7 -42.4 -210.7 0 -205.8 0 -205.8 -19.65
Q -205 -22 -203 -23.5 -200.9 -25.05 -198.4 -25.05 -195.25 -25.05 -193.6 -23.15 -192.05 -21.35 -192.05 -18.2
L -192.05 0 -187.1 0 -187.1 -18.95
Q -187.1 -23.8 -189.7 -26.65 -192.4 -29.55 -197.25 -29.55 -199.9 -29.55 -202.25 -28.3 -204.45 -27.15 -205.8 -25.3
L -205.8 -42.4 Z"/>
</g>

<g id="TECHNICAL_300x600_FINAL_psd_Asset_1_Layer_4_Lightweight__ultra_soft___distraction_free_practice_0_Layer0_0_MEMBER_4_FILL">
<path fill="#FFFFFF" stroke="none" d="
M -172.55 -28.95
L -172.55 -36.6 -177.4 -36.6 -177.4 -28.95 -182.1 -28.95 -182.1 -24.8 -177.4 -24.8 -177.4 -7.3
Q -177.4 -3.4 -175.2 -1.35 -173.1 0.6 -169.45 0.6 -166.75 0.6 -164.9 -0.4
L -164.9 -4.95
Q -166.65 -3.8 -168.7 -3.8 -172.55 -3.8 -172.55 -7.8
L -172.55 -24.8 -165.55 -24.8 -165.55 -28.95 -172.55 -28.95 Z"/>
</g>

<g id="TECHNICAL_300x600_FINAL_psd_Asset_1_Layer_4_Lightweight__ultra_soft___distraction_free_practice_0_Layer0_0_MEMBER_5_FILL">
<path fill="#FFFFFF" stroke="none" d="
M -134.25 -6.85
L -140.2 -28.95 -144.55 -28.95 -150.5 -6.85 -156.9 -28.95 -161.75 -28.95 -153.25 0 -148.45 0 -142.4 -21.95 -136.4 0 -131.65 0 -123.1 -28.95 -127.85 -28.95 -134.25 -6.85 Z"/>
</g>

<g id="TECHNICAL_300x600_FINAL_psd_Asset_1_Layer_4_Lightweight__ultra_soft___distraction_free_practice_0_Layer0_0_MEMBER_6_FILL">
<path fill="#FFFFFF" stroke="none" d="
M -106.5 -29.55
Q -112.35 -29.55 -116 -25.25 -119.65 -21 -119.65 -14.4 -119.65 -7.7 -115.95 -3.55 -112.25 0.6 -106.35 0.6 -101.6 0.6 -98.45 -2 -95.45 -4.45 -94.7 -8.65
L -99.3 -8.65
Q -99.9 -6.25 -101.75 -4.9 -103.6 -3.6 -106.35 -3.6 -110.05 -3.6 -112.35 -6.25 -114.7 -8.95 -114.75 -13.55
L -94.3 -13.55 -94.3 -15.3
Q -94.3 -21.8 -97.4 -25.6 -100.65 -29.55 -106.5 -29.55
M -114.65 -17.3
Q -114.1 -21.1 -111.9 -23.2 -109.7 -25.35 -106.4 -25.35 -102.95 -25.35 -101.05 -22.95 -99.3 -20.75 -99.25 -17.3
L -114.65 -17.3 Z"/>
</g>

<g id="TECHNICAL_300x600_FINAL_psd_Asset_1_Layer_4_Lightweight__ultra_soft___distraction_free_practice_0_Layer0_0_MEMBER_7_FILL">
<path fill="#FFFFFF" stroke="none" d="
M -82.9 -28.95
L -87.75 -28.95 -87.75 0 -82.9 0 -82.9 -28.95
M -87.55 -39.9
Q -88.5 -39 -88.5 -37.7 -88.5 -36.4 -87.55 -35.5 -86.6 -34.55 -85.35 -34.55 -84.05 -34.55 -83.1 -35.5 -82.15 -36.4 -82.15 -37.7 -82.15 -39 -83.1 -39.9 -84.05 -40.8 -85.35 -40.8 -86.65 -40.8 -87.55 -39.9 Z"/>
</g>

<g id="TECHNICAL_300x600_FINAL_psd_Asset_1_Layer_4_Lightweight__ultra_soft___distraction_free_practice_0_Layer0_0_MEMBER_8_FILL">
<path fill="#FFFFFF" stroke="none" d="
M -50.2 -28.95
L -55.15 -28.95 -55.15 -25.7
Q -56.3 -27.3 -58.4 -28.35 -60.7 -29.55 -63.25 -29.55 -69.3 -29.55 -72.9 -25.1 -76.2 -20.95 -76.2 -14.85 -76.2 -8.8 -72.9 -4.65 -69.3 -0.2 -63.25 -0.2 -60.7 -0.2 -58.4 -1.4 -56.35 -2.45 -55.15 -4.1
L -55.15 -1.95
Q -55.15 2.75 -57.15 5.15 -59.2 7.55 -63.1 7.55 -69.45 7.55 -70.7 2.15
L -75.5 2.15
Q -74.8 6.65 -71.6 9.2 -68.35 11.75 -63.1 11.75 -57.3 11.75 -53.85 8.3 -50.2 4.6 -50.2 -2.3
L -50.2 -28.95
M -71.2 -14.85
Q -71.2 -19.45 -68.9 -22.25 -66.55 -25.15 -62.55 -25.15 -60.2 -25.15 -58.25 -23.95 -56.3 -22.75 -55.15 -20.65
L -55.15 -9.15
Q -56.3 -7.05 -58.25 -5.85 -60.2 -4.65 -62.55 -4.65 -66.55 -4.65 -68.9 -7.55 -71.2 -10.35 -71.2 -14.85 Z"/>
</g>

<g id="TECHNICAL_300x600_FINAL_psd_Asset_1_Layer_4_Lightweight__ultra_soft___distraction_free_practice_0_Layer0_0_MEMBER_9_FILL">
<path fill="#FFFFFF" stroke="none" d="
M -20.45 -26.65
Q -23.2 -29.55 -28.05 -29.55 -30.7 -29.55 -33.05 -28.3 -35.25 -27.15 -36.6 -25.3
L -36.6 -42.4 -41.45 -42.4 -41.45 0 -36.6 0 -36.6 -19.65
Q -35.8 -22 -33.8 -23.5 -31.7 -25.05 -29.2 -25.05 -26.05 -25.05 -24.35 -23.15 -22.8 -21.35 -22.8 -18.2
L -22.8 0 -17.85 0 -17.85 -18.95
Q -17.85 -23.8 -20.45 -26.65 Z"/>
</g>

<g id="TECHNICAL_300x600_FINAL_psd_Asset_1_Layer_4_Lightweight__ultra_soft___distraction_free_practice_0_Layer0_0_MEMBER_10_FILL">
<path fill="#FFFFFF" stroke="none" d="
M 3.65 -24.8
L 3.65 -28.95 -3.3 -28.95 -3.3 -36.6 -8.2 -36.6 -8.2 -28.95 -12.9 -28.95 -12.9 -24.8 -8.2 -24.8 -8.2 -7.3
Q -8.2 -3.4 -6 -1.35 -3.9 0.6 -0.25 0.6 2.45 0.6 4.3 -0.4
L 4.3 -4.95
Q 2.6 -3.8 0.5 -3.8 -3.3 -3.8 -3.3 -7.8
L -3.3 -24.8 3.65 -24.8 Z"/>
</g>

<g id="TECHNICAL_300x600_FINAL_psd_Asset_1_Layer_4_Lightweight__ultra_soft___distraction_free_practice_0_Layer0_0_MEMBER_11_FILL">
<path fill="#FFFFFF" stroke="none" d="
M 9.6 -3.2
Q 9.6 -1.85 10.45 -0.95 11.2 -0.15 12.45 0.05
L 8.35 7 11.65 7 15.15 1.25
Q 16.55 -1.1 16.55 -2.85 16.55 -4.65 15.55 -5.65 14.6 -6.65 13.1 -6.65 11.65 -6.65 10.6 -5.65 9.6 -4.7 9.6 -3.2 Z"/>
</g>

<g id="TECHNICAL_300x600_FINAL_psd_Asset_1_Layer_4_Lightweight__ultra_soft___distraction_free_practice_0_Layer0_0_MEMBER_12_FILL">
<path fill="#FFFFFF" stroke="none" d="
M 37.05 -10
Q 37.05 -5.15 39.65 -2.3 42.3 0.6 47.15 0.6 49.8 0.6 52.15 -0.65 54.25 -1.8 55.55 -3.65
L 55.55 0 60.5 0 60.5 -28.95 55.55 -28.95 55.55 -9.3
Q 54.75 -6.9 52.8 -5.45 50.8 -3.9 48.3 -3.9 45.15 -3.9 43.5 -5.8 42 -7.6 42 -10.75
L 42 -28.95 37.05 -28.95 37.05 -10 Z"/>
</g>

<g id="TECHNICAL_300x600_FINAL_psd_Asset_1_Layer_4_Lightweight__ultra_soft___distraction_free_practice_0_Layer0_0_MEMBER_13_FILL">
<path fill="#FFFFFF" stroke="none" d="
M 74.1 -42.4
L 69.2 -42.4 69.2 0 74.1 0 74.1 -42.4 Z"/>
</g>

<g id="TECHNICAL_300x600_FINAL_psd_Asset_1_Layer_4_Lightweight__ultra_soft___distraction_free_practice_0_Layer0_0_MEMBER_14_FILL">
<path fill="#FFFFFF" stroke="none" d="
M 79.5 -28.95
L 79.5 -24.8 84.2 -24.8 84.2 -7.3
Q 84.2 -3.4 86.4 -1.35 88.5 0.6 92.15 0.6 94.85 0.6 96.7 -0.4
L 96.7 -4.95
Q 94.95 -3.8 92.9 -3.8 89.05 -3.8 89.05 -7.8
L 89.05 -24.8 96.05 -24.8 96.05 -28.95 89.05 -28.95 89.05 -36.6 84.2 -36.6 84.2 -28.95 79.5 -28.95 Z"/>
</g>

<g id="TECHNICAL_300x600_FINAL_psd_Asset_1_Layer_4_Lightweight__ultra_soft___distraction_free_practice_0_Layer0_0_MEMBER_15_FILL">
<path fill="#FFFFFF" stroke="none" d="
M 118.35 -29.1
Q 117.45 -29.55 115.55 -29.55 113.2 -29.55 111.2 -28.3 109.3 -27.1 108.35 -25.15
L 108.35 -28.95 103.5 -28.95 103.5 0 108.35 0 108.35 -19.45
Q 109.1 -21.95 110.95 -23.4 112.75 -24.85 115.1 -24.85 117.2 -24.85 118.35 -24.05
L 118.35 -29.1 Z"/>
</g>

<g id="TECHNICAL_300x600_FINAL_psd_Asset_1_Layer_4_Lightweight__ultra_soft___distraction_free_practice_0_Layer0_0_MEMBER_16_FILL">
<path fill="#FFFFFF" stroke="none" d="
M 141.7 -26.8
Q 138.75 -29.55 133.6 -29.55 129.45 -29.55 126.5 -27.25 123.5 -25 122.8 -21.3
L 127.6 -21.3
Q 128.95 -25.3 133.55 -25.3 136.6 -25.3 138.3 -23.55 139.95 -21.9 139.95 -19.1
L 139.95 -15.45
Q 138.95 -16.35 136.95 -17.05 134.75 -17.8 132.65 -17.8 127.95 -17.8 124.8 -15.3 121.55 -12.75 121.55 -8.75 121.55 -4.55 124.75 -1.95 127.75 0.5 132.3 0.5 134.7 0.5 137 -0.4 138.95 -1.15 139.95 -2.15
L 139.95 0 144.65 0 144.65 -19.3
Q 144.65 -24.05 141.7 -26.8
M 133.15 -13.75
Q 135.45 -13.75 137.35 -12.75 139.3 -11.75 139.95 -10.15
L 139.95 -7.15
Q 139.35 -5.55 137.35 -4.55 135.45 -3.6 133.15 -3.6 130.3 -3.6 128.4 -4.85 126.25 -6.25 126.25 -8.75 126.25 -11.2 128.4 -12.55 130.3 -13.75 133.15 -13.75 Z"/>
</g>

<g id="TECHNICAL_300x600_FINAL_psd_Asset_1_Layer_4_Lightweight__ultra_soft___distraction_free_practice_0_Layer0_0_MEMBER_17_FILL">
<path fill="#FFFFFF" stroke="none" d="
M 151.2 -19.3
L 151.2 -14.75 166.95 -14.75 166.95 -19.3 151.2 -19.3 Z"/>
</g>

<g id="TECHNICAL_300x600_FINAL_psd_Asset_1_Layer_4_Lightweight__ultra_soft___distraction_free_practice_0_Layer0_0_MEMBER_18_FILL">
<path fill="#FFFFFF" stroke="none" d="
M 190.8 -27.35
Q 187.85 -29.55 183.15 -29.55 178.7 -29.55 175.8 -27.2 172.8 -24.8 172.8 -21 172.8 -17.8 174.75 -15.9 176.45 -14.2 179.8 -13.35
L 185.5 -11.85
Q 189.8 -10.75 189.8 -7.8 189.8 -5.7 188.15 -4.55 186.6 -3.5 183.9 -3.5 178.4 -3.5 177.05 -7.95
L 171.95 -7.95
Q 172.6 -3.95 175.85 -1.65 179.05 0.6 183.8 0.6 188.55 0.6 191.55 -1.7 194.6 -4.1 194.6 -8.15 194.6 -14.3 187.2 -16.25
L 181.6 -17.6
Q 179.45 -18.25 178.55 -19 177.55 -19.85 177.55 -21.25 177.55 -23.25 179.25 -24.4 180.8 -25.45 183.1 -25.45 188.15 -25.45 189.5 -21.3
L 194.4 -21.3
Q 193.6 -25.2 190.8 -27.35 Z"/>
</g>

<g id="TECHNICAL_300x600_FINAL_psd_Asset_1_Layer_4_Lightweight__ultra_soft___distraction_free_practice_0_Layer0_0_MEMBER_19_FILL">
<path fill="#FFFFFF" stroke="none" d="
M 222.15 -25.35
Q 218.45 -29.55 212.55 -29.55 206.6 -29.55 202.9 -25.35 199.25 -21.15 199.25 -14.45 199.25 -7.8 202.9 -3.6 206.6 0.6 212.55 0.6 218.45 0.6 222.15 -3.6 225.85 -7.8 225.85 -14.45 225.85 -21.15 222.15 -25.35
M 218.7 -22.25
Q 220.9 -19.3 220.9 -14.45 220.9 -9.65 218.7 -6.7 216.45 -3.7 212.55 -3.7 208.7 -3.7 206.45 -6.7 204.25 -9.65 204.25 -14.45 204.25 -19.3 206.45 -22.25 208.7 -25.25 212.55 -25.25 216.45 -25.25 218.7 -22.25 Z"/>
</g>

<g id="TECHNICAL_300x600_FINAL_psd_Asset_1_Layer_4_Lightweight__ultra_soft___distraction_free_practice_0_Layer0_0_MEMBER_20_FILL">
<path fill="#FFFFFF" stroke="none" d="
M 239.2 -33.4
Q 239.2 -35.95 240.5 -37.3 241.75 -38.65 243.95 -38.65 245.75 -38.65 247 -37.9
L 247 -42.3
Q 245.4 -42.95 243.2 -42.95 239.3 -42.95 236.9 -40.55 234.35 -38.05 234.35 -33.75
L 234.35 -28.95 229.45 -28.95 229.45 -24.8 234.35 -24.8 234.35 0 239.2 0 239.2 -24.8 245.7 -24.8 245.7 -28.95 239.2 -28.95 239.2 -33.4 Z"/>
</g>

<g id="TECHNICAL_300x600_FINAL_psd_Asset_1_Layer_4_Lightweight__ultra_soft___distraction_free_practice_0_Layer0_0_MEMBER_21_FILL">
<path fill="#FFFFFF" stroke="none" d="
M 264.8 -24.8
L 264.8 -28.95 257.85 -28.95 257.85 -36.6 252.95 -36.6 252.95 -28.95 248.25 -28.95 248.25 -24.8 252.95 -24.8 252.95 -7.3
Q 252.95 -3.4 255.15 -1.35 257.25 0.6 260.9 0.6 263.6 0.6 265.45 -0.4
L 265.45 -4.95
Q 263.75 -3.8 261.65 -3.8 257.85 -3.8 257.85 -7.8
L 257.85 -24.8 264.8 -24.8 Z"/>
</g>

<g id="TECHNICAL_300x600_FINAL_psd_Asset_1_Layer_4_Lightweight__ultra_soft___distraction_free_practice_0_Layer0_0_MEMBER_22_FILL">
<path fill="#FFFFFF" stroke="none" d="
M 270.75 -3.2
Q 270.75 -1.8 271.55 -0.95 272.3 -0.15 273.6 0.05
L 269.5 7 272.8 7 276.3 1.25
Q 277.7 -1.1 277.7 -2.85 277.7 -4.65 276.7 -5.65 275.75 -6.65 274.25 -6.65 272.8 -6.65 271.75 -5.65 270.75 -4.7 270.75 -3.2 Z"/>
</g>

<g id="TECHNICAL_300x600_FINAL_psd_Asset_1_Layer_4_Lightweight__ultra_soft___distraction_free_practice_0_Layer0_0_MEMBER_23_FILL">
<path fill="#FFFFFF" stroke="none" d="
M -275.9 35.85
L -280.9 35.85 -280.9 52.7
Q -282 51.05 -284.15 49.9 -286.45 48.7 -289.05 48.7 -295.15 48.7 -298.7 53.15 -302.05 57.35 -302.05 63.75 -302.05 70.25 -298.7 74.4 -295.15 78.85 -289.05 78.85 -286.45 78.85 -284.15 77.65 -282 76.5 -280.9 74.85
L -280.9 78.25 -275.9 78.25 -275.9 35.85
M -288.3 53.15
Q -286 53.15 -284 54.4 -282 55.65 -280.9 57.9
L -280.9 69.65
Q -282 71.9 -284 73.15 -286 74.4 -288.3 74.4 -292.4 74.4 -294.8 71.4 -297.1 68.45 -297.1 63.75 -297.1 59.05 -294.8 56.15 -292.4 53.15 -288.3 53.15 Z"/>
</g>

<g id="TECHNICAL_300x600_FINAL_psd_Asset_1_Layer_4_Lightweight__ultra_soft___distraction_free_practice_0_Layer0_0_MEMBER_24_FILL">
<path fill="#FFFFFF" stroke="none" d="
M -262.35 49.3
L -267.25 49.3 -267.25 78.25 -262.35 78.25 -262.35 49.3
M -264.85 37.45
Q -266.15 37.45 -267.05 38.35 -267.95 39.25 -267.95 40.55 -267.95 41.85 -267.05 42.75 -266.1 43.7 -264.85 43.7 -263.55 43.7 -262.6 42.75 -261.65 41.85 -261.65 40.55 -261.65 39.25 -262.6 38.35 -263.55 37.45 -264.85 37.45 Z"/>
</g>

<g id="TECHNICAL_300x600_FINAL_psd_Asset_1_Layer_4_Lightweight__ultra_soft___distraction_free_practice_0_Layer0_0_MEMBER_25_FILL">
<path fill="#FFFFFF" stroke="none" d="
M -238.15 70.4
Q -238.15 72.55 -239.85 73.7 -241.4 74.75 -244.1 74.75 -249.6 74.75 -250.95 70.3
L -256.05 70.3
Q -255.35 74.3 -252.1 76.6 -248.95 78.85 -244.15 78.85 -239.4 78.85 -236.45 76.55 -233.4 74.15 -233.4 70.1 -233.4 63.95 -240.8 62
L -246.4 60.65
Q -248.55 60 -249.45 59.25 -250.45 58.4 -250.45 57 -250.45 55 -248.75 53.85 -247.2 52.8 -244.9 52.8 -239.85 52.8 -238.5 56.95
L -233.6 56.95
Q -234.4 53.05 -237.2 50.9 -240.1 48.7 -244.8 48.7 -249.3 48.7 -252.2 51.05 -255.2 53.45 -255.2 57.25 -255.2 63.1 -248.2 64.9
L -242.45 66.4
Q -238.15 67.5 -238.15 70.4 Z"/>
</g>

<g id="TECHNICAL_300x600_FINAL_psd_Asset_1_Layer_4_Lightweight__ultra_soft___distraction_free_practice_0_Layer0_0_MEMBER_26_FILL">
<path fill="#FFFFFF" stroke="none" d="
M -225.25 49.3
L -229.95 49.3 -229.95 53.45 -225.25 53.45 -225.25 70.95
Q -225.25 74.85 -223.05 76.9 -220.95 78.85 -217.3 78.85 -214.6 78.85 -212.75 77.85
L -212.75 73.3
Q -214.45 74.45 -216.5 74.45 -220.35 74.45 -220.35 70.4
L -220.35 53.45 -213.4 53.45 -213.4 49.3 -220.35 49.3 -220.35 41.65 -225.25 41.65 -225.25 49.3 Z"/>
</g>

<g id="TECHNICAL_300x600_FINAL_psd_Asset_1_Layer_4_Lightweight__ultra_soft___distraction_free_practice_0_Layer0_0_MEMBER_27_FILL">
<path fill="#FFFFFF" stroke="none" d="
M -191.1 49.15
Q -192 48.7 -193.9 48.7 -196.25 48.7 -198.2 49.95 -200.1 51.15 -201.05 53.1
L -201.05 49.3 -205.95 49.3 -205.95 78.25 -201.05 78.25 -201.05 58.8
Q -200.35 56.3 -198.5 54.85 -196.65 53.4 -194.35 53.4 -192.2 53.4 -191.1 54.2
L -191.1 49.15 Z"/>
</g>

<g id="TECHNICAL_300x600_FINAL_psd_Asset_1_Layer_4_Lightweight__ultra_soft___distraction_free_practice_0_Layer0_0_MEMBER_28_FILL">
<path fill="#FFFFFF" stroke="none" d="
M -171.1 54.7
Q -169.5 56.35 -169.5 59.15
L -169.5 62.8
Q -170.5 61.9 -172.5 61.2 -174.7 60.45 -176.8 60.45 -181.5 60.45 -184.65 62.95 -187.9 65.5 -187.9 69.5 -187.9 73.7 -184.7 76.3 -181.7 78.75 -177.15 78.75 -174.75 78.75 -172.45 77.85 -170.45 77.1 -169.5 76.1
L -169.5 78.25 -164.8 78.25 -164.8 58.95
Q -164.8 54.15 -167.7 51.45 -170.65 48.7 -175.85 48.7 -179.95 48.7 -182.95 51 -185.95 53.25 -186.65 56.95
L -181.85 56.95
Q -180.45 52.95 -175.9 52.95 -172.85 52.95 -171.1 54.7
M -181.05 65.7
Q -179.15 64.5 -176.3 64.5 -174 64.5 -172.1 65.5 -170.15 66.5 -169.5 68.1
L -169.5 71.1
Q -170.1 72.7 -172.1 73.7 -174 74.65 -176.3 74.65 -179.15 74.65 -181.05 73.4 -183.2 72 -183.2 69.5 -183.2 67.05 -181.05 65.7 Z"/>
</g>

<g id="TECHNICAL_300x600_FINAL_psd_Asset_1_Layer_4_Lightweight__ultra_soft___distraction_free_practice_0_Layer0_0_MEMBER_29_FILL">
<path fill="#FFFFFF" stroke="none" d="
M -133.75 58.05
Q -134.5 53.8 -137.5 51.3 -140.6 48.7 -145.4 48.7 -151.2 48.7 -154.9 52.85 -158.55 57.05 -158.55 63.75 -158.55 70.5 -154.9 74.7 -151.25 78.85 -145.4 78.85 -140.6 78.85 -137.5 76.25 -134.5 73.75 -133.75 69.5
L -138.8 69.5
Q -139.3 71.85 -141.05 73.2 -142.8 74.55 -145.4 74.55 -149.1 74.55 -151.35 71.55 -153.6 68.55 -153.6 63.75 -153.6 59 -151.35 56 -149.1 53 -145.4 53 -142.8 53 -141.05 54.35 -139.3 55.7 -138.8 58.05
L -133.75 58.05 Z"/>
</g>

<g id="TECHNICAL_300x600_FINAL_psd_Asset_1_Layer_4_Lightweight__ultra_soft___distraction_free_practice_0_Layer0_0_MEMBER_30_FILL">
<path fill="#FFFFFF" stroke="none" d="
M -120.95 49.3
L -120.95 41.65 -125.8 41.65 -125.8 49.3 -130.5 49.3 -130.5 53.45 -125.8 53.45 -125.8 70.95
Q -125.8 74.85 -123.6 76.9 -121.5 78.85 -117.85 78.85 -115.15 78.85 -113.3 77.85
L -113.3 73.3
Q -115.05 74.45 -117.1 74.45 -120.95 74.45 -120.95 70.4
L -120.95 53.45 -113.95 53.45 -113.95 49.3 -120.95 49.3 Z"/>
</g>

<g id="TECHNICAL_300x600_FINAL_psd_Asset_1_Layer_4_Lightweight__ultra_soft___distraction_free_practice_0_Layer0_0_MEMBER_31_FILL">
<path fill="#FFFFFF" stroke="none" d="
M -101.85 38.35
Q -102.8 37.45 -104.1 37.45 -105.4 37.45 -106.3 38.35 -107.25 39.25 -107.25 40.55 -107.25 41.85 -106.3 42.75 -105.35 43.7 -104.1 43.7 -102.8 43.7 -101.85 42.75 -100.9 41.85 -100.9 40.55 -100.9 39.25 -101.85 38.35
M -101.65 49.3
L -106.5 49.3 -106.5 78.25 -101.65 78.25 -101.65 49.3 Z"/>
</g>

<g id="TECHNICAL_300x600_FINAL_psd_Asset_1_Layer_4_Lightweight__ultra_soft___distraction_free_practice_0_Layer0_0_MEMBER_32_FILL">
<path fill="#FFFFFF" stroke="none" d="
M -72.05 74.65
Q -68.35 70.45 -68.35 63.75 -68.35 57.1 -72.05 52.9 -75.75 48.7 -81.65 48.7 -87.6 48.7 -91.3 52.9 -94.95 57.1 -94.95 63.75 -94.95 70.45 -91.3 74.65 -87.6 78.85 -81.65 78.85 -75.75 78.85 -72.05 74.65
M -75.55 56
Q -73.35 58.95 -73.35 63.75 -73.35 68.6 -75.55 71.55 -77.8 74.55 -81.65 74.55 -85.55 74.55 -87.8 71.55 -90 68.6 -90 63.75 -90 58.95 -87.8 56 -85.5 53 -81.65 53 -77.8 53 -75.55 56 Z"/>
</g>

<g id="TECHNICAL_300x600_FINAL_psd_Asset_1_Layer_4_Lightweight__ultra_soft___distraction_free_practice_0_Layer0_0_MEMBER_33_FILL">
<path fill="#FFFFFF" stroke="none" d="
M -56.85 49.3
L -61.7 49.3 -61.7 78.25 -56.85 78.25 -56.85 58.6
Q -56.05 56.25 -54.05 54.75 -51.95 53.2 -49.45 53.2 -46.3 53.2 -44.6 55.1 -43.05 56.9 -43.05 60.05
L -43.05 78.25 -38.1 78.25 -38.1 59.3
Q -38.1 54.45 -40.7 51.6 -43.45 48.7 -48.3 48.7 -50.95 48.7 -53.3 49.95 -55.5 51.1 -56.85 52.95
L -56.85 49.3 Z"/>
</g>

<g id="TECHNICAL_300x600_FINAL_psd_Asset_1_Layer_4_Lightweight__ultra_soft___distraction_free_practice_0_Layer0_0_MEMBER_34_FILL">
<path fill="#FFFFFF" stroke="none" d="
M -31.6 58.95
L -31.6 63.5 -15.9 63.5 -15.9 58.95 -31.6 58.95 Z"/>
</g>

<g id="TECHNICAL_300x600_FINAL_psd_Asset_1_Layer_4_Lightweight__ultra_soft___distraction_free_practice_0_Layer0_0_MEMBER_35_FILL">
<path fill="#FFFFFF" stroke="none" d="
M 5.55 40.35
L 5.55 35.95
Q 3.95 35.3 1.8 35.3 -2.1 35.3 -4.55 37.7 -7.05 40.2 -7.05 44.45
L -7.05 49.3 -11.95 49.3 -11.95 53.45 -7.05 53.45 -7.05 78.25 -2.25 78.25 -2.25 53.45 4.25 53.45 4.25 49.3 -2.25 49.3 -2.25 44.85
Q -2.25 42.3 -0.95 40.95 0.3 39.6 2.5 39.6 4.3 39.6 5.55 40.35 Z"/>
</g>

<g id="TECHNICAL_300x600_FINAL_psd_Asset_1_Layer_4_Lightweight__ultra_soft___distraction_free_practice_0_Layer0_0_MEMBER_36_FILL">
<path fill="#FFFFFF" stroke="none" d="
M 14.85 49.3
L 9.95 49.3 9.95 78.25 14.85 78.25 14.85 58.8
Q 15.55 56.3 17.4 54.85 19.25 53.4 21.55 53.4 23.7 53.4 24.8 54.2
L 24.8 49.15
Q 23.9 48.7 22 48.7 19.65 48.7 17.7 49.95 15.8 51.15 14.85 53.1
L 14.85 49.3 Z"/>
</g>

<g id="TECHNICAL_300x600_FINAL_psd_Asset_1_Layer_4_Lightweight__ultra_soft___distraction_free_practice_0_Layer0_0_MEMBER_37_FILL">
<path fill="#FFFFFF" stroke="none" d="
M 27.95 63.85
Q 27.95 70.55 31.65 74.7 35.35 78.85 41.25 78.85 46 78.85 49.1 76.25 52.1 73.8 52.9 69.6
L 48.3 69.6
Q 47.7 72 45.85 73.35 44 74.65 41.25 74.65 37.5 74.65 35.25 72 32.9 69.3 32.85 64.7
L 53.3 64.7 53.3 62.95
Q 53.3 56.45 50.2 52.65 46.95 48.7 41.1 48.7 35.25 48.7 31.55 53 27.95 57.25 27.95 63.85
M 32.95 60.95
Q 33.5 57.15 35.7 55.05 37.9 52.9 41.2 52.9 44.65 52.9 46.55 55.3 48.3 57.5 48.35 60.95
L 32.95 60.95 Z"/>
</g>

<g id="TECHNICAL_300x600_FINAL_psd_Asset_1_Layer_4_Lightweight__ultra_soft___distraction_free_practice_0_Layer0_0_MEMBER_38_FILL">
<path fill="#FFFFFF" stroke="none" d="
M 83.25 64.7
L 83.25 62.95
Q 83.25 56.45 80.15 52.65 76.9 48.7 71.05 48.7 65.2 48.7 61.5 53 57.85 57.25 57.85 63.85 57.85 70.5 61.55 74.7 65.25 78.85 71.15 78.85 75.95 78.85 79.05 76.25 82.05 73.8 82.85 69.6
L 78.2 69.6
Q 77.65 72 75.75 73.35 73.9 74.65 71.15 74.65 67.45 74.65 65.15 72 62.85 69.3 62.75 64.7
L 83.25 64.7
M 65.65 55.05
Q 67.8 52.9 71.1 52.9 74.55 52.9 76.5 55.3 78.2 57.5 78.3 60.95
L 62.9 60.95
Q 63.4 57.2 65.65 55.05 Z"/>
</g>

<g id="TECHNICAL_300x600_FINAL_psd_Asset_1_Layer_4_Lightweight__ultra_soft___distraction_free_practice_0_Layer0_0_MEMBER_39_FILL">
<path fill="#FFFFFF" stroke="none" d="
M 109.05 49.3
L 104.15 49.3 104.15 89.35 109.05 89.35 109.05 74.85
Q 110.25 76.55 112.35 77.65 114.65 78.85 117.2 78.85 123.35 78.85 126.95 74.3 130.25 70.15 130.25 63.75 130.25 57.4 126.95 53.25 123.35 48.7 117.2 48.7 114.65 48.7 112.35 49.9 110.25 51 109.05 52.7
L 109.05 49.3
M 109.05 69.65
L 109.05 57.9
Q 110.15 55.7 112.2 54.4 114.2 53.15 116.5 53.15 120.6 53.15 123 56.15 125.3 59.05 125.3 63.75 125.3 68.45 123 71.4 120.6 74.4 116.5 74.4 114.2 74.4 112.2 73.15 110.15 71.9 109.05 69.65 Z"/>
</g>

<g id="TECHNICAL_300x600_FINAL_psd_Asset_1_Layer_4_Lightweight__ultra_soft___distraction_free_practice_0_Layer0_0_MEMBER_40_FILL">
<path fill="#FFFFFF" stroke="none" d="
M 141.8 49.3
L 136.9 49.3 136.9 78.25 141.8 78.25 141.8 58.8
Q 142.5 56.3 144.35 54.85 146.2 53.4 148.5 53.4 150.65 53.4 151.75 54.2
L 151.75 49.15
Q 150.85 48.7 148.95 48.7 146.6 48.7 144.65 49.95 142.75 51.15 141.8 53.1
L 141.8 49.3 Z"/>
</g>

<g id="TECHNICAL_300x600_FINAL_psd_Asset_1_Layer_4_Lightweight__ultra_soft___distraction_free_practice_0_Layer0_0_MEMBER_41_FILL">
<path fill="#FFFFFF" stroke="none" d="
M 178.05 58.95
Q 178.05 54.15 175.15 51.45 172.2 48.7 167.05 48.7 162.9 48.7 159.9 51 156.95 53.25 156.2 56.95
L 161.05 56.95
Q 162.4 52.95 166.95 52.95 170 52.95 171.75 54.7 173.35 56.35 173.35 59.15
L 173.35 62.8
Q 172.35 61.9 170.35 61.2 168.15 60.45 166.05 60.45 161.35 60.45 158.2 62.95 154.95 65.5 154.95 69.5 154.95 73.7 158.15 76.3 161.15 78.75 165.7 78.75 168.1 78.75 170.45 77.85 172.4 77.1 173.35 76.1
L 173.35 78.25 178.05 78.25 178.05 58.95
M 166.55 64.5
Q 168.85 64.5 170.75 65.5 172.7 66.5 173.35 68.1
L 173.35 71.1
Q 172.75 72.7 170.75 73.7 168.85 74.65 166.55 74.65 163.7 74.65 161.8 73.4 159.65 72 159.65 69.5 159.65 67.05 161.8 65.7 163.7 64.5 166.55 64.5 Z"/>
</g>

<g id="TECHNICAL_300x600_FINAL_psd_Asset_1_Layer_4_Lightweight__ultra_soft___distraction_free_practice_0_Layer0_0_MEMBER_42_FILL">
<path fill="#FFFFFF" stroke="none" d="
M 191.5 71.55
Q 189.25 68.55 189.25 63.75 189.25 59 191.5 56 193.8 53 197.5 53 200.1 53 201.85 54.35 203.55 55.7 204.05 58.05
L 209.1 58.05
Q 208.35 53.8 205.35 51.3 202.25 48.7 197.5 48.7 191.65 48.7 188 52.85 184.3 57.05 184.3 63.75 184.3 70.5 188 74.7 191.65 78.85 197.5 78.85 202.25 78.85 205.35 76.25 208.35 73.75 209.1 69.5
L 204.05 69.5
Q 203.55 71.85 201.85 73.2 200.1 74.55 197.5 74.55 193.8 74.55 191.5 71.55 Z"/>
</g>

<g id="TECHNICAL_300x600_FINAL_psd_Asset_1_Layer_4_Lightweight__ultra_soft___distraction_free_practice_0_Layer0_0_MEMBER_43_FILL">
<path fill="#FFFFFF" stroke="none" d="
M 217.05 49.3
L 212.35 49.3 212.35 53.45 217.05 53.45 217.05 70.95
Q 217.05 74.85 219.25 76.9 221.35 78.85 225 78.85 227.7 78.85 229.55 77.85
L 229.55 73.3
Q 227.85 74.45 225.8 74.45 221.95 74.45 221.95 70.4
L 221.95 53.45 228.9 53.45 228.9 49.3 221.95 49.3 221.95 41.65 217.05 41.65 217.05 49.3 Z"/>
</g>

<g id="TECHNICAL_300x600_FINAL_psd_Asset_1_Layer_4_Lightweight__ultra_soft___distraction_free_practice_0_Layer0_0_MEMBER_44_FILL">
<path fill="#FFFFFF" stroke="none" d="
M 241.25 49.3
L 236.35 49.3 236.35 78.25 241.25 78.25 241.25 49.3
M 241.95 40.55
Q 241.95 39.25 241 38.35 240.05 37.45 238.75 37.45 237.45 37.45 236.55 38.35 235.6 39.25 235.6 40.55 235.6 41.85 236.55 42.75 237.5 43.7 238.75 43.7 240.05 43.7 241 42.75 241.95 41.85 241.95 40.55 Z"/>
</g>

<g id="TECHNICAL_300x600_FINAL_psd_Asset_1_Layer_4_Lightweight__ultra_soft___distraction_free_practice_0_Layer0_0_MEMBER_45_FILL">
<path fill="#FFFFFF" stroke="none" d="
M 272.65 58.05
Q 271.9 53.8 268.95 51.3 265.85 48.7 261.05 48.7 255.25 48.7 251.55 52.85 247.9 57.05 247.9 63.75 247.9 70.5 251.55 74.7 255.2 78.85 261.05 78.85 265.85 78.85 268.95 76.25 271.9 73.75 272.65 69.5
L 267.65 69.5
Q 267.15 71.85 265.4 73.2 263.65 74.55 261.05 74.55 257.35 74.55 255.1 71.55 252.85 68.55 252.85 63.75 252.85 59 255.1 56 257.35 53 261.05 53 263.65 53 265.4 54.35 267.15 55.7 267.65 58.05
L 272.65 58.05 Z"/>
</g>

<g id="TECHNICAL_300x600_FINAL_psd_Asset_1_Layer_4_Lightweight__ultra_soft___distraction_free_practice_0_Layer0_0_MEMBER_46_FILL">
<path fill="#FFFFFF" stroke="none" d="
M 276.85 63.85
Q 276.85 70.55 280.55 74.7 284.25 78.85 290.15 78.85 294.9 78.85 298 76.25 301 73.8 301.8 69.6
L 297.2 69.6
Q 296.6 72 294.7 73.35 292.85 74.65 290.15 74.65 286.45 74.65 284.15 72 281.8 69.3 281.7 64.7
L 302.2 64.7 302.2 62.95
Q 302.2 56.45 299.1 52.65 295.85 48.7 290 48.7 284.15 48.7 280.45 53 276.85 57.25 276.85 63.85
M 284.6 55.05
Q 286.75 52.9 290.05 52.9 293.5 52.9 295.45 55.3 297.2 57.5 297.25 60.95
L 281.85 60.95
Q 282.35 57.2 284.6 55.05 Z"/>
</g>
</defs>

<g transform="matrix( 1, 0, 0, 1, -363,-266) ">
<g transform="matrix( 1, 0, 0, 1, 403,331) ">
<g transform="matrix( 0.369964599609375, 0, 0, 0.3073272705078125, 112.4,14.05) ">
<use xlink:href="#TECHNICAL_300x600_FINAL_psd_Asset_1_Layer_4_Lightweight__ultra_soft___distraction_free_practice_0_Layer0_0_MEMBER_0_FILL"/>
</g>

<g transform="matrix( 0.369964599609375, 0, 0, 0.3073272705078125, 112.4,14.05) ">
<use xlink:href="#TECHNICAL_300x600_FINAL_psd_Asset_1_Layer_4_Lightweight__ultra_soft___distraction_free_practice_0_Layer0_0_MEMBER_1_FILL"/>
</g>

<g transform="matrix( 0.369964599609375, 0, 0, 0.3073272705078125, 112.4,14.05) ">
<use xlink:href="#TECHNICAL_300x600_FINAL_psd_Asset_1_Layer_4_Lightweight__ultra_soft___distraction_free_practice_0_Layer0_0_MEMBER_2_FILL"/>
</g>

<g transform="matrix( 0.369964599609375, 0, 0, 0.3073272705078125, 112.4,14.05) ">
<use xlink:href="#TECHNICAL_300x600_FINAL_psd_Asset_1_Layer_4_Lightweight__ultra_soft___distraction_free_practice_0_Layer0_0_MEMBER_3_FILL"/>
</g>

<g transform="matrix( 0.369964599609375, 0, 0, 0.3073272705078125, 112.4,14.05) ">
<use xlink:href="#TECHNICAL_300x600_FINAL_psd_Asset_1_Layer_4_Lightweight__ultra_soft___distraction_free_practice_0_Layer0_0_MEMBER_4_FILL"/>
</g>

<g transform="matrix( 0.369964599609375, 0, 0, 0.3073272705078125, 112.4,14.05) ">
<use xlink:href="#TECHNICAL_300x600_FINAL_psd_Asset_1_Layer_4_Lightweight__ultra_soft___distraction_free_practice_0_Layer0_0_MEMBER_5_FILL"/>
</g>

<g transform="matrix( 0.369964599609375, 0, 0, 0.3073272705078125, 112.4,14.05) ">
<use xlink:href="#TECHNICAL_300x600_FINAL_psd_Asset_1_Layer_4_Lightweight__ultra_soft___distraction_free_practice_0_Layer0_0_MEMBER_6_FILL"/>
</g>

<g transform="matrix( 0.369964599609375, 0, 0, 0.3073272705078125, 112.4,14.05) ">
<use xlink:href="#TECHNICAL_300x600_FINAL_psd_Asset_1_Layer_4_Lightweight__ultra_soft___distraction_free_practice_0_Layer0_0_MEMBER_7_FILL"/>
</g>

<g transform="matrix( 0.369964599609375, 0, 0, 0.3073272705078125, 112.4,14.05) ">
<use xlink:href="#TECHNICAL_300x600_FINAL_psd_Asset_1_Layer_4_Lightweight__ultra_soft___distraction_free_practice_0_Layer0_0_MEMBER_8_FILL"/>
</g>

<g transform="matrix( 0.369964599609375, 0, 0, 0.3073272705078125, 112.4,14.05) ">
<use xlink:href="#TECHNICAL_300x600_FINAL_psd_Asset_1_Layer_4_Lightweight__ultra_soft___distraction_free_practice_0_Layer0_0_MEMBER_9_FILL"/>
</g>

<g transform="matrix( 0.369964599609375, 0, 0, 0.3073272705078125, 112.4,14.05) ">
<use xlink:href="#TECHNICAL_300x600_FINAL_psd_Asset_1_Layer_4_Lightweight__ultra_soft___distraction_free_practice_0_Layer0_0_MEMBER_10_FILL"/>
</g>

<g transform="matrix( 0.369964599609375, 0, 0, 0.3073272705078125, 112.4,14.05) ">
<use xlink:href="#TECHNICAL_300x600_FINAL_psd_Asset_1_Layer_4_Lightweight__ultra_soft___distraction_free_practice_0_Layer0_0_MEMBER_11_FILL"/>
</g>

<g transform="matrix( 0.369964599609375, 0, 0, 0.3073272705078125, 112.4,14.05) ">
<use xlink:href="#TECHNICAL_300x600_FINAL_psd_Asset_1_Layer_4_Lightweight__ultra_soft___distraction_free_practice_0_Layer0_0_MEMBER_12_FILL"/>
</g>

<g transform="matrix( 0.369964599609375, 0, 0, 0.3073272705078125, 112.4,14.05) ">
<use xlink:href="#TECHNICAL_300x600_FINAL_psd_Asset_1_Layer_4_Lightweight__ultra_soft___distraction_free_practice_0_Layer0_0_MEMBER_13_FILL"/>
</g>

<g transform="matrix( 0.369964599609375, 0, 0, 0.3073272705078125, 112.4,14.05) ">
<use xlink:href="#TECHNICAL_300x600_FINAL_psd_Asset_1_Layer_4_Lightweight__ultra_soft___distraction_free_practice_0_Layer0_0_MEMBER_14_FILL"/>
</g>

<g transform="matrix( 0.369964599609375, 0, 0, 0.3073272705078125, 112.4,14.05) ">
<use xlink:href="#TECHNICAL_300x600_FINAL_psd_Asset_1_Layer_4_Lightweight__ultra_soft___distraction_free_practice_0_Layer0_0_MEMBER_15_FILL"/>
</g>

<g transform="matrix( 0.369964599609375, 0, 0, 0.3073272705078125, 112.4,14.05) ">
<use xlink:href="#TECHNICAL_300x600_FINAL_psd_Asset_1_Layer_4_Lightweight__ultra_soft___distraction_free_practice_0_Layer0_0_MEMBER_16_FILL"/>
</g>

<g transform="matrix( 0.369964599609375, 0, 0, 0.3073272705078125, 112.4,14.05) ">
<use xlink:href="#TECHNICAL_300x600_FINAL_psd_Asset_1_Layer_4_Lightweight__ultra_soft___distraction_free_practice_0_Layer0_0_MEMBER_17_FILL"/>
</g>

<g transform="matrix( 0.369964599609375, 0, 0, 0.3073272705078125, 112.4,14.05) ">
<use xlink:href="#TECHNICAL_300x600_FINAL_psd_Asset_1_Layer_4_Lightweight__ultra_soft___distraction_free_practice_0_Layer0_0_MEMBER_18_FILL"/>
</g>

<g transform="matrix( 0.369964599609375, 0, 0, 0.3073272705078125, 112.4,14.05) ">
<use xlink:href="#TECHNICAL_300x600_FINAL_psd_Asset_1_Layer_4_Lightweight__ultra_soft___distraction_free_practice_0_Layer0_0_MEMBER_19_FILL"/>
</g>

<g transform="matrix( 0.369964599609375, 0, 0, 0.3073272705078125, 112.4,14.05) ">
<use xlink:href="#TECHNICAL_300x600_FINAL_psd_Asset_1_Layer_4_Lightweight__ultra_soft___distraction_free_practice_0_Layer0_0_MEMBER_20_FILL"/>
</g>

<g transform="matrix( 0.369964599609375, 0, 0, 0.3073272705078125, 112.4,14.05) ">
<use xlink:href="#TECHNICAL_300x600_FINAL_psd_Asset_1_Layer_4_Lightweight__ultra_soft___distraction_free_practice_0_Layer0_0_MEMBER_21_FILL"/>
</g>

<g transform="matrix( 0.369964599609375, 0, 0, 0.3073272705078125, 112.4,14.05) ">
<use xlink:href="#TECHNICAL_300x600_FINAL_psd_Asset_1_Layer_4_Lightweight__ultra_soft___distraction_free_practice_0_Layer0_0_MEMBER_22_FILL"/>
</g>

<g transform="matrix( 0.369964599609375, 0, 0, 0.3073272705078125, 112.4,14.05) ">
<use xlink:href="#TECHNICAL_300x600_FINAL_psd_Asset_1_Layer_4_Lightweight__ultra_soft___distraction_free_practice_0_Layer0_0_MEMBER_23_FILL"/>
</g>

<g transform="matrix( 0.369964599609375, 0, 0, 0.3073272705078125, 112.4,14.05) ">
<use xlink:href="#TECHNICAL_300x600_FINAL_psd_Asset_1_Layer_4_Lightweight__ultra_soft___distraction_free_practice_0_Layer0_0_MEMBER_24_FILL"/>
</g>

<g transform="matrix( 0.369964599609375, 0, 0, 0.3073272705078125, 112.4,14.05) ">
<use xlink:href="#TECHNICAL_300x600_FINAL_psd_Asset_1_Layer_4_Lightweight__ultra_soft___distraction_free_practice_0_Layer0_0_MEMBER_25_FILL"/>
</g>

<g transform="matrix( 0.369964599609375, 0, 0, 0.3073272705078125, 112.4,14.05) ">
<use xlink:href="#TECHNICAL_300x600_FINAL_psd_Asset_1_Layer_4_Lightweight__ultra_soft___distraction_free_practice_0_Layer0_0_MEMBER_26_FILL"/>
</g>

<g transform="matrix( 0.369964599609375, 0, 0, 0.3073272705078125, 112.4,14.05) ">
<use xlink:href="#TECHNICAL_300x600_FINAL_psd_Asset_1_Layer_4_Lightweight__ultra_soft___distraction_free_practice_0_Layer0_0_MEMBER_27_FILL"/>
</g>

<g transform="matrix( 0.369964599609375, 0, 0, 0.3073272705078125, 112.4,14.05) ">
<use xlink:href="#TECHNICAL_300x600_FINAL_psd_Asset_1_Layer_4_Lightweight__ultra_soft___distraction_free_practice_0_Layer0_0_MEMBER_28_FILL"/>
</g>

<g transform="matrix( 0.369964599609375, 0, 0, 0.3073272705078125, 112.4,14.05) ">
<use xlink:href="#TECHNICAL_300x600_FINAL_psd_Asset_1_Layer_4_Lightweight__ultra_soft___distraction_free_practice_0_Layer0_0_MEMBER_29_FILL"/>
</g>

<g transform="matrix( 0.369964599609375, 0, 0, 0.3073272705078125, 112.4,14.05) ">
<use xlink:href="#TECHNICAL_300x600_FINAL_psd_Asset_1_Layer_4_Lightweight__ultra_soft___distraction_free_practice_0_Layer0_0_MEMBER_30_FILL"/>
</g>

<g transform="matrix( 0.369964599609375, 0, 0, 0.3073272705078125, 112.4,14.05) ">
<use xlink:href="#TECHNICAL_300x600_FINAL_psd_Asset_1_Layer_4_Lightweight__ultra_soft___distraction_free_practice_0_Layer0_0_MEMBER_31_FILL"/>
</g>

<g transform="matrix( 0.369964599609375, 0, 0, 0.3073272705078125, 112.4,14.05) ">
<use xlink:href="#TECHNICAL_300x600_FINAL_psd_Asset_1_Layer_4_Lightweight__ultra_soft___distraction_free_practice_0_Layer0_0_MEMBER_32_FILL"/>
</g>

<g transform="matrix( 0.369964599609375, 0, 0, 0.3073272705078125, 112.4,14.05) ">
<use xlink:href="#TECHNICAL_300x600_FINAL_psd_Asset_1_Layer_4_Lightweight__ultra_soft___distraction_free_practice_0_Layer0_0_MEMBER_33_FILL"/>
</g>

<g transform="matrix( 0.369964599609375, 0, 0, 0.3073272705078125, 112.4,14.05) ">
<use xlink:href="#TECHNICAL_300x600_FINAL_psd_Asset_1_Layer_4_Lightweight__ultra_soft___distraction_free_practice_0_Layer0_0_MEMBER_34_FILL"/>
</g>

<g transform="matrix( 0.369964599609375, 0, 0, 0.3073272705078125, 112.4,14.05) ">
<use xlink:href="#TECHNICAL_300x600_FINAL_psd_Asset_1_Layer_4_Lightweight__ultra_soft___distraction_free_practice_0_Layer0_0_MEMBER_35_FILL"/>
</g>

<g transform="matrix( 0.369964599609375, 0, 0, 0.3073272705078125, 112.4,14.05) ">
<use xlink:href="#TECHNICAL_300x600_FINAL_psd_Asset_1_Layer_4_Lightweight__ultra_soft___distraction_free_practice_0_Layer0_0_MEMBER_36_FILL"/>
</g>

<g transform="matrix( 0.369964599609375, 0, 0, 0.3073272705078125, 112.4,14.05) ">
<use xlink:href="#TECHNICAL_300x600_FINAL_psd_Asset_1_Layer_4_Lightweight__ultra_soft___distraction_free_practice_0_Layer0_0_MEMBER_37_FILL"/>
</g>

<g transform="matrix( 0.369964599609375, 0, 0, 0.3073272705078125, 112.4,14.05) ">
<use xlink:href="#TECHNICAL_300x600_FINAL_psd_Asset_1_Layer_4_Lightweight__ultra_soft___distraction_free_practice_0_Layer0_0_MEMBER_38_FILL"/>
</g>

<g transform="matrix( 0.369964599609375, 0, 0, 0.3073272705078125, 112.4,14.05) ">
<use xlink:href="#TECHNICAL_300x600_FINAL_psd_Asset_1_Layer_4_Lightweight__ultra_soft___distraction_free_practice_0_Layer0_0_MEMBER_39_FILL"/>
</g>

<g transform="matrix( 0.369964599609375, 0, 0, 0.3073272705078125, 112.4,14.05) ">
<use xlink:href="#TECHNICAL_300x600_FINAL_psd_Asset_1_Layer_4_Lightweight__ultra_soft___distraction_free_practice_0_Layer0_0_MEMBER_40_FILL"/>
</g>

<g transform="matrix( 0.369964599609375, 0, 0, 0.3073272705078125, 112.4,14.05) ">
<use xlink:href="#TECHNICAL_300x600_FINAL_psd_Asset_1_Layer_4_Lightweight__ultra_soft___distraction_free_practice_0_Layer0_0_MEMBER_41_FILL"/>
</g>

<g transform="matrix( 0.369964599609375, 0, 0, 0.3073272705078125, 112.4,14.05) ">
<use xlink:href="#TECHNICAL_300x600_FINAL_psd_Asset_1_Layer_4_Lightweight__ultra_soft___distraction_free_practice_0_Layer0_0_MEMBER_42_FILL"/>
</g>

<g transform="matrix( 0.369964599609375, 0, 0, 0.3073272705078125, 112.4,14.05) ">
<use xlink:href="#TECHNICAL_300x600_FINAL_psd_Asset_1_Layer_4_Lightweight__ultra_soft___distraction_free_practice_0_Layer0_0_MEMBER_43_FILL"/>
</g>

<g transform="matrix( 0.369964599609375, 0, 0, 0.3073272705078125, 112.4,14.05) ">
<use xlink:href="#TECHNICAL_300x600_FINAL_psd_Asset_1_Layer_4_Lightweight__ultra_soft___distraction_free_practice_0_Layer0_0_MEMBER_44_FILL"/>
</g>

<g transform="matrix( 0.369964599609375, 0, 0, 0.3073272705078125, 112.4,14.05) ">
<use xlink:href="#TECHNICAL_300x600_FINAL_psd_Asset_1_Layer_4_Lightweight__ultra_soft___distraction_free_practice_0_Layer0_0_MEMBER_45_FILL"/>
</g>

<g transform="matrix( 0.369964599609375, 0, 0, 0.3073272705078125, 112.4,14.05) ">
<use xlink:href="#TECHNICAL_300x600_FINAL_psd_Asset_1_Layer_4_Lightweight__ultra_soft___distraction_free_practice_0_Layer0_0_MEMBER_46_FILL"/>
</g>
</g>
</g>
</svg>
