
<svg xmlns="http://www.w3.org/2000/svg" version="1.1" xmlns:xlink="http://www.w3.org/1999/xlink" preserveAspectRatio="none" x="0px" y="0px" width="728px" height="90px" viewBox="0 0 728 90">
<defs>
<g id="TECHNICAL_LB_728x90_FINAL_psd_Asset_Layer_3_Only_better_0_Layer0_0_MEMBER_0_FILL">
<path fill="#221F1F" stroke="none" d="
M -140.1 -20
Q -140.1 -10.95 -135 -5.2 -129.95 0.6 -122.05 0.6 -114.1 0.6 -109 -5.2 -103.9 -10.95 -103.9 -20 -103.9 -29.1 -109 -34.85 -114.1 -40.6 -122.05 -40.6 -129.95 -40.6 -135 -34.85 -140.1 -29.1 -140.1 -20
M -131.4 -31.5
Q -127.8 -36 -122.05 -36 -116.25 -36 -112.65 -31.5 -109.05 -27.05 -109.05 -20 -109.05 -12.95 -112.65 -8.5 -116.25 -4.05 -122.05 -4.05 -127.8 -4.05 -131.4 -8.5 -134.95 -12.95 -134.95 -20 -134.95 -27.05 -131.4 -31.5 Z"/>
</g>

<g id="TECHNICAL_LB_728x90_FINAL_psd_Asset_Layer_3_Only_better_0_Layer0_0_MEMBER_1_FILL">
<path fill="#221F1F" stroke="none" d="
M -92.25 -28.95
L -97.1 -28.95 -97.1 0 -92.25 0 -92.25 -19.65
Q -91.45 -22 -89.45 -23.5 -87.35 -25.05 -84.85 -25.05 -81.7 -25.05 -80.05 -23.15 -78.5 -21.35 -78.5 -18.2
L -78.5 0 -73.5 0 -73.5 -18.95
Q -73.5 -23.8 -76.1 -26.65 -78.85 -29.55 -83.7 -29.55 -86.35 -29.55 -88.7 -28.3 -90.9 -27.15 -92.25 -25.3
L -92.25 -28.95 Z"/>
</g>

<g id="TECHNICAL_LB_728x90_FINAL_psd_Asset_Layer_3_Only_better_0_Layer0_0_MEMBER_2_FILL">
<path fill="#221F1F" stroke="none" d="
M -60.35 -42.4
L -65.25 -42.4 -65.25 0 -60.35 0 -60.35 -42.4 Z"/>
</g>

<g id="TECHNICAL_LB_728x90_FINAL_psd_Asset_Layer_3_Only_better_0_Layer0_0_MEMBER_3_FILL">
<path fill="#221F1F" stroke="none" d="
M -49.5 -28.95
L -54.8 -28.95 -43.55 0.2 -47.9 11.1 -43.05 11.1 -27.5 -28.95 -32.55 -28.95 -41 -6.15 -49.5 -28.95 Z"/>
</g>

<g id="TECHNICAL_LB_728x90_FINAL_psd_Asset_Layer_3_Only_better_0_Layer0_0_MEMBER_4_FILL">
<path fill="#221F1F" stroke="none" d="
M 15.2 -25.05
Q 11.65 -29.55 5.5 -29.55 2.95 -29.55 0.6 -28.35 -1.5 -27.25 -2.65 -25.55
L -2.65 -42.4 -7.6 -42.4 -7.6 0 -2.65 0 -2.65 -3.4
Q -1.5 -1.7 0.6 -0.6 2.95 0.6 5.5 0.6 11.65 0.6 15.2 -3.85 18.55 -8 18.55 -14.45 18.55 -20.85 15.2 -25.05
M 4.8 -3.85
Q 2.5 -3.85 0.5 -5.1 -1.55 -6.35 -2.65 -8.6
L -2.65 -20.35
Q -1.55 -22.55 0.5 -23.85 2.5 -25.1 4.8 -25.1 8.9 -25.1 11.3 -22.1 13.6 -19.15 13.6 -14.45 13.6 -9.75 11.3 -6.85 8.9 -3.85 4.8 -3.85 Z"/>
</g>

<g id="TECHNICAL_LB_728x90_FINAL_psd_Asset_Layer_3_Only_better_0_Layer0_0_MEMBER_5_FILL">
<path fill="#221F1F" stroke="none" d="
M 23.25 -14.4
Q 23.25 -7.7 26.95 -3.55 30.65 0.6 36.55 0.6 41.3 0.6 44.45 -2 47.45 -4.45 48.2 -8.65
L 43.6 -8.65
Q 43 -6.25 41.15 -4.9 39.3 -3.6 36.55 -3.6 32.8 -3.6 30.55 -6.25 28.2 -8.95 28.15 -13.55
L 48.6 -13.55 48.6 -15.3
Q 48.6 -21.8 45.5 -25.6 42.25 -29.55 36.4 -29.55 30.55 -29.55 26.9 -25.25 23.25 -21 23.25 -14.4
M 31 -23.2
Q 33.2 -25.35 36.5 -25.35 39.95 -25.35 41.85 -22.95 43.6 -20.75 43.65 -17.3
L 28.25 -17.3
Q 28.8 -21.1 31 -23.2 Z"/>
</g>

<g id="TECHNICAL_LB_728x90_FINAL_psd_Asset_Layer_3_Only_better_0_Layer0_0_MEMBER_6_FILL">
<path fill="#221F1F" stroke="none" d="
M 61.4 -24.8
L 68.35 -24.8 68.35 -28.95 61.4 -28.95 61.4 -36.6 56.5 -36.6 56.5 -28.95 51.8 -28.95 51.8 -24.8 56.5 -24.8 56.5 -7.3
Q 56.5 -3.4 58.7 -1.35 60.8 0.6 64.45 0.6 67.15 0.6 69 -0.4
L 69 -4.95
Q 67.3 -3.8 65.25 -3.8 61.4 -3.8 61.4 -7.8
L 61.4 -24.8 Z"/>
</g>

<g id="TECHNICAL_LB_728x90_FINAL_psd_Asset_Layer_3_Only_better_0_Layer0_0_MEMBER_7_FILL">
<path fill="#221F1F" stroke="none" d="
M 77.15 -24.8
L 77.15 -7.3
Q 77.15 -3.4 79.4 -1.35 81.5 0.6 85.15 0.6 87.85 0.6 89.7 -0.4
L 89.7 -4.95
Q 87.95 -3.8 85.9 -3.8 82.05 -3.8 82.05 -7.8
L 82.05 -24.8 89.05 -24.8 89.05 -28.95 82.05 -28.95 82.05 -36.6 77.15 -36.6 77.15 -28.95 72.5 -28.95 72.5 -24.8 77.15 -24.8 Z"/>
</g>

<g id="TECHNICAL_LB_728x90_FINAL_psd_Asset_Layer_3_Only_better_0_Layer0_0_MEMBER_8_FILL">
<path fill="#221F1F" stroke="none" d="
M 116.3 -25.6
Q 113.1 -29.55 107.25 -29.55 101.4 -29.55 97.7 -25.25 94.05 -21 94.05 -14.4 94.05 -7.7 97.75 -3.55 101.45 0.6 107.35 0.6 112.15 0.6 115.25 -2 118.25 -4.45 119.05 -8.65
L 114.4 -8.65
Q 113.8 -6.25 111.95 -4.9 110.1 -3.6 107.35 -3.6 103.6 -3.6 101.35 -6.25 99 -8.95 98.95 -13.55
L 119.4 -13.55 119.4 -15.3
Q 119.4 -21.8 116.3 -25.6
M 112.65 -22.95
Q 114.4 -20.75 114.45 -17.3
L 99.1 -17.3
Q 99.6 -21.05 101.85 -23.2 104 -25.35 107.3 -25.35 110.75 -25.35 112.65 -22.95 Z"/>
</g>

<g id="TECHNICAL_LB_728x90_FINAL_psd_Asset_Layer_3_Only_better_0_Layer0_0_MEMBER_9_FILL">
<path fill="#221F1F" stroke="none" d="
M 140.8 -29.1
Q 139.9 -29.55 138 -29.55 135.65 -29.55 133.7 -28.3 131.8 -27.1 130.85 -25.15
L 130.85 -28.95 125.95 -28.95 125.95 0 130.85 0 130.85 -19.45
Q 131.55 -21.95 133.4 -23.4 135.25 -24.85 137.55 -24.85 139.7 -24.85 140.8 -24.05
L 140.8 -29.1 Z"/>
</g>
</defs>

<g transform="matrix( 1, 0, 0, 1, -132,-75) ">
<g transform="matrix( 1, 0, 0, 1, 529,113) ">
<g transform="matrix( 0.369964599609375, 0, 0, 0.3073272705078125, 52.5,13) ">
<use xlink:href="#TECHNICAL_LB_728x90_FINAL_psd_Asset_Layer_3_Only_better_0_Layer0_0_MEMBER_0_FILL"/>
</g>

<g transform="matrix( 0.369964599609375, 0, 0, 0.3073272705078125, 52.5,13) ">
<use xlink:href="#TECHNICAL_LB_728x90_FINAL_psd_Asset_Layer_3_Only_better_0_Layer0_0_MEMBER_1_FILL"/>
</g>

<g transform="matrix( 0.369964599609375, 0, 0, 0.3073272705078125, 52.5,13) ">
<use xlink:href="#TECHNICAL_LB_728x90_FINAL_psd_Asset_Layer_3_Only_better_0_Layer0_0_MEMBER_2_FILL"/>
</g>

<g transform="matrix( 0.369964599609375, 0, 0, 0.3073272705078125, 52.5,13) ">
<use xlink:href="#TECHNICAL_LB_728x90_FINAL_psd_Asset_Layer_3_Only_better_0_Layer0_0_MEMBER_3_FILL"/>
</g>

<g transform="matrix( 0.369964599609375, 0, 0, 0.3073272705078125, 52.5,13) ">
<use xlink:href="#TECHNICAL_LB_728x90_FINAL_psd_Asset_Layer_3_Only_better_0_Layer0_0_MEMBER_4_FILL"/>
</g>

<g transform="matrix( 0.369964599609375, 0, 0, 0.3073272705078125, 52.5,13) ">
<use xlink:href="#TECHNICAL_LB_728x90_FINAL_psd_Asset_Layer_3_Only_better_0_Layer0_0_MEMBER_5_FILL"/>
</g>

<g transform="matrix( 0.369964599609375, 0, 0, 0.3073272705078125, 52.5,13) ">
<use xlink:href="#TECHNICAL_LB_728x90_FINAL_psd_Asset_Layer_3_Only_better_0_Layer0_0_MEMBER_6_FILL"/>
</g>

<g transform="matrix( 0.369964599609375, 0, 0, 0.3073272705078125, 52.5,13) ">
<use xlink:href="#TECHNICAL_LB_728x90_FINAL_psd_Asset_Layer_3_Only_better_0_Layer0_0_MEMBER_7_FILL"/>
</g>

<g transform="matrix( 0.369964599609375, 0, 0, 0.3073272705078125, 52.5,13) ">
<use xlink:href="#TECHNICAL_LB_728x90_FINAL_psd_Asset_Layer_3_Only_better_0_Layer0_0_MEMBER_8_FILL"/>
</g>

<g transform="matrix( 0.369964599609375, 0, 0, 0.3073272705078125, 52.5,13) ">
<use xlink:href="#TECHNICAL_LB_728x90_FINAL_psd_Asset_Layer_3_Only_better_0_Layer0_0_MEMBER_9_FILL"/>
</g>
</g>
</g>
</svg>
