
<svg xmlns="http://www.w3.org/2000/svg" version="1.1" xmlns:xlink="http://www.w3.org/1999/xlink" preserveAspectRatio="none" x="0px" y="0px" width="300px" height="250px" viewBox="0 0 300 250">
<defs>
<g id="INSPIRATIONAL_BB_300x250_FINAL_psd_Asset_Layer_4_Align_Crop_Experience_it_for_yourself_0_Layer0_0_MEMBER_0_FILL">
<path fill="#F9C2C1" stroke="none" d="
M -222.65 -40.05
L -230.95 -40.05 -246.25 0 -237.9 0 -234.4 -9.65 -219.4 -9.65 -215.8 0 -207.35 0 -222.65 -40.05
M -231.8 -16.7
L -226.9 -30 -222 -16.7 -231.8 -16.7 Z"/>
</g>

<g id="INSPIRATIONAL_BB_300x250_FINAL_psd_Asset_Layer_4_Align_Crop_Experience_it_for_yourself_0_Layer0_0_MEMBER_1_FILL">
<path fill="#F9C2C1" stroke="none" d="
M -176.85 -40.05
L -185.2 -40.05 -185.2 0 -158.25 0 -158.25 -7.35 -176.85 -7.35 -176.85 -40.05 Z"/>
</g>

<g id="INSPIRATIONAL_BB_300x250_FINAL_psd_Asset_Layer_4_Align_Crop_Experience_it_for_yourself_0_Layer0_0_MEMBER_2_FILL">
<path fill="#F9C2C1" stroke="none" d="
M -126.55 -40.05
L -134.9 -40.05 -134.9 0 -126.55 0 -126.55 -40.05 Z"/>
</g>

<g id="INSPIRATIONAL_BB_300x250_FINAL_psd_Asset_Layer_4_Align_Crop_Experience_it_for_yourself_0_Layer0_0_MEMBER_3_FILL">
<path fill="#F9C2C1" stroke="none" d="
M -82.65 -21
L -82.65 -14.35 -75 -14.35
Q -75.75 -10.85 -78.05 -8.8 -80.55 -6.7 -84.3 -6.7 -89.25 -6.7 -92.2 -10.45 -95.1 -14.1 -95.1 -20 -95.1 -25.85 -92.25 -29.5 -89.35 -33.25 -84.5 -33.25 -78.2 -33.25 -75.95 -27.1
L -67.5 -27.1
Q -68.65 -33.35 -72.95 -36.9 -77.45 -40.7 -84.5 -40.7 -92.7 -40.7 -98.1 -34.95 -103.6 -29.1 -103.6 -20 -103.6 -10.85 -98.15 -5.1 -92.7 0.65 -84.3 0.65 -76.6 0.65 -71.8 -4.25 -66.85 -9.25 -66.85 -17.45
L -66.85 -21 -82.65 -21 Z"/>
</g>

<g id="INSPIRATIONAL_BB_300x250_FINAL_psd_Asset_Layer_4_Align_Crop_Experience_it_for_yourself_0_Layer0_0_MEMBER_4_FILL">
<path fill="#F9C2C1" stroke="none" d="
M -18.35 -14.75
L -36.05 -40.05 -43.85 -40.05 -43.85 0 -35.85 0 -35.85 -26.65 -16.9 0 -10.35 0 -10.35 -40.05 -18.35 -40.05 -18.35 -14.75 Z"/>
</g>

<g id="INSPIRATIONAL_BB_300x250_FINAL_psd_Asset_Layer_4_Align_Crop_Experience_it_for_yourself_0_Layer0_0_MEMBER_5_FILL">
<path fill="#F9C2C1" stroke="none" d="
M 73.8 -36.9
Q 69.35 -40.7 62.45 -40.7 54.35 -40.7 49.1 -34.95 43.8 -29.1 43.8 -20 43.8 -10.9 49.1 -5.1 54.35 0.65 62.45 0.65 69.35 0.65 73.8 -3.15 78.05 -6.75 79.2 -12.95
L 70.9 -12.95
Q 68.65 -6.8 62.45 -6.8 57.75 -6.8 54.95 -10.55 52.25 -14.2 52.25 -20 52.25 -25.85 54.95 -29.5 57.75 -33.25 62.45 -33.25 68.65 -33.25 70.9 -27.1
L 79.2 -27.1
Q 78.05 -33.3 73.8 -36.9 Z"/>
</g>

<g id="INSPIRATIONAL_BB_300x250_FINAL_psd_Asset_Layer_4_Align_Crop_Experience_it_for_yourself_0_Layer0_0_MEMBER_6_FILL">
<path fill="#F9C2C1" stroke="none" d="
M 110.35 -14.95
L 114.75 -14.95 124.65 0 134.05 0 123.45 -15.5
Q 127.75 -16.55 130.15 -19.55 132.6 -22.65 132.6 -27.3 132.6 -33.4 128.75 -36.75 125 -40.05 118.6 -40.05
L 102.1 -40.05 102.1 0 110.35 0 110.35 -14.95
M 110.35 -21.8
L 110.35 -32.95 118.05 -32.95
Q 121.15 -32.95 122.8 -31.4 124.4 -29.9 124.4 -27.3 124.4 -24.75 122.8 -23.3 121.15 -21.8 118.05 -21.8
L 110.35 -21.8 Z"/>
</g>

<g id="INSPIRATIONAL_BB_300x250_FINAL_psd_Asset_Layer_4_Align_Crop_Experience_it_for_yourself_0_Layer0_0_MEMBER_7_FILL">
<path fill="#F9C2C1" stroke="none" d="
M 154.1 -20
Q 154.1 -11 159.35 -5.2 164.7 0.65 173 0.65 181.35 0.65 186.7 -5.2 192 -11.05 192 -20 192 -29 186.7 -34.85 181.35 -40.7 173 -40.7 164.65 -40.7 159.35 -34.85 154.1 -29.05 154.1 -20
M 173 -33.25
Q 177.8 -33.25 180.7 -29.55 183.6 -25.9 183.6 -20 183.6 -14.1 180.7 -10.45 177.8 -6.8 173 -6.8 168.3 -6.8 165.45 -10.45 162.6 -14.1 162.6 -20 162.6 -25.9 165.45 -29.55 168.3 -33.25 173 -33.25 Z"/>
</g>

<g id="INSPIRATIONAL_BB_300x250_FINAL_psd_Asset_Layer_4_Align_Crop_Experience_it_for_yourself_0_Layer0_0_MEMBER_8_FILL">
<path fill="#F9C2C1" stroke="none" d="
M 241.6 -36.7
Q 237.85 -40.05 231.4 -40.05
L 215.1 -40.05 215.1 0 223.35 0 223.35 -13.9 231.4 -13.9
Q 237.85 -13.9 241.6 -17.25 245.45 -20.7 245.45 -26.95 245.45 -33.2 241.6 -36.7
M 235.65 -31.3
Q 237.25 -29.7 237.25 -26.95 237.25 -24.25 235.65 -22.65 234 -21 230.85 -21
L 223.35 -21 223.35 -32.95 230.85 -32.95
Q 234 -32.95 235.65 -31.3 Z"/>
</g>

<g id="INSPIRATIONAL_BB_300x250_FINAL_psd_Asset_Layer_4_Align_Crop_Experience_it_for_yourself_0_Layer0_0_MEMBER_9_FILL">
<path fill="#231F20" stroke="none" d="
M -224 24.2
L -224 20.6 -244.05 20.6 -244.05 52.05 -224 52.05 -224 48.4 -240.05 48.4 -240.05 37.7 -225.5 37.7 -225.5 34.1 -240.05 34.1 -240.05 24.2 -224 24.2 Z"/>
</g>

<g id="INSPIRATIONAL_BB_300x250_FINAL_psd_Asset_Layer_4_Align_Crop_Experience_it_for_yourself_0_Layer0_0_MEMBER_10_FILL">
<path fill="#231F20" stroke="none" d="
M -220.05 29.3
L -212.1 40.45 -220.5 52.05 -216.35 52.05 -210 43.2 -203.7 52.05 -199.3 52.05 -207.8 40.25 -199.8 29.3 -204 29.3 -209.9 37.45 -215.6 29.3 -220.05 29.3 Z"/>
</g>

<g id="INSPIRATIONAL_BB_300x250_FINAL_psd_Asset_Layer_4_Align_Crop_Experience_it_for_yourself_0_Layer0_0_MEMBER_11_FILL">
<path fill="#231F20" stroke="none" d="
M -191.15 31.95
L -191.15 29.3 -194.95 29.3 -194.95 60.75 -191.15 60.75 -191.15 49.4
Q -190.2 50.75 -188.55 51.55 -186.75 52.5 -184.7 52.5 -179.9 52.5 -177.05 48.95 -174.45 45.7 -174.45 40.7 -174.45 35.7 -177.05 32.4 -179.9 28.85 -184.7 28.85 -186.7 28.85 -188.55 29.8 -190.15 30.65 -191.15 31.95
M -188.65 33.3
Q -187.1 32.35 -185.3 32.35 -182.1 32.35 -180.2 34.7 -178.35 37 -178.35 40.7 -178.35 44.4 -180.2 46.7 -182.1 49.05 -185.3 49.05 -187.1 49.05 -188.65 48.05 -190.25 47.05 -191.15 45.3
L -191.15 36.05
Q -190.25 34.3 -188.65 33.3 Z"/>
</g>

<g id="INSPIRATIONAL_BB_300x250_FINAL_psd_Asset_Layer_4_Align_Crop_Experience_it_for_yourself_0_Layer0_0_MEMBER_12_FILL">
<path fill="#231F20" stroke="none" d="
M -151.15 45.25
L -154.8 45.25
Q -155.25 47.15 -156.7 48.2 -158.2 49.25 -160.3 49.25 -163.2 49.25 -165.05 47.15 -166.9 45 -166.95 41.4
L -150.85 41.4 -150.85 40
Q -150.85 34.9 -153.3 31.95 -155.85 28.85 -160.45 28.85 -165.05 28.85 -167.95 32.25 -170.8 35.55 -170.8 40.75 -170.8 46 -167.9 49.25 -165 52.5 -160.3 52.5 -156.55 52.5 -154.1 50.5 -151.75 48.55 -151.15 45.25
M -156.15 34.05
Q -154.8 35.75 -154.75 38.5
L -166.85 38.5
Q -166.4 35.5 -164.65 33.8 -162.95 32.1 -160.4 32.1 -157.7 32.1 -156.15 34.05 Z"/>
</g>

<g id="INSPIRATIONAL_BB_300x250_FINAL_psd_Asset_Layer_4_Align_Crop_Experience_it_for_yourself_0_Layer0_0_MEMBER_13_FILL">
<path fill="#231F20" stroke="none" d="
M -141.9 32.3
L -141.9 29.3 -145.7 29.3 -145.7 52.05 -141.9 52.05 -141.9 36.8
Q -141.3 34.8 -139.85 33.65 -138.45 32.55 -136.6 32.55 -134.95 32.55 -134.05 33.15
L -134.05 29.2
Q -134.75 28.85 -136.25 28.85 -138.05 28.85 -139.65 29.85 -141.1 30.8 -141.9 32.3 Z"/>
</g>

<g id="INSPIRATIONAL_BB_300x250_FINAL_psd_Asset_Layer_4_Align_Crop_Experience_it_for_yourself_0_Layer0_0_MEMBER_14_FILL">
<path fill="#231F20" stroke="none" d="
M -125.45 29.3
L -129.25 29.3 -129.25 52.05 -125.45 52.05 -125.45 29.3
M -124.85 22.45
Q -124.85 21.4 -125.6 20.7 -126.3 20 -127.35 20 -128.35 20 -129.1 20.7 -129.85 21.4 -129.85 22.45 -129.85 23.45 -129.1 24.15 -128.35 24.9 -127.35 24.9 -126.35 24.9 -125.6 24.15 -124.85 23.45 -124.85 22.45 Z"/>
</g>

<g id="INSPIRATIONAL_BB_300x250_FINAL_psd_Asset_Layer_4_Align_Crop_Experience_it_for_yourself_0_Layer0_0_MEMBER_15_FILL">
<path fill="#231F20" stroke="none" d="
M -102.7 31.95
Q -105.25 28.85 -109.85 28.85 -114.45 28.85 -117.35 32.25 -120.2 35.55 -120.2 40.75 -120.2 46 -117.3 49.25 -114.4 52.5 -109.75 52.5 -106 52.5 -103.55 50.5 -101.2 48.55 -100.55 45.25
L -104.2 45.25
Q -104.65 47.15 -106.15 48.2 -107.6 49.25 -109.75 49.25 -112.65 49.25 -114.45 47.15 -116.3 45 -116.35 41.4
L -100.25 41.4 -100.25 40
Q -100.25 34.95 -102.7 31.95
M -109.8 32.1
Q -107.1 32.1 -105.55 34.05 -104.2 35.75 -104.15 38.5
L -116.25 38.5
Q -115.85 35.5 -114.1 33.8 -112.4 32.1 -109.8 32.1 Z"/>
</g>

<g id="INSPIRATIONAL_BB_300x250_FINAL_psd_Asset_Layer_4_Align_Crop_Experience_it_for_yourself_0_Layer0_0_MEMBER_16_FILL">
<path fill="#231F20" stroke="none" d="
M -76.6 37.15
Q -76.6 33.35 -78.65 31.15 -80.75 28.85 -84.6 28.85 -86.65 28.85 -88.55 29.85 -90.2 30.75 -91.3 32.15
L -91.3 29.3 -95.15 29.3 -95.15 52.05 -91.3 52.05 -91.3 36.65
Q -90.7 34.75 -89.1 33.6 -87.5 32.4 -85.5 32.4 -83 32.4 -81.7 33.9 -80.5 35.3 -80.5 37.75
L -80.5 52.05 -76.6 52.05 -76.6 37.15 Z"/>
</g>

<g id="INSPIRATIONAL_BB_300x250_FINAL_psd_Asset_Layer_4_Align_Crop_Experience_it_for_yourself_0_Layer0_0_MEMBER_17_FILL">
<path fill="#231F20" stroke="none" d="
M -68.8 32.1
Q -71.7 35.4 -71.7 40.7 -71.7 45.95 -68.8 49.25 -65.95 52.5 -61.35 52.5 -57.6 52.5 -55.15 50.5 -52.8 48.55 -52.25 45.2
L -56.2 45.2
Q -56.55 47.05 -57.95 48.1 -59.3 49.15 -61.35 49.15 -64.25 49.15 -66.05 46.8 -67.8 44.45 -67.8 40.7 -67.8 36.95 -66.05 34.6 -64.25 32.25 -61.35 32.25 -59.3 32.25 -57.95 33.3 -56.55 34.3 -56.2 36.15
L -52.25 36.15
Q -52.8 32.8 -55.15 30.85 -57.6 28.85 -61.35 28.85 -65.95 28.85 -68.8 32.1 Z"/>
</g>

<g id="INSPIRATIONAL_BB_300x250_FINAL_psd_Asset_Layer_4_Align_Crop_Experience_it_for_yourself_0_Layer0_0_MEMBER_18_FILL">
<path fill="#231F20" stroke="none" d="
M -29.35 45.25
L -32.95 45.25
Q -33.45 47.15 -34.9 48.2 -36.4 49.25 -38.5 49.25 -41.4 49.25 -43.2 47.15 -45.05 45 -45.1 41.4
L -29.05 41.4 -29.05 40
Q -29.05 34.9 -31.5 31.95 -34 28.85 -38.6 28.85 -43.2 28.85 -46.1 32.25 -48.95 35.55 -48.95 40.75 -48.95 46 -46.05 49.25 -43.15 52.5 -38.5 52.5 -34.75 52.5 -32.3 50.5 -29.95 48.55 -29.35 45.25
M -34.3 34.05
Q -32.95 35.75 -32.9 38.5
L -45 38.5
Q -44.6 35.5 -42.85 33.8 -41.15 32.1 -38.55 32.1 -35.85 32.1 -34.3 34.05 Z"/>
</g>

<g id="INSPIRATIONAL_BB_300x250_FINAL_psd_Asset_Layer_4_Align_Crop_Experience_it_for_yourself_0_Layer0_0_MEMBER_19_FILL">
<path fill="#231F20" stroke="none" d="
M -8.75 29.3
L -12.6 29.3 -12.6 52.05 -8.75 52.05 -8.75 29.3
M -8.15 22.45
Q -8.15 21.4 -8.9 20.7 -9.65 20 -10.7 20 -11.7 20 -12.4 20.7 -13.15 21.4 -13.15 22.45 -13.15 23.45 -12.4 24.15 -11.65 24.9 -10.7 24.9 -9.65 24.9 -8.9 24.15 -8.15 23.45 -8.15 22.45 Z"/>
</g>

<g id="INSPIRATIONAL_BB_300x250_FINAL_psd_Asset_Layer_4_Align_Crop_Experience_it_for_yourself_0_Layer0_0_MEMBER_20_FILL">
<path fill="#231F20" stroke="none" d="
M 3.05 29.3
L 3.05 23.3 -0.8 23.3 -0.8 29.3 -4.5 29.3 -4.5 32.6 -0.8 32.6 -0.8 46.3
Q -0.8 49.35 0.95 51 2.6 52.5 5.45 52.5 7.65 52.5 9.05 51.75
L 9.05 48.15
Q 7.75 49.1 6.05 49.1 3.05 49.1 3.05 45.9
L 3.05 32.6 8.55 32.6 8.55 29.3 3.05 29.3 Z"/>
</g>

<g id="INSPIRATIONAL_BB_300x250_FINAL_psd_Asset_Layer_4_Align_Crop_Experience_it_for_yourself_0_Layer0_0_MEMBER_21_FILL">
<path fill="#231F20" stroke="none" d="
M 37.1 22.3
L 37.1 18.8
Q 35.8 18.3 34.1 18.3 31.05 18.3 29.15 20.2 27.15 22.15 27.15 25.5
L 27.15 29.3 23.3 29.3 23.3 32.6 27.15 32.6 27.15 52.05 30.95 52.05 30.95 32.6 36.05 32.6 36.05 29.3 30.95 29.3 30.95 25.8
Q 30.95 23.8 31.95 22.7 32.95 21.65 34.65 21.65 36.15 21.65 37.1 22.3 Z"/>
</g>

<g id="INSPIRATIONAL_BB_300x250_FINAL_psd_Asset_Layer_4_Align_Crop_Experience_it_for_yourself_0_Layer0_0_MEMBER_22_FILL">
<path fill="#231F20" stroke="none" d="
M 48.95 28.85
Q 44.3 28.85 41.4 32.15 38.5 35.45 38.5 40.7 38.5 45.95 41.4 49.2 44.3 52.5 48.95 52.5 53.6 52.5 56.5 49.2 59.4 45.9 59.4 40.7 59.4 35.45 56.5 32.15 53.6 28.85 48.95 28.85
M 44.15 34.6
Q 45.9 32.25 48.95 32.25 52 32.25 53.8 34.6 55.55 36.9 55.55 40.7 55.55 44.45 53.8 46.8 52 49.15 48.95 49.15 45.9 49.15 44.15 46.8 42.4 44.5 42.4 40.7 42.4 36.9 44.15 34.6 Z"/>
</g>

<g id="INSPIRATIONAL_BB_300x250_FINAL_psd_Asset_Layer_4_Align_Crop_Experience_it_for_yourself_0_Layer0_0_MEMBER_23_FILL">
<path fill="#231F20" stroke="none" d="
M 76.35 33.15
L 76.35 29.2
Q 75.55 28.85 74.15 28.85 72.3 28.85 70.75 29.85 69.25 30.8 68.5 32.3
L 68.5 29.3 64.65 29.3 64.65 52.05 68.5 52.05 68.5 36.8
Q 69.05 34.8 70.5 33.65 71.9 32.55 73.75 32.55 75.4 32.55 76.35 33.15 Z"/>
</g>

<g id="INSPIRATIONAL_BB_300x250_FINAL_psd_Asset_Layer_4_Align_Crop_Experience_it_for_yourself_0_Layer0_0_MEMBER_24_FILL">
<path fill="#231F20" stroke="none" d="
M 94.05 29.3
L 89.9 29.3 98.8 52.2 95.35 60.75 99.15 60.75 111.4 29.3 107.4 29.3 100.8 47.25 94.05 29.3 Z"/>
</g>

<g id="INSPIRATIONAL_BB_300x250_FINAL_psd_Asset_Layer_4_Align_Crop_Experience_it_for_yourself_0_Layer0_0_MEMBER_25_FILL">
<path fill="#231F20" stroke="none" d="
M 131.7 49.2
Q 134.6 45.9 134.6 40.7 134.6 35.45 131.7 32.15 128.8 28.85 124.15 28.85 119.5 28.85 116.6 32.15 113.7 35.45 113.7 40.7 113.7 45.95 116.6 49.2 119.5 52.5 124.15 52.5 128.8 52.5 131.7 49.2
M 128.95 34.6
Q 130.7 36.9 130.7 40.7 130.7 44.5 128.95 46.8 127.2 49.15 124.15 49.15 121.1 49.15 119.35 46.8 117.6 44.5 117.6 40.7 117.6 36.9 119.35 34.6 121.1 32.25 124.15 32.25 127.2 32.25 128.95 34.6 Z"/>
</g>

<g id="INSPIRATIONAL_BB_300x250_FINAL_psd_Asset_Layer_4_Align_Crop_Experience_it_for_yourself_0_Layer0_0_MEMBER_26_FILL">
<path fill="#231F20" stroke="none" d="
M 139.5 29.3
L 139.5 44.2
Q 139.5 48 141.55 50.25 143.65 52.5 147.45 52.5 149.55 52.5 151.4 51.55 153.05 50.65 154.1 49.2
L 154.1 52.05 157.95 52.05 157.95 29.3 154.1 29.3 154.1 44.75
Q 153.45 46.65 151.95 47.8 150.35 49 148.4 49 145.9 49 144.6 47.5 143.4 46.1 143.4 43.6
L 143.4 29.3 139.5 29.3 Z"/>
</g>

<g id="INSPIRATIONAL_BB_300x250_FINAL_psd_Asset_Layer_4_Align_Crop_Experience_it_for_yourself_0_Layer0_0_MEMBER_27_FILL">
<path fill="#231F20" stroke="none" d="
M 176.45 33.15
L 176.45 29.2
Q 175.75 28.85 174.25 28.85 172.45 28.85 170.85 29.85 169.4 30.8 168.65 32.3
L 168.65 29.3 164.8 29.3 164.8 52.05 168.65 52.05 168.65 36.8
Q 169.2 34.8 170.65 33.65 172.05 32.55 173.9 32.55 175.55 32.55 176.45 33.15 Z"/>
</g>

<g id="INSPIRATIONAL_BB_300x250_FINAL_psd_Asset_Layer_4_Align_Crop_Experience_it_for_yourself_0_Layer0_0_MEMBER_28_FILL">
<path fill="#231F20" stroke="none" d="
M 182.2 30.7
Q 179.85 32.55 179.85 35.55 179.85 40.2 185.35 41.55
L 189.85 42.75
Q 193.25 43.6 193.25 45.9 193.25 47.55 191.95 48.45 190.7 49.3 188.55 49.3 184.25 49.3 183.2 45.8
L 179.2 45.8
Q 179.7 48.95 182.25 50.75 184.75 52.5 188.5 52.5 192.25 52.5 194.55 50.7 196.95 48.8 196.95 45.65 196.95 40.8 191.2 39.3
L 186.75 38.2
Q 185.05 37.75 184.35 37.15 183.6 36.5 183.6 35.35 183.6 33.8 184.95 32.9 186.15 32.05 187.95 32.05 191.9 32.05 192.95 35.3
L 196.8 35.3
Q 196.2 32.25 194 30.6 191.7 28.85 188 28.85 184.5 28.85 182.2 30.7 Z"/>
</g>

<g id="INSPIRATIONAL_BB_300x250_FINAL_psd_Asset_Layer_4_Align_Crop_Experience_it_for_yourself_0_Layer0_0_MEMBER_29_FILL">
<path fill="#231F20" stroke="none" d="
M 211 28.85
Q 206.4 28.85 203.5 32.25 200.65 35.55 200.65 40.75 200.65 46 203.55 49.25 206.45 52.5 211.1 52.5 214.85 52.5 217.3 50.5 219.65 48.55 220.3 45.25
L 216.65 45.25
Q 216.2 47.15 214.7 48.2 213.25 49.25 211.1 49.25 208.2 49.25 206.4 47.15 204.55 45 204.5 41.4
L 220.6 41.4 220.6 40
Q 220.6 34.95 218.15 31.95 215.6 28.85 211 28.85
M 206.75 33.8
Q 208.5 32.1 211.05 32.1 213.75 32.1 215.3 34.05 216.65 35.75 216.7 38.5
L 204.6 38.5
Q 205 35.5 206.75 33.8 Z"/>
</g>

<g id="INSPIRATIONAL_BB_300x250_FINAL_psd_Asset_Layer_4_Align_Crop_Experience_it_for_yourself_0_Layer0_0_MEMBER_30_FILL">
<path fill="#231F20" stroke="none" d="
M 229.55 18.75
L 225.7 18.75 225.7 52.05 229.55 52.05 229.55 18.75 Z"/>
</g>

<g id="INSPIRATIONAL_BB_300x250_FINAL_psd_Asset_Layer_4_Align_Crop_Experience_it_for_yourself_0_Layer0_0_MEMBER_31_FILL">
<path fill="#231F20" stroke="none" d="
M 247.8 22.3
L 247.8 18.8
Q 246.6 18.3 244.85 18.3 241.75 18.3 239.85 20.2 237.85 22.15 237.85 25.5
L 237.85 29.3 234 29.3 234 32.6 237.85 32.6 237.85 52.05 241.65 52.05 241.65 32.6 246.8 32.6 246.8 29.3 241.65 29.3 241.65 25.8
Q 241.65 23.8 242.7 22.7 243.7 21.65 245.4 21.65 246.9 21.65 247.8 22.3 Z"/>
</g>

<g id="Layer0_0_FILL">
<path fill="#000000" stroke="none" d="
M 93.75 93.75
Q 109.8 77.7 109.8 54.95 109.8 32.2 93.75 16.1 77.65 0 54.9 0 32.15 0 16.05 16.1 0 32.2 0 54.95 0 77.7 16.05 93.75 32.15 109.85 54.9 109.85 77.65 109.85 93.75 93.75
M 85.3 42.1
Q 84.55 45.4 82.65 49.4 81.55 51.75 78.95 56.5 73.7 66 73.2 70.4 72.6 76.45 78.7 80.5 81.05 82.1 83.7 82.1 87.65 82.1 93.25 79.3
L 92.75 80.2
Q 86 90.3 76.4 90.3 72.25 90.3 67.8 88.35 62.85 86.15 60 81.15 57.05 76.1 57.9 71.25 58.6 68.4 61.7 60.4 66.5 48 67.85 41.8 70.25 31 66.85 26.05 63.7 21.35 54.9 21.25 46.15 21.35 42.9 26.05 39.5 31 41.95 41.8 43.35 48 48.1 60.4 51.25 68.4 51.9 71.3 52.7 76.1 49.8 81.15 46.85 86.2 42 88.35 37.6 90.3 33.35 90.3 28.65 90.3 24.5 87.75 20.35 85.15 17.05 80.2
L 16.55 79.3
Q 22.15 82.1 26.1 82.1 28.7 82.1 31.05 80.5 37.2 76.45 36.55 70.4 36.1 66.05 30.85 56.5 28.25 51.75 27.15 49.4 25.25 45.4 24.45 42.1 21.5 29.7 26.65 23.15 30 18.95 36.5 16.8 43.5 14.55 53.75 14.4
L 56 14.4
Q 66.3 14.55 73.3 16.8 79.85 19 83.1 23.15 88.35 29.75 85.3 42.1 Z"/>
</g>
</defs>

<g transform="matrix( 1, 0, 0, 1, 56,71) ">
<g transform="matrix( 1, 0, 0, 1, 0,0) ">
<g transform="matrix( 0.3702850341796875, 0, 0, 0.306976318359375, 92.15,12.5) ">
<use xlink:href="#INSPIRATIONAL_BB_300x250_FINAL_psd_Asset_Layer_4_Align_Crop_Experience_it_for_yourself_0_Layer0_0_MEMBER_0_FILL"/>
</g>

<g transform="matrix( 0.3702850341796875, 0, 0, 0.306976318359375, 92.15,12.5) ">
<use xlink:href="#INSPIRATIONAL_BB_300x250_FINAL_psd_Asset_Layer_4_Align_Crop_Experience_it_for_yourself_0_Layer0_0_MEMBER_1_FILL"/>
</g>

<g transform="matrix( 0.3702850341796875, 0, 0, 0.306976318359375, 92.15,12.5) ">
<use xlink:href="#INSPIRATIONAL_BB_300x250_FINAL_psd_Asset_Layer_4_Align_Crop_Experience_it_for_yourself_0_Layer0_0_MEMBER_2_FILL"/>
</g>

<g transform="matrix( 0.3702850341796875, 0, 0, 0.306976318359375, 92.15,12.5) ">
<use xlink:href="#INSPIRATIONAL_BB_300x250_FINAL_psd_Asset_Layer_4_Align_Crop_Experience_it_for_yourself_0_Layer0_0_MEMBER_3_FILL"/>
</g>

<g transform="matrix( 0.3702850341796875, 0, 0, 0.306976318359375, 92.15,12.5) ">
<use xlink:href="#INSPIRATIONAL_BB_300x250_FINAL_psd_Asset_Layer_4_Align_Crop_Experience_it_for_yourself_0_Layer0_0_MEMBER_4_FILL"/>
</g>

<g transform="matrix( 0.3702850341796875, 0, 0, 0.306976318359375, 92.15,12.5) ">
<use xlink:href="#INSPIRATIONAL_BB_300x250_FINAL_psd_Asset_Layer_4_Align_Crop_Experience_it_for_yourself_0_Layer0_0_MEMBER_5_FILL"/>
</g>

<g transform="matrix( 0.3702850341796875, 0, 0, 0.306976318359375, 92.15,12.5) ">
<use xlink:href="#INSPIRATIONAL_BB_300x250_FINAL_psd_Asset_Layer_4_Align_Crop_Experience_it_for_yourself_0_Layer0_0_MEMBER_6_FILL"/>
</g>

<g transform="matrix( 0.3702850341796875, 0, 0, 0.306976318359375, 92.15,12.5) ">
<use xlink:href="#INSPIRATIONAL_BB_300x250_FINAL_psd_Asset_Layer_4_Align_Crop_Experience_it_for_yourself_0_Layer0_0_MEMBER_7_FILL"/>
</g>

<g transform="matrix( 0.3702850341796875, 0, 0, 0.306976318359375, 92.15,12.5) ">
<use xlink:href="#INSPIRATIONAL_BB_300x250_FINAL_psd_Asset_Layer_4_Align_Crop_Experience_it_for_yourself_0_Layer0_0_MEMBER_8_FILL"/>
</g>

<g transform="matrix( 0.3702850341796875, 0, 0, 0.306976318359375, 92.15,12.5) ">
<use xlink:href="#INSPIRATIONAL_BB_300x250_FINAL_psd_Asset_Layer_4_Align_Crop_Experience_it_for_yourself_0_Layer0_0_MEMBER_9_FILL"/>
</g>

<g transform="matrix( 0.3702850341796875, 0, 0, 0.306976318359375, 92.15,12.5) ">
<use xlink:href="#INSPIRATIONAL_BB_300x250_FINAL_psd_Asset_Layer_4_Align_Crop_Experience_it_for_yourself_0_Layer0_0_MEMBER_10_FILL"/>
</g>

<g transform="matrix( 0.3702850341796875, 0, 0, 0.306976318359375, 92.15,12.5) ">
<use xlink:href="#INSPIRATIONAL_BB_300x250_FINAL_psd_Asset_Layer_4_Align_Crop_Experience_it_for_yourself_0_Layer0_0_MEMBER_11_FILL"/>
</g>

<g transform="matrix( 0.3702850341796875, 0, 0, 0.306976318359375, 92.15,12.5) ">
<use xlink:href="#INSPIRATIONAL_BB_300x250_FINAL_psd_Asset_Layer_4_Align_Crop_Experience_it_for_yourself_0_Layer0_0_MEMBER_12_FILL"/>
</g>

<g transform="matrix( 0.3702850341796875, 0, 0, 0.306976318359375, 92.15,12.5) ">
<use xlink:href="#INSPIRATIONAL_BB_300x250_FINAL_psd_Asset_Layer_4_Align_Crop_Experience_it_for_yourself_0_Layer0_0_MEMBER_13_FILL"/>
</g>

<g transform="matrix( 0.3702850341796875, 0, 0, 0.306976318359375, 92.15,12.5) ">
<use xlink:href="#INSPIRATIONAL_BB_300x250_FINAL_psd_Asset_Layer_4_Align_Crop_Experience_it_for_yourself_0_Layer0_0_MEMBER_14_FILL"/>
</g>

<g transform="matrix( 0.3702850341796875, 0, 0, 0.306976318359375, 92.15,12.5) ">
<use xlink:href="#INSPIRATIONAL_BB_300x250_FINAL_psd_Asset_Layer_4_Align_Crop_Experience_it_for_yourself_0_Layer0_0_MEMBER_15_FILL"/>
</g>

<g transform="matrix( 0.3702850341796875, 0, 0, 0.306976318359375, 92.15,12.5) ">
<use xlink:href="#INSPIRATIONAL_BB_300x250_FINAL_psd_Asset_Layer_4_Align_Crop_Experience_it_for_yourself_0_Layer0_0_MEMBER_16_FILL"/>
</g>

<g transform="matrix( 0.3702850341796875, 0, 0, 0.306976318359375, 92.15,12.5) ">
<use xlink:href="#INSPIRATIONAL_BB_300x250_FINAL_psd_Asset_Layer_4_Align_Crop_Experience_it_for_yourself_0_Layer0_0_MEMBER_17_FILL"/>
</g>

<g transform="matrix( 0.3702850341796875, 0, 0, 0.306976318359375, 92.15,12.5) ">
<use xlink:href="#INSPIRATIONAL_BB_300x250_FINAL_psd_Asset_Layer_4_Align_Crop_Experience_it_for_yourself_0_Layer0_0_MEMBER_18_FILL"/>
</g>

<g transform="matrix( 0.3702850341796875, 0, 0, 0.306976318359375, 92.15,12.5) ">
<use xlink:href="#INSPIRATIONAL_BB_300x250_FINAL_psd_Asset_Layer_4_Align_Crop_Experience_it_for_yourself_0_Layer0_0_MEMBER_19_FILL"/>
</g>

<g transform="matrix( 0.3702850341796875, 0, 0, 0.306976318359375, 92.15,12.5) ">
<use xlink:href="#INSPIRATIONAL_BB_300x250_FINAL_psd_Asset_Layer_4_Align_Crop_Experience_it_for_yourself_0_Layer0_0_MEMBER_20_FILL"/>
</g>

<g transform="matrix( 0.3702850341796875, 0, 0, 0.306976318359375, 92.15,12.5) ">
<use xlink:href="#INSPIRATIONAL_BB_300x250_FINAL_psd_Asset_Layer_4_Align_Crop_Experience_it_for_yourself_0_Layer0_0_MEMBER_21_FILL"/>
</g>

<g transform="matrix( 0.3702850341796875, 0, 0, 0.306976318359375, 92.15,12.5) ">
<use xlink:href="#INSPIRATIONAL_BB_300x250_FINAL_psd_Asset_Layer_4_Align_Crop_Experience_it_for_yourself_0_Layer0_0_MEMBER_22_FILL"/>
</g>

<g transform="matrix( 0.3702850341796875, 0, 0, 0.306976318359375, 92.15,12.5) ">
<use xlink:href="#INSPIRATIONAL_BB_300x250_FINAL_psd_Asset_Layer_4_Align_Crop_Experience_it_for_yourself_0_Layer0_0_MEMBER_23_FILL"/>
</g>

<g transform="matrix( 0.3702850341796875, 0, 0, 0.306976318359375, 92.15,12.5) ">
<use xlink:href="#INSPIRATIONAL_BB_300x250_FINAL_psd_Asset_Layer_4_Align_Crop_Experience_it_for_yourself_0_Layer0_0_MEMBER_24_FILL"/>
</g>

<g transform="matrix( 0.3702850341796875, 0, 0, 0.306976318359375, 92.15,12.5) ">
<use xlink:href="#INSPIRATIONAL_BB_300x250_FINAL_psd_Asset_Layer_4_Align_Crop_Experience_it_for_yourself_0_Layer0_0_MEMBER_25_FILL"/>
</g>

<g transform="matrix( 0.3702850341796875, 0, 0, 0.306976318359375, 92.15,12.5) ">
<use xlink:href="#INSPIRATIONAL_BB_300x250_FINAL_psd_Asset_Layer_4_Align_Crop_Experience_it_for_yourself_0_Layer0_0_MEMBER_26_FILL"/>
</g>

<g transform="matrix( 0.3702850341796875, 0, 0, 0.306976318359375, 92.15,12.5) ">
<use xlink:href="#INSPIRATIONAL_BB_300x250_FINAL_psd_Asset_Layer_4_Align_Crop_Experience_it_for_yourself_0_Layer0_0_MEMBER_27_FILL"/>
</g>

<g transform="matrix( 0.3702850341796875, 0, 0, 0.306976318359375, 92.15,12.5) ">
<use xlink:href="#INSPIRATIONAL_BB_300x250_FINAL_psd_Asset_Layer_4_Align_Crop_Experience_it_for_yourself_0_Layer0_0_MEMBER_28_FILL"/>
</g>

<g transform="matrix( 0.3702850341796875, 0, 0, 0.306976318359375, 92.15,12.5) ">
<use xlink:href="#INSPIRATIONAL_BB_300x250_FINAL_psd_Asset_Layer_4_Align_Crop_Experience_it_for_yourself_0_Layer0_0_MEMBER_29_FILL"/>
</g>

<g transform="matrix( 0.3702850341796875, 0, 0, 0.306976318359375, 92.15,12.5) ">
<use xlink:href="#INSPIRATIONAL_BB_300x250_FINAL_psd_Asset_Layer_4_Align_Crop_Experience_it_for_yourself_0_Layer0_0_MEMBER_30_FILL"/>
</g>

<g transform="matrix( 0.3702850341796875, 0, 0, 0.306976318359375, 92.15,12.5) ">
<use xlink:href="#INSPIRATIONAL_BB_300x250_FINAL_psd_Asset_Layer_4_Align_Crop_Experience_it_for_yourself_0_Layer0_0_MEMBER_31_FILL"/>
</g>
</g>

<g transform="matrix( 0.5473175048828125, 0, 0, 0.5473175048828125, 63.45,84.65) ">
<use xlink:href="#Layer0_0_FILL"/>
</g>
</g>
</svg>
