<?xml version="1.0" encoding="utf-8"?>
<!-- Generator: Adobe Illustrator 19.2.1, SVG Export Plug-In . SVG Version: 6.00 Build 0)  -->
<svg version="1.1" id="Layer_1" xmlns="http://www.w3.org/2000/svg" xmlns:xlink="http://www.w3.org/1999/xlink" x="0px" y="0px"
	 viewBox="0 0 300 250" style="enable-background:new 0 0 300 250;" xml:space="preserve">
<style type="text/css">
	.st0{filter:url(#Adobe_OpacityMaskFilter);}
	.st1{fill:#FFFFFF;}
	.st2{mask:url(#Mask_Mask_1);}
	.st3{fill:#3A3838;}
	.st4{filter:url(#Adobe_OpacityMaskFilter_1_);}
	.st5{mask:url(#Mask_Mask_2);}
</style>
<g transform="matrix( 0.385223388671875, 0, 0, 0.385223388671875, -2.85,-51.9) ">
	<defs>
		<filter id="Adobe_OpacityMaskFilter" filterUnits="userSpaceOnUse" x="48.2" y="289.6" width="356.1" height="80.3">
			<feColorMatrix  type="matrix" values="1 0 0 0 0  0 1 0 0 0  0 0 1 0 0  0 0 0 1 0"/>
		</filter>
	</defs>
	<mask maskUnits="userSpaceOnUse" x="48.2" y="289.6" width="356.1" height="80.3" id="Mask_Mask_1">
		<g transform="matrix( 1, 0, 0, 1, 0,0) " class="st0">
			<g>
				<g id="Mask_flash0_ai_1_Layer_1__Clip_Group__0_2_MASK_0_FILL">
					<path class="st1" d="M792,612V0H0v612H792z"/>
				</g>
			</g>
		</g>
	</mask>
	<g class="st2">
		<g transform="matrix( 1, 0, 0, 1, 0,0) ">
			<g>
				<g id="flash0_ai_1_Layer_1__Clip_Group__0_Layer2_0_FILL">
					<path class="st3" d="M54.1,295.2h13.1V290h-19v28.6h5.9v-11h12.2v-5.1H54.1V295.2z"/>
				</g>
			</g>
		</g>
		<g transform="matrix( 1, 0, 0, 1, 0,0) ">
			<defs>
				<filter id="Adobe_OpacityMaskFilter_1_" filterUnits="userSpaceOnUse" x="78.2" y="289.6" width="326" height="80.3">
					<feColorMatrix  type="matrix" values="1 0 0 0 0  0 1 0 0 0  0 0 1 0 0  0 0 0 1 0"/>
				</filter>
			</defs>
			<mask maskUnits="userSpaceOnUse" x="78.2" y="289.6" width="326" height="80.3" id="Mask_Mask_2">
				<g transform="matrix( 1, 0, 0, 1, 0,0) " class="st4">
					<g>
						<g id="Mask_flash0_ai_1_Layer_1__Clip_Group__0_0_2_MASK_0_FILL">
							<path class="st1" d="M792,612V0H0v612H792z"/>
						</g>
					</g>
				</g>
			</mask>
			<g class="st5">
				<g transform="matrix( 1, 0, 0, 1, 0,0) ">
					<g>
						<g id="flash0_ai_1_Layer_1__Clip_Group__0_0_Layer2_0_FILL">
							<path class="st3" d="M112.5,290h-6v16.5c0,4.8-2,7.2-5.9,7.2c-3.9,0-5.9-2.4-5.9-7.2V290h-6v17c0,3.8,1.1,6.8,3.3,8.9
								c2.1,2,5,3.1,8.6,3.1c3.7,0,6.5-1,8.6-3.1c2.2-2.1,3.3-5.1,3.3-8.9V290z"/>
						</g>
					</g>
				</g>
				<g transform="matrix( 1, 0, 0, 1, 0,0) ">
					<g>
						<g id="flash0_ai_1_Layer_1__Clip_Group__0_0_Layer2_1_FILL">
							<path class="st3" d="M141.2,290h-5.9v28.6h19.3v-5.3h-13.3V290z"/>
						</g>
					</g>
				</g>
				<g transform="matrix( 1, 0, 0, 1, 0,0) ">
					<g>
						<g id="flash0_ai_1_Layer_1__Clip_Group__0_0_Layer2_2_FILL">
							<path class="st3" d="M182.4,290h-5.9v28.6h19.3v-5.3h-13.3V290z"/>
						</g>
					</g>
				</g>
				<g transform="matrix( 1, 0, 0, 1, 0,0) ">
					<g>
						<g id="flash0_ai_1_Layer_1__Clip_Group__0_0_Layer2_3_FILL">
							<path class="st3" d="M263.2,292c-1.7-1.3-4-2-7.1-2h-10.9v28.6h11.9c3,0,5.3-0.7,7-2.1c1.7-1.4,2.5-3.4,2.5-6
								c0-1.5-0.4-2.9-1.3-4.2c-0.9-1.2-2-2-3.4-2.5c1.1-0.4,2-1.1,2.7-2.1c0.7-1.1,1.1-2.4,1.1-3.9
								C265.8,295.3,264.9,293.3,263.2,292 M251,295h4.9c2.9,0,4.3,1.1,4.3,3.3c0,2.3-1.4,3.4-4.3,3.4H251V295 M256.6,306.4
								c1.4,0,2.5,0.3,3.2,0.9s1.1,1.5,1.1,2.7c0,1.1-0.4,2-1.1,2.6c-0.8,0.6-1.8,1-3.2,1H251v-7.1H256.6z"/>
						</g>
					</g>
				</g>
				<g transform="matrix( 1, 0, 0, 1, 0,0) ">
					<g>
						<g id="flash0_ai_1_Layer_1__Clip_Group__0_0_Layer2_4_FILL">
							<path class="st3" d="M310.5,293.7c-2.5-2.8-5.8-4.2-9.8-4.2c-4,0-7.2,1.4-9.8,4.2c-2.5,2.7-3.8,6.2-3.8,10.5
								s1.3,7.8,3.8,10.6c2.5,2.8,5.8,4.2,9.8,4.2c4,0,7.2-1.4,9.8-4.2c2.5-2.8,3.8-6.3,3.8-10.6C314.3,300,313,296.5,310.5,293.7
								 M308.3,304.3c0,2.8-0.7,5.1-2,6.9c-1.4,1.7-3.2,2.6-5.5,2.6c-2.2,0-4-0.9-5.4-2.6c-1.4-1.8-2-4-2-6.9s0.7-5.1,2-6.8
								c1.4-1.7,3.2-2.6,5.4-2.6c2.3,0,4.1,0.9,5.5,2.6C307.6,299.2,308.3,301.5,308.3,304.3z"/>
						</g>
					</g>
				</g>
				<g transform="matrix( 1, 0, 0, 1, 0,0) ">
					<g>
						<g id="flash0_ai_1_Layer_1__Clip_Group__0_0_Layer2_5_FILL">
							<path class="st3" d="M356.4,293.9c-2.5-2.6-5.9-3.9-10.3-3.9H336v28.6h10.1c4.3,0,7.7-1.3,10.3-3.9c2.5-2.6,3.8-6,3.8-10.4
								S358.9,296.4,356.4,293.9 M341.9,295.2h4c2.7,0,4.8,0.8,6.3,2.4c1.4,1.6,2.1,3.8,2.1,6.6s-0.7,5-2.1,6.6
								c-1.5,1.6-3.5,2.4-6.3,2.4h-4V295.2z"/>
						</g>
					</g>
				</g>
				<g transform="matrix( 1, 0, 0, 1, 0,0) ">
					<g>
						<g id="flash0_ai_1_Layer_1__Clip_Group__0_0_Layer2_6_FILL">
							<path class="st3" d="M384.2,290h-6.5l10.3,17.7v10.9h5.9v-10.9l10.4-17.7H398l-6.9,12.1L384.2,290z"/>
						</g>
					</g>
				</g>
				<g transform="matrix( 1, 0, 0, 1, 0,0) ">
					<g>
						<g id="flash0_ai_1_Layer_1__Clip_Group__0_0_Layer2_7_FILL">
							<path class="st3" d="M84.1,346h13.1v-5.2h-19v28.5h5.9v-10.9h12.2v-5.1H84.1V346z"/>
						</g>
					</g>
				</g>
				<g transform="matrix( 1, 0, 0, 1, 0,0) ">
					<g>
						<g id="flash0_ai_1_Layer_1__Clip_Group__0_0_Layer2_8_FILL">
							<path class="st3" d="M138.2,343.2c-1.8-1.6-4.2-2.4-7.3-2.4h-11.8v28.5h6v-10.6h3.1l7,10.6h6.7l-7.6-11
								c2-0.5,3.6-1.5,4.8-2.9c1.2-1.5,1.8-3.3,1.8-5.6C141,347,140.1,344.8,138.2,343.2 M125.1,345.9h5.4c1.5,0,2.6,0.4,3.4,1.1
								c0.7,0.7,1.1,1.7,1.1,2.9c0,1.2-0.4,2.2-1.1,2.9c-0.8,0.7-1.9,1-3.4,1h-5.4V345.9z"/>
						</g>
					</g>
				</g>
				<g transform="matrix( 1, 0, 0, 1, 0,0) ">
					<g>
						<g id="flash0_ai_1_Layer_1__Clip_Group__0_0_Layer2_9_FILL">
							<path class="st3" d="M182.4,340.8H163v28.5h19.4v-5.3h-13.5v-6.8h12.3v-5h-12.3V346h13.5V340.8z"/>
						</g>
					</g>
				</g>
				<g transform="matrix( 1, 0, 0, 1, 0,0) ">
					<g>
						<g id="flash0_ai_1_Layer_1__Clip_Group__0_0_Layer2_10_FILL">
							<path class="st3" d="M224.1,340.8h-19.3v28.5h19.3v-5.3h-13.5v-6.8h12.3v-5h-12.3V346h13.5V340.8z"/>
						</g>
					</g>
				</g>
				<g transform="matrix( 1, 0, 0, 1, 0,0) ">
					<g>
						<g id="flash0_ai_1_Layer_1__Clip_Group__0_0_Layer2_11_FILL">
							<path class="st3" d="M266.8,344.7c-2.5-2.6-6-3.9-10.3-3.9h-10.1v28.5h10.1c4.3,0,7.8-1.3,10.3-3.9c2.5-2.6,3.8-6,3.8-10.4
								S269.3,347.2,266.8,344.7 M252.3,346h4c2.7,0,4.8,0.8,6.3,2.4c1.4,1.6,2.1,3.8,2.1,6.6s-0.7,5-2.1,6.6
								c-1.5,1.6-3.6,2.4-6.3,2.4h-4V346z"/>
						</g>
					</g>
				</g>
				<g transform="matrix( 1, 0, 0, 1, 0,0) ">
					<g>
						<g id="flash0_ai_1_Layer_1__Clip_Group__0_0_Layer2_12_FILL">
							<path class="st3" d="M304.7,340.4c-4,0-7.2,1.4-9.7,4.2c-2.5,2.7-3.8,6.2-3.8,10.5s1.3,7.8,3.8,10.6s5.7,4.1,9.7,4.1
								c4,0,7.2-1.4,9.8-4.1s3.8-6.3,3.8-10.6c0-4.3-1.3-7.8-3.8-10.5C311.9,341.8,308.7,340.4,304.7,340.4 M310.2,348.3
								c1.4,1.7,2,4,2,6.8s-0.7,5.1-2,6.9c-1.4,1.7-3.2,2.6-5.5,2.6c-2.2,0-4-0.9-5.4-2.6c-1.4-1.8-2-4-2-6.9s0.7-5.1,2-6.8
								c1.4-1.7,3.2-2.6,5.4-2.6C307,345.7,308.8,346.5,310.2,348.3z"/>
						</g>
					</g>
				</g>
				<g transform="matrix( 1, 0, 0, 1, 0,0) ">
					<g>
						<g id="flash0_ai_1_Layer_1__Clip_Group__0_0_Layer2_13_FILL">
							<path class="st3" d="M369.3,340.8h-7l-7.6,20.1l-7.7-20.1h-7v28.5h5.6v-18.6l7.1,18.6h4l6.9-18.6v18.6h5.7V340.8z"/>
						</g>
					</g>
				</g>
			</g>
		</g>
	</g>
</g>
</svg>
